
##################################################
#                                                #
#  Shapespyer - soft matter structure generator  #
#                                                #
#  Author: Dr Andrey Brukhno (c) 2020 - 2024     #
#          Daresbury Laboratory, SCD, STFC/UKRI  #
#                                                #
##################################################


shape.py::main(): Parsing input parameters (from CLI or YAML) ...
InputParser.readYaml(): 'yaml' has been successfully imported - proceeding ...

InputParser.readYaml(0): argd = {'angle': {'alpha': 0.0, 'theta': 0.0}, 'density': {'names': ['NONE']}, 'flags': {'alignz': False, 'fxz': True, 'inpbox': False, 'pin': False, 'random': False, 'rev': False, 'smiles': False, 'wav': False}, 'input': {'base': None, 'box': None, 'ext': None, 'file': 'CONFIG_NC15H34_smiles_az', 'isbase': False, 'path': 'inp'}, 'membrane': {'nside': 10, 'zsep': 0}, 'molecule': {'fracs': [], 'mext': [46], 'mint': [0], 'molid': 1, 'molids': [1], 'names': ['DTA'], 'npick': 1, 'resnm': 'DTA'}, 'other': {'ldpd': 0.1, 'minDist': 0.5, 'nlatt': 0, 'nlatx': 0, 'nlaty': 0, 'nlatz': 0, 'slvBuff': 1.0}, 'output': {'base': 'CONFIG_YAML_CONFIG_NC15H34_smiles_az_DTA_mi0_mx46_rod_lr16_fxz', 'ext': '.dlp', 'file': 'CONFIG_YAML_CONFIG_NC15H34_smiles_az_DTA_mi0_mx46_rod_lr16_fxz', 'isbase': True, 'path': '.'}, 'shape': {'fill': 'rings0', 'layers': [1, 1.0, 1.0], 'lring': 16, 'nmols': 0, 'nstep': 0, 'offset': [], 'origin': 'cog', 'radius': 1.2732395447351628, 'turns': 0, 'type': 'rod'}}

InputParser.readYaml(1): options = {'input': {'path': 'inp', 'file': 'CONFIG_NC15H34_smiles_az', 'base': None, 'ext': None, 'box': None, 'isbase': False}, 'output': {'path': '.', 'file': 'CONFIG_YAML_CONFIG_NC15H34_smiles_az_DTA_mi0_mx46_rod_lr16_fxz', 'base': 'CONFIG_YAML_CONFIG_NC15H34_smiles_az_DTA_mi0_mx46_rod_lr16_fxz', 'ext': '.dlp', 'isbase': True}, 'molecule': {'resnm': 'DTA', 'names': ['DTA'], 'mint': [0], 'mext': [46], 'fracs': [], 'molids': [1], 'molid': 1, 'npick': 1}, 'shape': {'type': 'rod', 'radius': 1.2732395447351628, 'lring': 16, 'turns': 0, 'nmols': 0, 'layers': [1, 1, 1, 1, 1.0, 1.0], 'nstep': 0, 'fill': 'rings0', 'origin': 'cog', 'offset': []}, 'angle': {'alpha': 0.0, 'theta': 0.0}, 'membrane': {'nside': 10, 'zsep': 0}, 'other': {'minDist': 0.5, 'slvBuff': 1.0, 'nlatt': 0, 'nlatx': 0, 'nlaty': 0, 'nlatz': 0, 'ldpd': 0.1}, 'flags': {'fxz': True, 'rev': False, 'pin': False, 'wav': False, 'alignz': False, 'smiles': False, 'inpbox': False, 'random': False}, 'density': {'names': ['NONE']}}

InputParser.readYaml(2): options = {'input': {'path': 'inp', 'file': 'CONFIG_NC15H34_smiles_az', 'base': None, 'ext': None, 'box': None, 'isbase': False}, 'output': {'path': '.', 'file': 'CONFIG_YAML_CONFIG_NC15H34_smiles_az_DTA_mi0_mx46_rod_lr16_fxz', 'base': 'CONFIG_YAML_CONFIG_NC15H34_smiles_az_DTA_mi0_mx46_rod_lr16_fxz', 'ext': '.dlp', 'isbase': True}, 'molecule': {'resnm': 'DTA', 'names': ['DTA'], 'mint': [0], 'mext': [46], 'fracs': [], 'molids': [1], 'molid': 1, 'npick': 1}, 'shape': {'type': 'rod', 'radius': 1.2732395447351628, 'lring': 16, 'turns': 0, 'nmols': 0, 'layers': [1, 1, 1, 1, 1.0, 1.0], 'nstep': 0, 'fill': 'rings0', 'origin': 'cog', 'offset': []}, 'angle': {'alpha': 0.0, 'theta': 0.0}, 'membrane': {'nside': 10, 'zsep': 0}, 'other': {'minDist': 0.5, 'slvBuff': 1.0, 'nlatt': 0, 'nlatx': 0, 'nlaty': 0, 'nlatz': 0, 'ldpd': 0.1}, 'flags': {'fxz': True, 'rev': False, 'pin': False, 'wav': False, 'alignz': False, 'smiles': False, 'inpbox': False, 'random': False}, 'density': {'names': ['NONE']}}

shape.py::main(): Parsing input parameters - DONE

shape.py::main(): Check globals & defaults:
Pi = 3.141592653589793, 2*pi = 6.283185307179586, TINY = 1e-12, HUGE = 1e+100
BUFF = 1.0, DMIN = 0.5, RMIN = 1.2732395447351628,

shape.py::main(): Requested molecule names and ids: ['DTA'] -> DTA & [1] -> 1 (1)

shape.py::main(): Requested molecule 'bone' indices: [0] ... [46] & (1)

shape.py::main(): Species' fractions from input = []
shape.py::main(): Number of layers to generate msurf = 1 0 -> [] ...

shape.py::main(): names suffix = 'DTA' =?= 'DTA' (rnames)  based on unique names '['DTA']' ...
shape.py::main(): Created [] - empty input list of species
shape.py::main(): Created [] - empty (output) list of species

shape.py::main(): Added MoleculeSet => { index: 0, name: 'DTA', type: 'output', mass: 0.0, charge: 0.0, nitems: 0;
 rvec: None;
 rcog: None } to the output list of species

shape.py::main(): Initial user-provided output name = CONFIG_YAML_CONFIG_NC15H34_smiles_az_DTA_mi0_mx46_rod_lr16_fxz
shape.py::main(): User-provided output file name 'CONFIG_YAML_CONFIG_NC15H34_smiles_az_DTA_mi0_mx46_rod_lr16_fxz' => DL_POLY/DL_MESO format
shape.py::main(): Using Nmol = 16
shape.py::main(): Using Nlay = 1
shape.py::main(): Using Dmin = 0.5 for min separation between heavy atoms
shape.py::main(): Using Rmin = 1.2732395447351628 for target internal radius (if applicable)
shape.py::main(): Using Rbuf = 1.0 for solvation buffer

InputParser.dumpYaml(): 'yaml' found in sys.modules - proceeding ...
shape.py::main(): Doing: input 'CONFIG_NC15H34_smiles_az' => output 'CONFIG_YAML_CONFIG_NC15H34_smiles_az_DTA_mi0_mx46_rod_lr16_fxz'

CONFIGFile.readInMols(): Ready for reading CONFIG file 'inp/CONFIG_NC15H34_smiles_az' ...
CONFIGFile.readInMols(): Reading CONFIG file 'inp/CONFIG_NC15H34_smiles_az' from line # 0 (file is_open = True)...
CONFIGFile.readInMols(): CONFIG title: 'CONFIG coords for molecule set NC15H34'

CONFIGFile.readInMols(): Adding new molecular species - 0, mspec = 0, nmols = 0
CONFIGFile.readInMols(): Atom => { index: 1, name: 'N1', type: 'DTA', mass: 1.0, charge: 0.0;
 rvec: Vec3[-0.00252117, -0.02710457, 0.58043097] }
CONFIGFile.readInMols(): Atom => { index: 2, name: 'C2', type: 'DTA', mass: 1.0, charge: 0.0;
 rvec: Vec3[0.14400862, -0.01671421, 0.57494793] }
CONFIGFile.readInMols(): Atom => { index: 3, name: 'H21', type: 'DTA', mass: 1.0, charge: 0.0;
 rvec: Vec3[0.17676578, -0.01947856, 0.47102331] }
CONFIGFile.readInMols(): Atom => { index: 4, name: 'H22', type: 'DTA', mass: 1.0, charge: 0.0;
 rvec: Vec3[0.18840653, -0.10013517, 0.62926892] }
CONFIGFile.readInMols(): Atom => { index: 5, name: 'H23', type: 'DTA', mass: 1.0, charge: 0.0;
 rvec: Vec3[0.17550487, 0.0771755, 0.62048591] }
CONFIGFile.readInMols(): Atom => { index: 6, name: 'C3', type: 'DTA', mass: 1.0, charge: 0.0;
 rvec: Vec3[-0.05773109, 0.09259044, 0.64549993] }
CONFIGFile.readInMols(): Atom => { index: 7, name: 'H31', type: 'DTA', mass: 1.0, charge: 0.0;
 rvec: Vec3[0.02362826, 0.15946381, 0.67359989] }
CONFIGFile.readInMols(): Atom => { index: 8, name: 'H32', type: 'DTA', mass: 1.0, charge: 0.0;
 rvec: Vec3[-0.11305938, 0.06320217, 0.73469696] }
CONFIGFile.readInMols(): Atom => { index: 9, name: 'H33', type: 'DTA', mass: 1.0, charge: 0.0;
 rvec: Vec3[-0.12470013, 0.14385877, 0.57645135] }
CONFIGFile.readInMols(): Atom => { index: 10, name: 'C4', type: 'DTA', mass: 1.0, charge: 0.0;
 rvec: Vec3[-0.0403316, -0.14653496, 0.6573449] }
CONFIGFile.readInMols(): Atom => { index: 11, name: 'H41', type: 'DTA', mass: 1.0, charge: 0.0;
 rvec: Vec3[-0.09996044, -0.11681967, 0.74361427] }
CONFIGFile.readInMols(): Atom => { index: 12, name: 'H42', type: 'DTA', mass: 1.0, charge: 0.0;
 rvec: Vec3[0.04962887, -0.1978687, 0.6913002] }
CONFIGFile.readInMols(): Atom => { index: 13, name: 'H43', type: 'DTA', mass: 1.0, charge: 0.0;
 rvec: Vec3[-0.09869952, -0.21347373, 0.59415167] }
CONFIGFile.readInMols(): Atom => { index: 14, name: 'C5', type: 'DTA', mass: 1.0, charge: 0.0;
 rvec: Vec3[-0.05603059, -0.03775954, 0.4439311] }
CONFIGFile.readInMols(): Atom => { index: 15, name: 'H51', type: 'DTA', mass: 1.0, charge: 0.0;
 rvec: Vec3[-0.16468193, -0.04546395, 0.44799675] }
CONFIGFile.readInMols(): Atom => { index: 16, name: 'H52', type: 'DTA', mass: 1.0, charge: 0.0;
 rvec: Vec3[-0.01509262, -0.12651298, 0.39568269] }
CONFIGFile.readInMols(): Atom => { index: 17, name: 'C6', type: 'DTA', mass: 1.0, charge: 0.0;
 rvec: Vec3[-0.01641966, 0.08735801, 0.3633546] }
CONFIGFile.readInMols(): Atom => { index: 18, name: 'H61', type: 'DTA', mass: 1.0, charge: 0.0;
 rvec: Vec3[0.04194826, 0.15429679, 0.42654784] }
CONFIGFile.readInMols(): Atom => { index: 19, name: 'H62', type: 'DTA', mass: 1.0, charge: 0.0;
 rvec: Vec3[-0.10638013, 0.13869175, 0.3293993] }
CONFIGFile.readInMols(): Atom => { index: 20, name: 'C7', type: 'DTA', mass: 1.0, charge: 0.0;
 rvec: Vec3[0.06782659, 0.04537494, 0.24146945] }
CONFIGFile.readInMols(): Atom => { index: 21, name: 'H71', type: 'DTA', mass: 1.0, charge: 0.0;
 rvec: Vec3[0.12041895, -0.04743008, 0.26388084] }
CONFIGFile.readInMols(): Atom => { index: 22, name: 'H72', type: 'DTA', mass: 1.0, charge: 0.0;
 rvec: Vec3[0.14024701, 0.12358567, 0.21867988] }
CONFIGFile.readInMols(): Atom => { index: 23, name: 'C8', type: 'DTA', mass: 1.0, charge: 0.0;
 rvec: Vec3[-0.02455073, 0.02401134, 0.1201186] }
CONFIGFile.readInMols(): Atom => { index: 24, name: 'H81', type: 'DTA', mass: 1.0, charge: 0.0;
 rvec: Vec3[-0.09839713, 0.10408496, 0.11612801] }
CONFIGFile.readInMols(): Atom => { index: 25, name: 'H82', type: 'DTA', mass: 1.0, charge: 0.0;
 rvec: Vec3[-0.07544288, -0.07190727, 0.1296374] }
CONFIGFile.readInMols(): Atom => { index: 26, name: 'C9', type: 'DTA', mass: 1.0, charge: 0.0;
 rvec: Vec3[0.05930809, 0.02503426, -0.00904275] }
CONFIGFile.readInMols(): Atom => { index: 27, name: 'H91', type: 'DTA', mass: 1.0, charge: 0.0;
 rvec: Vec3[0.12895606, -0.0588027, -0.00780782] }
CONFIGFile.readInMols(): Atom => { index: 28, name: 'H92', type: 'DTA', mass: 1.0, charge: 0.0;
 rvec: Vec3[0.11504879, 0.11848551, -0.01543314] }
CONFIGFile.readInMols(): Atom => { index: 29, name: 'C10', type: 'DTA', mass: 1.0, charge: 0.0;
 rvec: Vec3[-0.03398774, 0.01247366, -0.13092023] }
CONFIGFile.readInMols(): Atom => { index: 30, name: 'H101', type: 'DTA', mass: 1.0, charge: 0.0;
 rvec: Vec3[-0.10301383, 0.09681398, -0.13268308] }
CONFIGFile.readInMols(): Atom => { index: 31, name: 'H102', type: 'DTA', mass: 1.0, charge: 0.0;
 rvec: Vec3[-0.09042167, -0.08052609, -0.1240457] }
CONFIGFile.readInMols(): Atom => { index: 32, name: 'C11', type: 'DTA', mass: 1.0, charge: 0.0;
 rvec: Vec3[0.04997189, 0.01214747, -0.2600197] }
CONFIGFile.readInMols(): Atom => { index: 33, name: 'H111', type: 'DTA', mass: 1.0, charge: 0.0;
 rvec: Vec3[0.11913042, -0.07208246, -0.25817101] }
CONFIGFile.readInMols(): Atom => { index: 34, name: 'H112', type: 'DTA', mass: 1.0, charge: 0.0;
 rvec: Vec3[0.10625961, 0.10522869, -0.26698952] }
CONFIGFile.readInMols(): Atom => { index: 35, name: 'C12', type: 'DTA', mass: 1.0, charge: 0.0;
 rvec: Vec3[-0.04330448, -0.00068422, -0.38188384] }
CONFIGFile.readInMols(): Atom => { index: 36, name: 'H121', type: 'DTA', mass: 1.0, charge: 0.0;
 rvec: Vec3[-0.11248212, 0.08353036, -0.38371629] }
CONFIGFile.readInMols(): Atom => { index: 37, name: 'H122', type: 'DTA', mass: 1.0, charge: 0.0;
 rvec: Vec3[-0.09957096, -0.09377939, -0.37492882] }
CONFIGFile.readInMols(): Atom => { index: 38, name: 'C13', type: 'DTA', mass: 1.0, charge: 0.0;
 rvec: Vec3[0.04065214, -0.00096903, -0.51098537] }
CONFIGFile.readInMols(): Atom => { index: 39, name: 'H131', type: 'DTA', mass: 1.0, charge: 0.0;
 rvec: Vec3[0.10982572, -0.08518701, -0.50915555] }
CONFIGFile.readInMols(): Atom => { index: 40, name: 'H132', type: 'DTA', mass: 1.0, charge: 0.0;
 rvec: Vec3[0.09692311, 0.09212364, -0.51793747] }
CONFIGFile.readInMols(): Atom => { index: 41, name: 'C14', type: 'DTA', mass: 1.0, charge: 0.0;
 rvec: Vec3[-0.05262483, -0.01379241, -0.63284992] }
CONFIGFile.readInMols(): Atom => { index: 42, name: 'H141', type: 'DTA', mass: 1.0, charge: 0.0;
 rvec: Vec3[-0.12179782, 0.07042604, -0.63468024] }
CONFIGFile.readInMols(): Atom => { index: 43, name: 'H142', type: 'DTA', mass: 1.0, charge: 0.0;
 rvec: Vec3[-0.10889645, -0.10688466, -0.62589737] }
CONFIGFile.readInMols(): Atom => { index: 44, name: 'C15', type: 'DTA', mass: 1.0, charge: 0.0;
 rvec: Vec3[0.03133188, -0.01407848, -0.76195139] }
CONFIGFile.readInMols(): Atom => { index: 45, name: 'H151', type: 'DTA', mass: 1.0, charge: 0.0;
 rvec: Vec3[0.100505, -0.09829683, -0.76012099] }
CONFIGFile.readInMols(): Atom => { index: 46, name: 'H152', type: 'DTA', mass: 1.0, charge: 0.0;
 rvec: Vec3[0.08760336, 0.07901384, -0.76890403] }
CONFIGFile.readInMols(): Atom => { index: 47, name: 'C16', type: 'DTA', mass: 1.0, charge: 0.0;
 rvec: Vec3[-0.06194507, -0.02690211, -0.88381592] }
CONFIGFile.readInMols(): Atom => { index: 48, name: 'H161', type: 'DTA', mass: 1.0, charge: 0.0;
 rvec: Vec3[-0.13111821, 0.05731621, -0.88564631] }
CONFIGFile.readInMols(): Atom => { index: 49, name: 'H162', type: 'DTA', mass: 1.0, charge: 0.0;
 rvec: Vec3[-0.11821653, -0.11999445, -0.8768633] }
CONFIGFile.readInMols(): Atom => { index: 50, name: 'H163', type: 'DTA', mass: 1.0, charge: 0.0;
 rvec: Vec3[-0.00252117, -0.02710457, -0.97519294] }
CONFIGFile.readInMols(): In total 1 'DTA' of 50 atom(s) found ... 

CONFIGFile.readInMols(): Read-in Mmols = 1, Matms = 50, MolNames = DTA
CONFIGFile.readInMols(): File 'inp/CONFIG_NC15H34_smiles_az' successfully read: lines = 105 & natms = 50

shape.py::main(): Read-in [MoleculeSet => { index: 0, name: 'DTA', type: 'input', mass: 0.0, charge: 0.0, nitems: 1;
 rvec: None;
 rcog: None }]
shape.py::main(): Ordered [MoleculeSet => { index: 0, name: 'DTA', type: 'input', mass: 0.0, charge: 0.0, nitems: 1;
 rvec: None;
 rcog: None }]
shape.py::main(): Read-in M_mols = 1, Mol_Names = ['DTA'], N_mols = [1], N_atms = [50], M_atms = 50

shape.py::main(): Setting molecule 'bone' indices: [0] ... [46] ->  [0] ... [46] & (1 / 0)

Rod.makeNew(warn): Number of turns per cap in a rod 0 too small - reset to 9
Rod.makeNew(warn): Number of rings in a rod 0 too small - reset to 1
Rod.makeNew(cap1): Placing 0-th ring of 1 mols at zorg = -1.2732395447351628, theta = -90.0, rmin = 0.0
Rod.makeNew(cap1): Placing 1-th ring of 6 mols at zorg = -1.1763199553648058, theta = -67.5, rmin = 0.48724767920221645
Rod.makeNew(cap1): Placing 2-th ring of 11 mols at zorg = -0.9003163161571061, theta = -45.0, rmin = 0.9003163161571062
Rod.makeNew(cap1): Placing 3-th ring of 14 mols at zorg = -0.48724767920221634, theta = -22.5, rmin = 1.1763199553648058
Rod.makeNew(tube): Placing 0-th ring of 16 mols at zorg = 0.0, theta = 0.0, rmin = 1.2732395447351628
Rod.makeNew(cap2): Placing 0-th ring of 14 mols at zorg = 0.48724767920221634, theta = 22.5, rmin = 1.1763199553648058
Rod.makeNew(cap2): Placing 1-th ring of 11 mols at zorg = 0.9003163161571061, theta = 45.0, rmin = 0.9003163161571062
Rod.makeNew(cap2): Placing 2-th ring of 6 mols at zorg = 1.1763199553648058, theta = 67.5, rmin = 0.48724767920221645
Rod.makeNew(cap2): Placing 3-th ring of 1 mols at zorg = 1.2732395447351628, theta = 90.0, rmin = 7.796343665038751e-17

shape.py::main(): Replacing '_rod' -> '_rod_nmr80' in the output file name ...

shape.py::main(): Total number of molecules = 80
shape.py::main(): Molecule distribution = [80]


shape.py::main(): MolSys resetting mass (a.u.) of all 4000 atoms -> 18274.976000000017 (isMassElems = True)

shape.py::main(): MolSys initial Rcom = Vec3[0.00758807, -0.00350158, -0.21948555]
shape.py::main(): MolSys initial Rcog = Vec3[0.00758853, -0.0035018, -0.21761608]

MolecularSystem.getDims(): min_xyz, min_ids = [-28.275839594331323, -28.275839594331323, -28.275839594331316] @ (2049, 2249, 49)
MolecularSystem.getDims(): min_xyz, min_ids = [28.275839594331323, 28.275839594331323, 28.275839594331323] @ (1649, 1849, 3999)

shape.py::main(): MolSys rcob = [0.0, 0.0, 3.552713678800501e-15]
shape.py::main(): MolSys bbox = [56.55167919 56.55167919 56.55167919]
shape.py::main(): MolSys sbox = [66.55167919 66.55167919 66.55167919] -> [66.55167919 66.55167919 66.55167919]
shape.py::main(): MolSys hbox = [33.27583959 33.27583959 33.27583959]
shape.py::main(): MolSys orig = [0. 0. 0.] + [0.0, 0.0, 0.0]

Applying PBC to molecules in set 'DTA': box = [66.55167919 66.55167919 66.55167919] & isMolPBC = True
Molecule.updateRvecs(): Molecule 0 has been restored w.r.t. PBC ...
Molecule.updateRvecs(): Molecule 1 has been restored w.r.t. PBC ...
Molecule.updateRvecs(): Molecule 2 has been restored w.r.t. PBC ...
Molecule.updateRvecs(): Molecule 3 has been restored w.r.t. PBC ...
Molecule.updateRvecs(): Molecule 4 has been restored w.r.t. PBC ...
Molecule.updateRvecs(): Molecule 5 has been restored w.r.t. PBC ...

shape.py::main(): MolSys *PBC* Rcom = Vec3[0.00758807, -0.00350158, -0.21948555]
shape.py::main(): MolSys *PBC* Rcog = Vec3[0.00758853, -0.0035018, -0.21761608]

shape.py::main(): MolSys placing structure COG at [0. 0. 0.] ...

Applying PBC to molecules in set 'DTA': box = [66.55167919 66.55167919 66.55167919] & isMolPBC = True
Molecule.updateRvecs(): Molecule 0 has been restored w.r.t. PBC ...
Molecule.updateRvecs(): Molecule 1 has been restored w.r.t. PBC ...
Molecule.updateRvecs(): Molecule 2 has been restored w.r.t. PBC ...
Molecule.updateRvecs(): Molecule 3 has been restored w.r.t. PBC ...
Molecule.updateRvecs(): Molecule 4 has been restored w.r.t. PBC ...
Molecule.updateRvecs(): Molecule 5 has been restored w.r.t. PBC ...

shape.py::main(): MolSys *PBC* Rcom = Vec3[-4.7e-07, 2.2e-07, -0.00186947]
shape.py::main(): MolSys *PBC* Rcog = Vec3[0.0, 0.0, 0.0]

shape.py::main(): MolSys final Rcob = Vec3[-0.00758853, 0.0035018, 0.21761608]
shape.py::main(): MolSys final Rcom = Vec3[-4.7e-07, 2.2e-07, -0.00186947]
shape.py::main(): MolSys final Rcog = Vec3[0.0, 0.0, 0.0]

CONFIGFile.writeOutMols(): Ready for writing CONFIG file './CONFIG_YAML_CONFIG_NC15H34_smiles_az_DTA_mi0_mx46_rod_nmr80_lr16_fxz' ...
CONFIGFile.writeOutMols(): Writing CONFIG file './CONFIG_YAML_CONFIG_NC15H34_smiles_az_DTA_mi0_mx46_rod_nmr80_lr16_fxz' ...
CONFIGFile.writeOutMols(): Writing molecule 1 ('DTA') into CONFIG file './CONFIG_YAML_CONFIG_NC15H34_smiles_az_DTA_mi0_mx46_rod_nmr80_lr16_fxz' ...
CONFIGFile.writeOutMols(): Appending molecule 2 ('DTA') to file './CONFIG_YAML_CONFIG_NC15H34_smiles_az_DTA_mi0_mx46_rod_nmr80_lr16_fxz' ...
CONFIGFile.writeOutMols(): Appending molecule 3 ('DTA') to file './CONFIG_YAML_CONFIG_NC15H34_smiles_az_DTA_mi0_mx46_rod_nmr80_lr16_fxz' ...
CONFIGFile.writeOutMols(): Appending molecule 4 ('DTA') to file './CONFIG_YAML_CONFIG_NC15H34_smiles_az_DTA_mi0_mx46_rod_nmr80_lr16_fxz' ...
CONFIGFile.writeOutMols(): Appending molecule 5 ('DTA') to file './CONFIG_YAML_CONFIG_NC15H34_smiles_az_DTA_mi0_mx46_rod_nmr80_lr16_fxz' ...
CONFIGFile.writeOutMols(): Appending molecule 6 ('DTA') to file './CONFIG_YAML_CONFIG_NC15H34_smiles_az_DTA_mi0_mx46_rod_nmr80_lr16_fxz' ...
CONFIGFile.writeOutMols(): Appending molecule 7 ('DTA') to file './CONFIG_YAML_CONFIG_NC15H34_smiles_az_DTA_mi0_mx46_rod_nmr80_lr16_fxz' ...
CONFIGFile.writeOutMols(): Appending molecule 8 ('DTA') to file './CONFIG_YAML_CONFIG_NC15H34_smiles_az_DTA_mi0_mx46_rod_nmr80_lr16_fxz' ...
CONFIGFile.writeOutMols(): Appending molecule 9 ('DTA') to file './CONFIG_YAML_CONFIG_NC15H34_smiles_az_DTA_mi0_mx46_rod_nmr80_lr16_fxz' ...
CONFIGFile.writeOutMols(): Appending molecule 10 ('DTA') to file './CONFIG_YAML_CONFIG_NC15H34_smiles_az_DTA_mi0_mx46_rod_nmr80_lr16_fxz' ...
CONFIGFile.writeOutMols(): Appending molecule 20 ('DTA') to file './CONFIG_YAML_CONFIG_NC15H34_smiles_az_DTA_mi0_mx46_rod_nmr80_lr16_fxz' ...
CONFIGFile.writeOutMols(): Appending molecule 30 ('DTA') to file './CONFIG_YAML_CONFIG_NC15H34_smiles_az_DTA_mi0_mx46_rod_nmr80_lr16_fxz' ...
CONFIGFile.writeOutMols(): Appending molecule 40 ('DTA') to file './CONFIG_YAML_CONFIG_NC15H34_smiles_az_DTA_mi0_mx46_rod_nmr80_lr16_fxz' ...
CONFIGFile.writeOutMols(): Appending molecule 50 ('DTA') to file './CONFIG_YAML_CONFIG_NC15H34_smiles_az_DTA_mi0_mx46_rod_nmr80_lr16_fxz' ...
CONFIGFile.writeOutMols(): Appending molecule 60 ('DTA') to file './CONFIG_YAML_CONFIG_NC15H34_smiles_az_DTA_mi0_mx46_rod_nmr80_lr16_fxz' ...
CONFIGFile.writeOutMols(): Appending molecule 70 ('DTA') to file './CONFIG_YAML_CONFIG_NC15H34_smiles_az_DTA_mi0_mx46_rod_nmr80_lr16_fxz' ...
CONFIGFile.writeOutMols(): Appending molecule 80 ('DTA') to file './CONFIG_YAML_CONFIG_NC15H34_smiles_az_DTA_mi0_mx46_rod_nmr80_lr16_fxz' ...
CONFIGFile.writeOutMols(): File './CONFIG_YAML_CONFIG_NC15H34_smiles_az_DTA_mi0_mx46_rod_nmr80_lr16_fxz' successfully written: lines = 8005 : n_mols = 80 & n_atms = 4000 / 4000

