
> shape.py --dio=inp,. -i DTA.sml -o CLI_DTA -x .gro -s smiles -r NC15H34  > DTA.log
Looking for pattern: 'CLI_DTA_NC15H34*.gro' -> CLI_DTA_NC15H34*.gro ...
CONFOUT = CLI_DTA_NC15H34_smiles.gro
SUFFIX = NC15H34_smiles
renamed 'DTA.log' -> 'CLI_DTA_NC15H34_smiles.log'
renamed 'input-dump.yaml' -> 'dumpC_DTA_NC15H34_smiles.yaml'
'inp/input_DTA_NC15H34_smiles.yaml' -> './input_DTA_NC15H34_smiles.yaml'

> shape.py -y input_DTA_NC15H34_smiles.yaml > YAML_DTA_NC15H34_smiles.log
renamed 'input-dump.yaml' -> 'dumpY_DTA_NC15H34_smiles.yaml'

TEST PASSED
removed 'CLI_DTA_NC15H34_smiles.gro'
removed 'CLI_DTA_NC15H34_smiles.log'
removed 'dumpC_DTA_NC15H34_smiles.yaml'
removed 'dumpY_DTA_NC15H34_smiles.yaml'
removed 'input_DTA_NC15H34_smiles.yaml'
removed 'YAML_DTA_NC15H34_smiles.gro'
removed 'YAML_DTA_NC15H34_smiles.log'
removed 'CLI_YAML.diff'
2.15user 8.04system 0:00.26elapsed 3821%CPU (0avgtext+0avgdata 30848maxresident)k
24inputs+256outputs (0major+14318minor)pagefaults 0swaps

> shape.py --dio=inp,. -i DTA.sml -o CLI_DTA -x .gro -s smiles -r NC15H34 --alignz > DTA.log
Looking for pattern: 'CLI_DTA_NC15H34*.gro' -> CLI_DTA_NC15H34*.gro ...
CONFOUT = CLI_DTA_NC15H34_smiles_az.gro
SUFFIX = NC15H34_smiles_az
renamed 'DTA.log' -> 'CLI_DTA_NC15H34_smiles_az.log'
renamed 'input-dump.yaml' -> 'dumpC_DTA_NC15H34_smiles_az.yaml'
'inp/input_DTA_NC15H34_smiles_az.yaml' -> './input_DTA_NC15H34_smiles_az.yaml'

> shape.py -y input_DTA_NC15H34_smiles_az.yaml > YAML_DTA_NC15H34_smiles_az.log
renamed 'input-dump.yaml' -> 'dumpY_DTA_NC15H34_smiles_az.yaml'

TEST PASSED
removed 'CLI_DTA_NC15H34_smiles_az.gro'
removed 'CLI_DTA_NC15H34_smiles_az.log'
removed 'dumpC_DTA_NC15H34_smiles_az.yaml'
removed 'dumpY_DTA_NC15H34_smiles_az.yaml'
removed 'input_DTA_NC15H34_smiles_az.yaml'
removed 'YAML_DTA_NC15H34_smiles_az.gro'
removed 'YAML_DTA_NC15H34_smiles_az.log'
removed 'CLI_YAML.diff'
2.32user 9.65system 0:00.29elapsed 4032%CPU (0avgtext+0avgdata 30892maxresident)k
16inputs+248outputs (13major+14370minor)pagefaults 0swaps

> shape.py --dio=inp,. -i DTA.sml -o CLI_DTA -x .gro -s smiles -r C15H34N   > DTA.log
Looking for pattern: 'CLI_DTA_C15H34N*.gro' -> CLI_DTA_C15H34N*.gro ...
CONFOUT = CLI_DTA_C15H34N_smiles.gro
SUFFIX = C15H34N_smiles
renamed 'DTA.log' -> 'CLI_DTA_C15H34N_smiles.log'
renamed 'input-dump.yaml' -> 'dumpC_DTA_C15H34N_smiles.yaml'
'inp/input_DTA_C15H34N_smiles.yaml' -> './input_DTA_C15H34N_smiles.yaml'

> shape.py -y input_DTA_C15H34N_smiles.yaml > YAML_DTA_C15H34N_smiles.log
renamed 'input-dump.yaml' -> 'dumpY_DTA_C15H34N_smiles.yaml'

TEST PASSED
removed 'CLI_DTA_C15H34N_smiles.gro'
removed 'CLI_DTA_C15H34N_smiles.log'
removed 'dumpC_DTA_C15H34N_smiles.yaml'
removed 'dumpY_DTA_C15H34N_smiles.yaml'
removed 'input_DTA_C15H34N_smiles.yaml'
removed 'YAML_DTA_C15H34N_smiles.gro'
removed 'YAML_DTA_C15H34N_smiles.log'
removed 'CLI_YAML.diff'
2.30user 9.37system 0:00.29elapsed 3916%CPU (0avgtext+0avgdata 30884maxresident)k
16inputs+240outputs (28major+14328minor)pagefaults 0swaps

> shape.py --dio=inp,. -i DTA.sml -o CLI_DTA -x .gro -s smiles -r C15H34N --alignz > DTA.log
Looking for pattern: 'CLI_DTA_C15H34N*.gro' -> CLI_DTA_C15H34N*.gro ...
CONFOUT = CLI_DTA_C15H34N_smiles_az.gro
SUFFIX = C15H34N_smiles_az
renamed 'DTA.log' -> 'CLI_DTA_C15H34N_smiles_az.log'
renamed 'input-dump.yaml' -> 'dumpC_DTA_C15H34N_smiles_az.yaml'
'inp/input_DTA_C15H34N_smiles_az.yaml' -> './input_DTA_C15H34N_smiles_az.yaml'

> shape.py -y input_DTA_C15H34N_smiles_az.yaml > YAML_DTA_C15H34N_smiles_az.log
renamed 'input-dump.yaml' -> 'dumpY_DTA_C15H34N_smiles_az.yaml'

TEST PASSED
removed 'CLI_DTA_C15H34N_smiles_az.gro'
removed 'CLI_DTA_C15H34N_smiles_az.log'
removed 'dumpC_DTA_C15H34N_smiles_az.yaml'
removed 'dumpY_DTA_C15H34N_smiles_az.yaml'
removed 'input_DTA_C15H34N_smiles_az.yaml'
removed 'YAML_DTA_C15H34N_smiles_az.gro'
removed 'YAML_DTA_C15H34N_smiles_az.log'
removed 'CLI_YAML.diff'
2.30user 8.99system 0:00.28elapsed 3989%CPU (0avgtext+0avgdata 31052maxresident)k
16inputs+240outputs (0major+14225minor)pagefaults 0swaps

> shape.py --dio=inp,. -i SDS-DTA.sml -o CLI_SDS-DTA -x .gro -s smiles -r SDS,DTA  > SDS-DTA.log
Looking for pattern: 'CLI_SDS-DTA_SDS,DTA*.gro' -> CLI_SDS-DTA_SDS-DTA*.gro ...
CONFOUT = CLI_SDS-DTA_SDS-DTA_smiles.gro
SUFFIX = SDS-DTA_smiles
renamed 'SDS-DTA.log' -> 'CLI_SDS-DTA_SDS-DTA_smiles.log'
renamed 'input-dump.yaml' -> 'dumpC_SDS-DTA_SDS-DTA_smiles.yaml'
'inp/input_SDS-DTA_SDS-DTA_smiles.yaml' -> './input_SDS-DTA_SDS-DTA_smiles.yaml'

> shape.py -y input_SDS-DTA_SDS-DTA_smiles.yaml > YAML_SDS-DTA_SDS-DTA_smiles.log
renamed 'input-dump.yaml' -> 'dumpY_SDS-DTA_SDS-DTA_smiles.yaml'

TEST PASSED
removed 'CLI_SDS-DTA_SDS-DTA_smiles.gro'
removed 'CLI_SDS-DTA_SDS-DTA_smiles.log'
removed 'dumpC_SDS-DTA_SDS-DTA_smiles.yaml'
removed 'dumpY_SDS-DTA_SDS-DTA_smiles.yaml'
removed 'input_SDS-DTA_SDS-DTA_smiles.yaml'
removed 'YAML_SDS-DTA_SDS-DTA_smiles.gro'
removed 'YAML_SDS-DTA_SDS-DTA_smiles.log'
removed 'CLI_YAML.diff'
2.46user 9.08system 0:00.29elapsed 3887%CPU (0avgtext+0avgdata 31148maxresident)k
24inputs+392outputs (13major+14358minor)pagefaults 0swaps

> shape.py --dio=inp,. -i SDS-DTA.sml -o CLI_SDS-DTA -x .gro -s smiles -r SO4C12,NC15H34  > SDS-DTA.log
Looking for pattern: 'CLI_SDS-DTA_SO4C12,NC15H34*.gro' -> CLI_SDS-DTA_SO4C12-NC15H34*.gro ...
CONFOUT = CLI_SDS-DTA_SO4C12-NC15H34_smiles.gro
SUFFIX = SO4C12-NC15H34_smiles
renamed 'SDS-DTA.log' -> 'CLI_SDS-DTA_SO4C12-NC15H34_smiles.log'
renamed 'input-dump.yaml' -> 'dumpC_SDS-DTA_SO4C12-NC15H34_smiles.yaml'
'inp/input_SDS-DTA_SO4C12-NC15H34_smiles.yaml' -> './input_SDS-DTA_SO4C12-NC15H34_smiles.yaml'

> shape.py -y input_SDS-DTA_SO4C12-NC15H34_smiles.yaml > YAML_SDS-DTA_SO4C12-NC15H34_smiles.log
renamed 'input-dump.yaml' -> 'dumpY_SDS-DTA_SO4C12-NC15H34_smiles.yaml'

TEST PASSED
removed 'CLI_SDS-DTA_SO4C12-NC15H34_smiles.gro'
removed 'CLI_SDS-DTA_SO4C12-NC15H34_smiles.log'
removed 'dumpC_SDS-DTA_SO4C12-NC15H34_smiles.yaml'
removed 'dumpY_SDS-DTA_SO4C12-NC15H34_smiles.yaml'
removed 'input_SDS-DTA_SO4C12-NC15H34_smiles.yaml'
removed 'YAML_SDS-DTA_SO4C12-NC15H34_smiles.gro'
removed 'YAML_SDS-DTA_SO4C12-NC15H34_smiles.log'
removed 'CLI_YAML.diff'
2.23user 9.64system 0:00.29elapsed 4082%CPU (0avgtext+0avgdata 30876maxresident)k
0inputs+416outputs (7major+14346minor)pagefaults 0swaps

> shape.py --dio=inp,. -i SDS-DTA.sml -o CLI_SDS-DTA -x .gro -s smiles -r [SO4C12,NC15H34] --alignz > SDS-DTA.log
Looking for pattern: 'CLI_SDS-DTA_[SO4C12,NC15H34]*.gro' -> CLI_SDS-DTA_SO4C12-NC15H34*.gro ...
CONFOUT = CLI_SDS-DTA_SO4C12-NC15H34_smiles_az.gro
SUFFIX = SO4C12-NC15H34_smiles_az
renamed 'SDS-DTA.log' -> 'CLI_SDS-DTA_SO4C12-NC15H34_smiles_az.log'
renamed 'input-dump.yaml' -> 'dumpC_SDS-DTA_SO4C12-NC15H34_smiles_az.yaml'
'inp/input_SDS-DTA_SO4C12-NC15H34_smiles_az.yaml' -> './input_SDS-DTA_SO4C12-NC15H34_smiles_az.yaml'

> shape.py -y input_SDS-DTA_SO4C12-NC15H34_smiles_az.yaml > YAML_SDS-DTA_SO4C12-NC15H34_smiles_az.log
renamed 'input-dump.yaml' -> 'dumpY_SDS-DTA_SO4C12-NC15H34_smiles_az.yaml'

TEST PASSED
removed 'CLI_SDS-DTA_SO4C12-NC15H34_smiles_az.gro'
removed 'CLI_SDS-DTA_SO4C12-NC15H34_smiles_az.log'
removed 'dumpC_SDS-DTA_SO4C12-NC15H34_smiles_az.yaml'
removed 'dumpY_SDS-DTA_SO4C12-NC15H34_smiles_az.yaml'
removed 'input_SDS-DTA_SO4C12-NC15H34_smiles_az.yaml'
removed 'YAML_SDS-DTA_SO4C12-NC15H34_smiles_az.gro'
removed 'YAML_SDS-DTA_SO4C12-NC15H34_smiles_az.log'
removed 'CLI_YAML.diff'
2.25user 9.25system 0:00.30elapsed 3799%CPU (0avgtext+0avgdata 30884maxresident)k
0inputs+416outputs (5major+14380minor)pagefaults 0swaps

> shape.py --dio=inp,. -i SDS-DTA.sml -o CLI_SDS-DTA -x .gro -s smiles -r [NC15H34,SO4C12] --alignz > SDS-DTA.log
Looking for pattern: 'CLI_SDS-DTA_[NC15H34,SO4C12]*.gro' -> CLI_SDS-DTA_NC15H34-SO4C12*.gro ...
CONFOUT = CLI_SDS-DTA_NC15H34-SO4C12_smiles_az.gro
SUFFIX = NC15H34-SO4C12_smiles_az
renamed 'SDS-DTA.log' -> 'CLI_SDS-DTA_NC15H34-SO4C12_smiles_az.log'
renamed 'input-dump.yaml' -> 'dumpC_SDS-DTA_NC15H34-SO4C12_smiles_az.yaml'
'inp/input_SDS-DTA_NC15H34-SO4C12_smiles_az.yaml' -> './input_SDS-DTA_NC15H34-SO4C12_smiles_az.yaml'

> shape.py -y input_SDS-DTA_NC15H34-SO4C12_smiles_az.yaml > YAML_SDS-DTA_NC15H34-SO4C12_smiles_az.log
renamed 'input-dump.yaml' -> 'dumpY_SDS-DTA_NC15H34-SO4C12_smiles_az.yaml'

TEST PASSED
removed 'CLI_SDS-DTA_NC15H34-SO4C12_smiles_az.gro'
removed 'CLI_SDS-DTA_NC15H34-SO4C12_smiles_az.log'
removed 'dumpC_SDS-DTA_NC15H34-SO4C12_smiles_az.yaml'
removed 'dumpY_SDS-DTA_NC15H34-SO4C12_smiles_az.yaml'
removed 'input_SDS-DTA_NC15H34-SO4C12_smiles_az.yaml'
removed 'YAML_SDS-DTA_NC15H34-SO4C12_smiles_az.gro'
removed 'YAML_SDS-DTA_NC15H34-SO4C12_smiles_az.log'
removed 'CLI_YAML.diff'
2.31user 9.14system 0:00.28elapsed 4075%CPU (0avgtext+0avgdata 30996maxresident)k
0inputs+424outputs (1major+14358minor)pagefaults 0swaps

> shape.py --dio=inp,. -i CTA.sml -o CLI_CTA -x .gro -s smiles -r CTA10  > CTA.log
Looking for pattern: 'CLI_CTA_CTA10*.gro' -> CLI_CTA_CTA10*.gro ...
CONFOUT = CLI_CTA_CTA10_smiles.gro
SUFFIX = CTA10_smiles
renamed 'CTA.log' -> 'CLI_CTA_CTA10_smiles.log'
renamed 'input-dump.yaml' -> 'dumpC_CTA_CTA10_smiles.yaml'
'inp/input_CTA_CTA10_smiles.yaml' -> './input_CTA_CTA10_smiles.yaml'

> shape.py -y input_CTA_CTA10_smiles.yaml > YAML_CTA_CTA10_smiles.log
renamed 'input-dump.yaml' -> 'dumpY_CTA_CTA10_smiles.yaml'

TEST PASSED
removed 'CLI_CTA_CTA10_smiles.gro'
removed 'CLI_CTA_CTA10_smiles.log'
removed 'dumpC_CTA_CTA10_smiles.yaml'
removed 'dumpY_CTA_CTA10_smiles.yaml'
removed 'input_CTA_CTA10_smiles.yaml'
removed 'YAML_CTA_CTA10_smiles.gro'
removed 'YAML_CTA_CTA10_smiles.log'
removed 'CLI_YAML.diff'
2.20user 8.82system 0:00.29elapsed 3764%CPU (0avgtext+0avgdata 30848maxresident)k
24inputs+224outputs (10major+14313minor)pagefaults 0swaps

> shape.py --dio=inp,. -i CTA.sml -o CLI_CTA -x .gro -s smiles -r C13H30N  > CTA.log
Looking for pattern: 'CLI_CTA_C13H30N*.gro' -> CLI_CTA_C13H30N*.gro ...
CONFOUT = CLI_CTA_C13H30N_smiles.gro
SUFFIX = C13H30N_smiles
renamed 'CTA.log' -> 'CLI_CTA_C13H30N_smiles.log'
renamed 'input-dump.yaml' -> 'dumpC_CTA_C13H30N_smiles.yaml'
'inp/input_CTA_C13H30N_smiles.yaml' -> './input_CTA_C13H30N_smiles.yaml'

> shape.py -y input_CTA_C13H30N_smiles.yaml > YAML_CTA_C13H30N_smiles.log
renamed 'input-dump.yaml' -> 'dumpY_CTA_C13H30N_smiles.yaml'

TEST PASSED
removed 'CLI_CTA_C13H30N_smiles.gro'
removed 'CLI_CTA_C13H30N_smiles.log'
removed 'dumpC_CTA_C13H30N_smiles.yaml'
removed 'dumpY_CTA_C13H30N_smiles.yaml'
removed 'input_CTA_C13H30N_smiles.yaml'
removed 'YAML_CTA_C13H30N_smiles.gro'
removed 'YAML_CTA_C13H30N_smiles.log'
removed 'CLI_YAML.diff'
2.04user 8.19system 0:00.26elapsed 3832%CPU (0avgtext+0avgdata 30724maxresident)k
16inputs+224outputs (1major+14302minor)pagefaults 0swaps

> shape.py --dio=inp,. -i CTA.sml -o CLI_CTA -x .gro -s smiles -r NC13H30 --alignz > CTA.log
Looking for pattern: 'CLI_CTA_NC13H30*.gro' -> CLI_CTA_NC13H30*.gro ...
CONFOUT = CLI_CTA_NC13H30_smiles_az.gro
SUFFIX = NC13H30_smiles_az
renamed 'CTA.log' -> 'CLI_CTA_NC13H30_smiles_az.log'
renamed 'input-dump.yaml' -> 'dumpC_CTA_NC13H30_smiles_az.yaml'
'inp/input_CTA_NC13H30_smiles_az.yaml' -> './input_CTA_NC13H30_smiles_az.yaml'

> shape.py -y input_CTA_NC13H30_smiles_az.yaml > YAML_CTA_NC13H30_smiles_az.log
renamed 'input-dump.yaml' -> 'dumpY_CTA_NC13H30_smiles_az.yaml'

TEST PASSED
removed 'CLI_CTA_NC13H30_smiles_az.gro'
removed 'CLI_CTA_NC13H30_smiles_az.log'
removed 'dumpC_CTA_NC13H30_smiles_az.yaml'
removed 'dumpY_CTA_NC13H30_smiles_az.yaml'
removed 'input_CTA_NC13H30_smiles_az.yaml'
removed 'YAML_CTA_NC13H30_smiles_az.gro'
removed 'YAML_CTA_NC13H30_smiles_az.log'
removed 'CLI_YAML.diff'
2.01user 8.73system 0:00.27elapsed 3922%CPU (0avgtext+0avgdata 30836maxresident)k
16inputs+224outputs (0major+14300minor)pagefaults 0swaps

> shape.py --dio=inp,. -i CTA.sml -o CLI_CTA -x .gro -s smiles -r NC19H42 --alignz > CTA.log
Looking for pattern: 'CLI_CTA_NC19H42*.gro' -> CLI_CTA_NC19H42*.gro ...
CONFOUT = CLI_CTA_NC19H42_smiles_az.gro
SUFFIX = NC19H42_smiles_az
renamed 'CTA.log' -> 'CLI_CTA_NC19H42_smiles_az.log'
renamed 'input-dump.yaml' -> 'dumpC_CTA_NC19H42_smiles_az.yaml'
'inp/input_CTA_NC19H42_smiles_az.yaml' -> './input_CTA_NC19H42_smiles_az.yaml'

> shape.py -y input_CTA_NC19H42_smiles_az.yaml > YAML_CTA_NC19H42_smiles_az.log
renamed 'input-dump.yaml' -> 'dumpY_CTA_NC19H42_smiles_az.yaml'

TEST PASSED
removed 'CLI_CTA_NC19H42_smiles_az.gro'
removed 'CLI_CTA_NC19H42_smiles_az.log'
removed 'dumpC_CTA_NC19H42_smiles_az.yaml'
removed 'dumpY_CTA_NC19H42_smiles_az.yaml'
removed 'input_CTA_NC19H42_smiles_az.yaml'
removed 'YAML_CTA_NC19H42_smiles_az.gro'
removed 'YAML_CTA_NC19H42_smiles_az.log'
removed 'CLI_YAML.diff'
2.26user 9.70system 0:00.29elapsed 4044%CPU (0avgtext+0avgdata 30972maxresident)k
16inputs+288outputs (5major+14307minor)pagefaults 0swaps

> shape.py --dio=inp,. -i CTA.sml -o CLI_CTA -x .gro -s smiles -r CTA16  > CTA.log
Looking for pattern: 'CLI_CTA_CTA16*.gro' -> CLI_CTA_CTA16*.gro ...
CONFOUT = CLI_CTA_CTA16_smiles.gro
SUFFIX = CTA16_smiles
renamed 'CTA.log' -> 'CLI_CTA_CTA16_smiles.log'
renamed 'input-dump.yaml' -> 'dumpC_CTA_CTA16_smiles.yaml'
'inp/input_CTA_CTA16_smiles.yaml' -> './input_CTA_CTA16_smiles.yaml'

> shape.py -y input_CTA_CTA16_smiles.yaml > YAML_CTA_CTA16_smiles.log
renamed 'input-dump.yaml' -> 'dumpY_CTA_CTA16_smiles.yaml'

TEST PASSED
removed 'CLI_CTA_CTA16_smiles.gro'
removed 'CLI_CTA_CTA16_smiles.log'
removed 'dumpC_CTA_CTA16_smiles.yaml'
removed 'dumpY_CTA_CTA16_smiles.yaml'
removed 'input_CTA_CTA16_smiles.yaml'
removed 'YAML_CTA_CTA16_smiles.gro'
removed 'YAML_CTA_CTA16_smiles.log'
removed 'CLI_YAML.diff'
2.29user 9.68system 0:00.29elapsed 4005%CPU (0avgtext+0avgdata 30812maxresident)k
16inputs+272outputs (4major+14368minor)pagefaults 0swaps

> shape.py --dio=inp,. -i CTA.sml -o CLI_CTA -x .gro -s smiles -r C19H42N  > CTA.log
Looking for pattern: 'CLI_CTA_C19H42N*.gro' -> CLI_CTA_C19H42N*.gro ...
CONFOUT = CLI_CTA_C19H42N_smiles.gro
SUFFIX = C19H42N_smiles
renamed 'CTA.log' -> 'CLI_CTA_C19H42N_smiles.log'
renamed 'input-dump.yaml' -> 'dumpC_CTA_C19H42N_smiles.yaml'
'inp/input_CTA_C19H42N_smiles.yaml' -> './input_CTA_C19H42N_smiles.yaml'

> shape.py -y input_CTA_C19H42N_smiles.yaml > YAML_CTA_C19H42N_smiles.log
renamed 'input-dump.yaml' -> 'dumpY_CTA_C19H42N_smiles.yaml'

TEST PASSED
removed 'CLI_CTA_C19H42N_smiles.gro'
removed 'CLI_CTA_C19H42N_smiles.log'
removed 'dumpC_CTA_C19H42N_smiles.yaml'
removed 'dumpY_CTA_C19H42N_smiles.yaml'
removed 'input_CTA_C19H42N_smiles.yaml'
removed 'YAML_CTA_C19H42N_smiles.gro'
removed 'YAML_CTA_C19H42N_smiles.log'
removed 'CLI_YAML.diff'
2.19user 8.98system 0:00.27elapsed 4066%CPU (0avgtext+0avgdata 30976maxresident)k
16inputs+272outputs (3major+14317minor)pagefaults 0swaps

> shape.py --dio=inp,. -i NC15H34_smiles_az.gro -o CLI_NC15H34_smiles_az -x .gro -s ring -r DTA -l 15 > NC15H34_smiles_az.log
Looking for pattern: 'CLI_NC15H34_smiles_az_DTA*.gro' -> CLI_NC15H34_smiles_az_DTA*.gro ...
CONFOUT = CLI_NC15H34_smiles_az_DTA_ring_lr15.gro
SUFFIX = DTA_ring_lr15
renamed 'NC15H34_smiles_az.log' -> 'CLI_NC15H34_smiles_az_DTA_ring_lr15.log'
renamed 'input-dump.yaml' -> 'dumpC_NC15H34_smiles_az_DTA_ring_lr15.yaml'
'inp/input_NC15H34_smiles_az_DTA_ring_lr15.yaml' -> './input_NC15H34_smiles_az_DTA_ring_lr15.yaml'

> shape.py -y input_NC15H34_smiles_az_DTA_ring_lr15.yaml > YAML_NC15H34_smiles_az_DTA_ring_lr15.log
renamed 'input-dump.yaml' -> 'dumpY_NC15H34_smiles_az_DTA_ring_lr15.yaml'

TEST PASSED
removed 'CLI_NC15H34_smiles_az_DTA_ring_lr15.gro'
removed 'CLI_NC15H34_smiles_az_DTA_ring_lr15.log'
removed 'dumpC_NC15H34_smiles_az_DTA_ring_lr15.yaml'
removed 'dumpY_NC15H34_smiles_az_DTA_ring_lr15.yaml'
removed 'input_NC15H34_smiles_az_DTA_ring_lr15.yaml'
removed 'YAML_NC15H34_smiles_az_DTA_ring_lr15.gro'
removed 'YAML_NC15H34_smiles_az_DTA_ring_lr15.log'
removed 'CLI_YAML.diff'
2.45user 9.60system 0:00.38elapsed 3141%CPU (0avgtext+0avgdata 31184maxresident)k
152inputs+256outputs (24major+14561minor)pagefaults 0swaps

> shape.py --dio=inp,. -i NC15H34_smiles_az.gro -o CLI_NC15H34_smiles_az -x .gro -s ring -r DTA -l 15 --rev > NC15H34_smiles_az.log
Looking for pattern: 'CLI_NC15H34_smiles_az_DTA*.gro' -> CLI_NC15H34_smiles_az_DTA*.gro ...
CONFOUT = CLI_NC15H34_smiles_az_DTA_ring_lr15_rev.gro
SUFFIX = DTA_ring_lr15_rev
renamed 'NC15H34_smiles_az.log' -> 'CLI_NC15H34_smiles_az_DTA_ring_lr15_rev.log'
renamed 'input-dump.yaml' -> 'dumpC_NC15H34_smiles_az_DTA_ring_lr15_rev.yaml'
'inp/input_NC15H34_smiles_az_DTA_ring_lr15_rev.yaml' -> './input_NC15H34_smiles_az_DTA_ring_lr15_rev.yaml'

> shape.py -y input_NC15H34_smiles_az_DTA_ring_lr15_rev.yaml > YAML_NC15H34_smiles_az_DTA_ring_lr15_rev.log
renamed 'input-dump.yaml' -> 'dumpY_NC15H34_smiles_az_DTA_ring_lr15_rev.yaml'

TEST PASSED
removed 'CLI_NC15H34_smiles_az_DTA_ring_lr15_rev.gro'
removed 'CLI_NC15H34_smiles_az_DTA_ring_lr15_rev.log'
removed 'dumpC_NC15H34_smiles_az_DTA_ring_lr15_rev.yaml'
removed 'dumpY_NC15H34_smiles_az_DTA_ring_lr15_rev.yaml'
removed 'input_NC15H34_smiles_az_DTA_ring_lr15_rev.yaml'
removed 'YAML_NC15H34_smiles_az_DTA_ring_lr15_rev.gro'
removed 'YAML_NC15H34_smiles_az_DTA_ring_lr15_rev.log'
removed 'CLI_YAML.diff'
2.28user 9.77system 0:00.38elapsed 3133%CPU (0avgtext+0avgdata 31292maxresident)k
144inputs+264outputs (12major+14559minor)pagefaults 0swaps

> shape.py --dio=inp,. -i NC15H34_smiles_az.gro -o CLI_NC15H34_smiles_az -x .gro -s ring -r DTA -l 15 --mint=0 --mext=46 > NC15H34_smiles_az.log
Looking for pattern: 'CLI_NC15H34_smiles_az_DTA*.gro' -> CLI_NC15H34_smiles_az_DTA*.gro ...
CONFOUT = CLI_NC15H34_smiles_az_DTA_mi0_mx46_ring_lr15.gro
SUFFIX = DTA_mi0_mx46_ring_lr15
renamed 'NC15H34_smiles_az.log' -> 'CLI_NC15H34_smiles_az_DTA_mi0_mx46_ring_lr15.log'
renamed 'input-dump.yaml' -> 'dumpC_NC15H34_smiles_az_DTA_mi0_mx46_ring_lr15.yaml'
'inp/input_NC15H34_smiles_az_DTA_mi0_mx46_ring_lr15.yaml' -> './input_NC15H34_smiles_az_DTA_mi0_mx46_ring_lr15.yaml'

> shape.py -y input_NC15H34_smiles_az_DTA_mi0_mx46_ring_lr15.yaml > YAML_NC15H34_smiles_az_DTA_mi0_mx46_ring_lr15.log
renamed 'input-dump.yaml' -> 'dumpY_NC15H34_smiles_az_DTA_mi0_mx46_ring_lr15.yaml'

TEST PASSED
removed 'CLI_NC15H34_smiles_az_DTA_mi0_mx46_ring_lr15.gro'
removed 'CLI_NC15H34_smiles_az_DTA_mi0_mx46_ring_lr15.log'
removed 'dumpC_NC15H34_smiles_az_DTA_mi0_mx46_ring_lr15.yaml'
removed 'dumpY_NC15H34_smiles_az_DTA_mi0_mx46_ring_lr15.yaml'
removed 'input_NC15H34_smiles_az_DTA_mi0_mx46_ring_lr15.yaml'
removed 'YAML_NC15H34_smiles_az_DTA_mi0_mx46_ring_lr15.gro'
removed 'YAML_NC15H34_smiles_az_DTA_mi0_mx46_ring_lr15.log'
removed 'CLI_YAML.diff'
2.41user 9.63system 0:00.37elapsed 3255%CPU (0avgtext+0avgdata 31240maxresident)k
144inputs+256outputs (0major+14590minor)pagefaults 0swaps

> shape.py --dio=inp,. -i NC15H34_smiles_az.gro -o CLI_NC15H34_smiles_az -x .gro -s ball -r DTA -l 15 > NC15H34_smiles_az.log
Looking for pattern: 'CLI_NC15H34_smiles_az_DTA*.gro' -> CLI_NC15H34_smiles_az_DTA*.gro ...
CONFOUT = CLI_NC15H34_smiles_az_DTA_ball_nmr64_lr15.gro
SUFFIX = DTA_ball_nmr64_lr15
renamed 'NC15H34_smiles_az.log' -> 'CLI_NC15H34_smiles_az_DTA_ball_nmr64_lr15.log'
renamed 'input-dump.yaml' -> 'dumpC_NC15H34_smiles_az_DTA_ball_nmr64_lr15.yaml'
'inp/input_NC15H34_smiles_az_DTA_ball_nmr64_lr15.yaml' -> './input_NC15H34_smiles_az_DTA_ball_nmr64_lr15.yaml'

> shape.py -y input_NC15H34_smiles_az_DTA_ball_nmr64_lr15.yaml > YAML_NC15H34_smiles_az_DTA_ball_nmr64_lr15.log
renamed 'input-dump.yaml' -> 'dumpY_NC15H34_smiles_az_DTA_ball_nmr64_lr15.yaml'

TEST PASSED
removed 'CLI_NC15H34_smiles_az_DTA_ball_nmr64_lr15.gro'
removed 'CLI_NC15H34_smiles_az_DTA_ball_nmr64_lr15.log'
removed 'dumpC_NC15H34_smiles_az_DTA_ball_nmr64_lr15.yaml'
removed 'dumpY_NC15H34_smiles_az_DTA_ball_nmr64_lr15.yaml'
removed 'input_NC15H34_smiles_az_DTA_ball_nmr64_lr15.yaml'
removed 'YAML_NC15H34_smiles_az_DTA_ball_nmr64_lr15.gro'
removed 'YAML_NC15H34_smiles_az_DTA_ball_nmr64_lr15.log'
removed 'CLI_YAML.diff'
2.93user 9.52system 0:00.77elapsed 1602%CPU (0avgtext+0avgdata 32676maxresident)k
576inputs+696outputs (12major+15311minor)pagefaults 0swaps

> shape.py --dio=inp,. -i NC15H34_smiles_az.gro -o CLI_NC15H34_smiles_az -x .gro -s ball -r DTA -l 15 --rev > NC15H34_smiles_az.log
Looking for pattern: 'CLI_NC15H34_smiles_az_DTA*.gro' -> CLI_NC15H34_smiles_az_DTA*.gro ...
CONFOUT = CLI_NC15H34_smiles_az_DTA_ball_nmr64_lr15_rev.gro
SUFFIX = DTA_ball_nmr64_lr15_rev
renamed 'NC15H34_smiles_az.log' -> 'CLI_NC15H34_smiles_az_DTA_ball_nmr64_lr15_rev.log'
renamed 'input-dump.yaml' -> 'dumpC_NC15H34_smiles_az_DTA_ball_nmr64_lr15_rev.yaml'
'inp/input_NC15H34_smiles_az_DTA_ball_nmr64_lr15_rev.yaml' -> './input_NC15H34_smiles_az_DTA_ball_nmr64_lr15_rev.yaml'

> shape.py -y input_NC15H34_smiles_az_DTA_ball_nmr64_lr15_rev.yaml > YAML_NC15H34_smiles_az_DTA_ball_nmr64_lr15_rev.log
renamed 'input-dump.yaml' -> 'dumpY_NC15H34_smiles_az_DTA_ball_nmr64_lr15_rev.yaml'

TEST PASSED
removed 'CLI_NC15H34_smiles_az_DTA_ball_nmr64_lr15_rev.gro'
removed 'CLI_NC15H34_smiles_az_DTA_ball_nmr64_lr15_rev.log'
removed 'dumpC_NC15H34_smiles_az_DTA_ball_nmr64_lr15_rev.yaml'
removed 'dumpY_NC15H34_smiles_az_DTA_ball_nmr64_lr15_rev.yaml'
removed 'input_NC15H34_smiles_az_DTA_ball_nmr64_lr15_rev.yaml'
removed 'YAML_NC15H34_smiles_az_DTA_ball_nmr64_lr15_rev.gro'
removed 'YAML_NC15H34_smiles_az_DTA_ball_nmr64_lr15_rev.log'
removed 'CLI_YAML.diff'
2.81user 9.60system 0:00.74elapsed 1671%CPU (0avgtext+0avgdata 32648maxresident)k
576inputs+704outputs (1major+15553minor)pagefaults 0swaps

> shape.py --dio=inp,. -i NC15H34_smiles_az.gro -o CLI_NC15H34_smiles_az -x .gro -s ball -r DTA -l 15 --mint=0 --mext=46 > NC15H34_smiles_az.log
Looking for pattern: 'CLI_NC15H34_smiles_az_DTA*.gro' -> CLI_NC15H34_smiles_az_DTA*.gro ...
CONFOUT = CLI_NC15H34_smiles_az_DTA_mi0_mx46_ball_nmr64_lr15.gro
SUFFIX = DTA_mi0_mx46_ball_nmr64_lr15
renamed 'NC15H34_smiles_az.log' -> 'CLI_NC15H34_smiles_az_DTA_mi0_mx46_ball_nmr64_lr15.log'
renamed 'input-dump.yaml' -> 'dumpC_NC15H34_smiles_az_DTA_mi0_mx46_ball_nmr64_lr15.yaml'
'inp/input_NC15H34_smiles_az_DTA_mi0_mx46_ball_nmr64_lr15.yaml' -> './input_NC15H34_smiles_az_DTA_mi0_mx46_ball_nmr64_lr15.yaml'

> shape.py -y input_NC15H34_smiles_az_DTA_mi0_mx46_ball_nmr64_lr15.yaml > YAML_NC15H34_smiles_az_DTA_mi0_mx46_ball_nmr64_lr15.log
renamed 'input-dump.yaml' -> 'dumpY_NC15H34_smiles_az_DTA_mi0_mx46_ball_nmr64_lr15.yaml'

TEST PASSED
removed 'CLI_NC15H34_smiles_az_DTA_mi0_mx46_ball_nmr64_lr15.gro'
removed 'CLI_NC15H34_smiles_az_DTA_mi0_mx46_ball_nmr64_lr15.log'
removed 'dumpC_NC15H34_smiles_az_DTA_mi0_mx46_ball_nmr64_lr15.yaml'
removed 'dumpY_NC15H34_smiles_az_DTA_mi0_mx46_ball_nmr64_lr15.yaml'
removed 'input_NC15H34_smiles_az_DTA_mi0_mx46_ball_nmr64_lr15.yaml'
removed 'YAML_NC15H34_smiles_az_DTA_mi0_mx46_ball_nmr64_lr15.gro'
removed 'YAML_NC15H34_smiles_az_DTA_mi0_mx46_ball_nmr64_lr15.log'
removed 'CLI_YAML.diff'
2.72user 9.69system 0:00.74elapsed 1677%CPU (0avgtext+0avgdata 32688maxresident)k
576inputs+696outputs (5major+16196minor)pagefaults 0swaps

> shape.py --dio=inp,. -i NC15H34_smiles_az.gro -o CLI_NC15H34_smiles_az -x .gro -s rod -r DTA -l 16 --fxz > NC15H34_smiles_az.log
Looking for pattern: 'CLI_NC15H34_smiles_az_DTA*.gro' -> CLI_NC15H34_smiles_az_DTA*.gro ...
CONFOUT = CLI_NC15H34_smiles_az_DTA_rod_nmr80_lr16_fxz.gro
SUFFIX = DTA_rod_nmr80_lr16_fxz
renamed 'NC15H34_smiles_az.log' -> 'CLI_NC15H34_smiles_az_DTA_rod_nmr80_lr16_fxz.log'
renamed 'input-dump.yaml' -> 'dumpC_NC15H34_smiles_az_DTA_rod_nmr80_lr16_fxz.yaml'
'inp/input_NC15H34_smiles_az_DTA_rod_nmr80_lr16_fxz.yaml' -> './input_NC15H34_smiles_az_DTA_rod_nmr80_lr16_fxz.yaml'

> shape.py -y input_NC15H34_smiles_az_DTA_rod_nmr80_lr16_fxz.yaml > YAML_NC15H34_smiles_az_DTA_rod_nmr80_lr16_fxz.log
renamed 'input-dump.yaml' -> 'dumpY_NC15H34_smiles_az_DTA_rod_nmr80_lr16_fxz.yaml'

TEST PASSED
removed 'CLI_NC15H34_smiles_az_DTA_rod_nmr80_lr16_fxz.gro'
removed 'CLI_NC15H34_smiles_az_DTA_rod_nmr80_lr16_fxz.log'
removed 'dumpC_NC15H34_smiles_az_DTA_rod_nmr80_lr16_fxz.yaml'
removed 'dumpY_NC15H34_smiles_az_DTA_rod_nmr80_lr16_fxz.yaml'
removed 'input_NC15H34_smiles_az_DTA_rod_nmr80_lr16_fxz.yaml'
removed 'YAML_NC15H34_smiles_az_DTA_rod_nmr80_lr16_fxz.gro'
removed 'YAML_NC15H34_smiles_az_DTA_rod_nmr80_lr16_fxz.log'
removed 'CLI_YAML.diff'
3.08user 9.51system 0:00.92elapsed 1367%CPU (0avgtext+0avgdata 33080maxresident)k
704inputs+824outputs (5major+15381minor)pagefaults 0swaps

> shape.py --dio=inp,. -i NC15H34_smiles_az.gro -o CLI_NC15H34_smiles_az -x .gro -s rod -r DTA -l 16 --fxz --rev > NC15H34_smiles_az.log
Looking for pattern: 'CLI_NC15H34_smiles_az_DTA*.gro' -> CLI_NC15H34_smiles_az_DTA*.gro ...
CONFOUT = CLI_NC15H34_smiles_az_DTA_rod_nmr80_lr16_fxz_rev.gro
SUFFIX = DTA_rod_nmr80_lr16_fxz_rev
renamed 'NC15H34_smiles_az.log' -> 'CLI_NC15H34_smiles_az_DTA_rod_nmr80_lr16_fxz_rev.log'
renamed 'input-dump.yaml' -> 'dumpC_NC15H34_smiles_az_DTA_rod_nmr80_lr16_fxz_rev.yaml'
'inp/input_NC15H34_smiles_az_DTA_rod_nmr80_lr16_fxz_rev.yaml' -> './input_NC15H34_smiles_az_DTA_rod_nmr80_lr16_fxz_rev.yaml'

> shape.py -y input_NC15H34_smiles_az_DTA_rod_nmr80_lr16_fxz_rev.yaml > YAML_NC15H34_smiles_az_DTA_rod_nmr80_lr16_fxz_rev.log
renamed 'input-dump.yaml' -> 'dumpY_NC15H34_smiles_az_DTA_rod_nmr80_lr16_fxz_rev.yaml'

TEST PASSED
removed 'CLI_NC15H34_smiles_az_DTA_rod_nmr80_lr16_fxz_rev.gro'
removed 'CLI_NC15H34_smiles_az_DTA_rod_nmr80_lr16_fxz_rev.log'
removed 'dumpC_NC15H34_smiles_az_DTA_rod_nmr80_lr16_fxz_rev.yaml'
removed 'dumpY_NC15H34_smiles_az_DTA_rod_nmr80_lr16_fxz_rev.yaml'
removed 'input_NC15H34_smiles_az_DTA_rod_nmr80_lr16_fxz_rev.yaml'
removed 'YAML_NC15H34_smiles_az_DTA_rod_nmr80_lr16_fxz_rev.gro'
removed 'YAML_NC15H34_smiles_az_DTA_rod_nmr80_lr16_fxz_rev.log'
removed 'CLI_YAML.diff'
3.05user 9.49system 0:00.87elapsed 1428%CPU (0avgtext+0avgdata 33188maxresident)k
704inputs+832outputs (12major+15391minor)pagefaults 0swaps

> shape.py --dio=inp,. -i NC15H34_smiles_az.gro -o CLI_NC15H34_smiles_az -x .gro -s rod -r DTA -l 16 --fxz  --mint=0 --mext=46 > NC15H34_smiles_az.log
Looking for pattern: 'CLI_NC15H34_smiles_az_DTA*.gro' -> CLI_NC15H34_smiles_az_DTA*.gro ...
CONFOUT = CLI_NC15H34_smiles_az_DTA_mi0_mx46_rod_nmr80_lr16_fxz.gro
SUFFIX = DTA_mi0_mx46_rod_nmr80_lr16_fxz
renamed 'NC15H34_smiles_az.log' -> 'CLI_NC15H34_smiles_az_DTA_mi0_mx46_rod_nmr80_lr16_fxz.log'
renamed 'input-dump.yaml' -> 'dumpC_NC15H34_smiles_az_DTA_mi0_mx46_rod_nmr80_lr16_fxz.yaml'
'inp/input_NC15H34_smiles_az_DTA_mi0_mx46_rod_nmr80_lr16_fxz.yaml' -> './input_NC15H34_smiles_az_DTA_mi0_mx46_rod_nmr80_lr16_fxz.yaml'

> shape.py -y input_NC15H34_smiles_az_DTA_mi0_mx46_rod_nmr80_lr16_fxz.yaml > YAML_NC15H34_smiles_az_DTA_mi0_mx46_rod_nmr80_lr16_fxz.log
renamed 'input-dump.yaml' -> 'dumpY_NC15H34_smiles_az_DTA_mi0_mx46_rod_nmr80_lr16_fxz.yaml'

TEST PASSED
removed 'CLI_NC15H34_smiles_az_DTA_mi0_mx46_rod_nmr80_lr16_fxz.gro'
removed 'CLI_NC15H34_smiles_az_DTA_mi0_mx46_rod_nmr80_lr16_fxz.log'
removed 'dumpC_NC15H34_smiles_az_DTA_mi0_mx46_rod_nmr80_lr16_fxz.yaml'
removed 'dumpY_NC15H34_smiles_az_DTA_mi0_mx46_rod_nmr80_lr16_fxz.yaml'
removed 'input_NC15H34_smiles_az_DTA_mi0_mx46_rod_nmr80_lr16_fxz.yaml'
removed 'YAML_NC15H34_smiles_az_DTA_mi0_mx46_rod_nmr80_lr16_fxz.gro'
removed 'YAML_NC15H34_smiles_az_DTA_mi0_mx46_rod_nmr80_lr16_fxz.log'
removed 'CLI_YAML.diff'
2.95user 9.64system 0:00.92elapsed 1367%CPU (0avgtext+0avgdata 33140maxresident)k
704inputs+824outputs (0major+15364minor)pagefaults 0swaps

> shape.py --dio=inp,. -i NC15H34_smiles_az.gro -o CLI_NC15H34_smiles_az -x .gro -s ves -r DTA -l 16 --fxz > NC15H34_smiles_az.log
Looking for pattern: 'CLI_NC15H34_smiles_az_DTA*.gro' -> CLI_NC15H34_smiles_az_DTA*.gro ...
CONFOUT = CLI_NC15H34_smiles_az_DTA_ves_nmr588_lr16_fxz.gro
SUFFIX = DTA_ves_nmr588_lr16_fxz
renamed 'NC15H34_smiles_az.log' -> 'CLI_NC15H34_smiles_az_DTA_ves_nmr588_lr16_fxz.log'
renamed 'input-dump.yaml' -> 'dumpC_NC15H34_smiles_az_DTA_ves_nmr588_lr16_fxz.yaml'
'inp/input_NC15H34_smiles_az_DTA_ves_nmr588_lr16_fxz.yaml' -> './input_NC15H34_smiles_az_DTA_ves_nmr588_lr16_fxz.yaml'

> shape.py -y input_NC15H34_smiles_az_DTA_ves_nmr588_lr16_fxz.yaml > YAML_NC15H34_smiles_az_DTA_ves_nmr588_lr16_fxz.log
renamed 'input-dump.yaml' -> 'dumpY_NC15H34_smiles_az_DTA_ves_nmr588_lr16_fxz.yaml'

TEST PASSED
removed 'CLI_NC15H34_smiles_az_DTA_ves_nmr588_lr16_fxz.gro'
removed 'CLI_NC15H34_smiles_az_DTA_ves_nmr588_lr16_fxz.log'
removed 'dumpC_NC15H34_smiles_az_DTA_ves_nmr588_lr16_fxz.yaml'
removed 'dumpY_NC15H34_smiles_az_DTA_ves_nmr588_lr16_fxz.yaml'
removed 'input_NC15H34_smiles_az_DTA_ves_nmr588_lr16_fxz.yaml'
removed 'YAML_NC15H34_smiles_az_DTA_ves_nmr588_lr16_fxz.gro'
removed 'YAML_NC15H34_smiles_az_DTA_ves_nmr588_lr16_fxz.log'
removed 'CLI_YAML.diff'
7.09user 9.66system 0:05.07elapsed 330%CPU (0avgtext+0avgdata 45892maxresident)k
5184inputs+5344outputs (0major+22744minor)pagefaults 0swaps

> shape.py --dio=inp,. -i NC15H34_smiles_az.gro -o CLI_NC15H34_smiles_az -x .gro -s ves -r DTA -l 16 --fxz --rev > NC15H34_smiles_az.log
Looking for pattern: 'CLI_NC15H34_smiles_az_DTA*.gro' -> CLI_NC15H34_smiles_az_DTA*.gro ...
CONFOUT = CLI_NC15H34_smiles_az_DTA_ves_nmr588_lr16_fxz_rev.gro
SUFFIX = DTA_ves_nmr588_lr16_fxz_rev
renamed 'NC15H34_smiles_az.log' -> 'CLI_NC15H34_smiles_az_DTA_ves_nmr588_lr16_fxz_rev.log'
renamed 'input-dump.yaml' -> 'dumpC_NC15H34_smiles_az_DTA_ves_nmr588_lr16_fxz_rev.yaml'
'inp/input_NC15H34_smiles_az_DTA_ves_nmr588_lr16_fxz_rev.yaml' -> './input_NC15H34_smiles_az_DTA_ves_nmr588_lr16_fxz_rev.yaml'

> shape.py -y input_NC15H34_smiles_az_DTA_ves_nmr588_lr16_fxz_rev.yaml > YAML_NC15H34_smiles_az_DTA_ves_nmr588_lr16_fxz_rev.log
renamed 'input-dump.yaml' -> 'dumpY_NC15H34_smiles_az_DTA_ves_nmr588_lr16_fxz_rev.yaml'

TEST PASSED
removed 'CLI_NC15H34_smiles_az_DTA_ves_nmr588_lr16_fxz_rev.gro'
removed 'CLI_NC15H34_smiles_az_DTA_ves_nmr588_lr16_fxz_rev.log'
removed 'dumpC_NC15H34_smiles_az_DTA_ves_nmr588_lr16_fxz_rev.yaml'
removed 'dumpY_NC15H34_smiles_az_DTA_ves_nmr588_lr16_fxz_rev.yaml'
removed 'input_NC15H34_smiles_az_DTA_ves_nmr588_lr16_fxz_rev.yaml'
removed 'YAML_NC15H34_smiles_az_DTA_ves_nmr588_lr16_fxz_rev.gro'
removed 'YAML_NC15H34_smiles_az_DTA_ves_nmr588_lr16_fxz_rev.log'
removed 'CLI_YAML.diff'
6.78user 9.97system 0:05.07elapsed 330%CPU (0avgtext+0avgdata 46064maxresident)k
5184inputs+5320outputs (0major+22629minor)pagefaults 0swaps

> shape.py --dio=inp,. -i NC15H34_smiles_az.gro -o CLI_NC15H34_smiles_az -x .gro -s ves -r DTA -l 16 --fxz --mint=0 --mext=46 > NC15H34_smiles_az.log
Looking for pattern: 'CLI_NC15H34_smiles_az_DTA*.gro' -> CLI_NC15H34_smiles_az_DTA*.gro ...
CONFOUT = CLI_NC15H34_smiles_az_DTA_mi0_mx46_ves_nmr588_lr16_fxz.gro
SUFFIX = DTA_mi0_mx46_ves_nmr588_lr16_fxz
renamed 'NC15H34_smiles_az.log' -> 'CLI_NC15H34_smiles_az_DTA_mi0_mx46_ves_nmr588_lr16_fxz.log'
renamed 'input-dump.yaml' -> 'dumpC_NC15H34_smiles_az_DTA_mi0_mx46_ves_nmr588_lr16_fxz.yaml'
'inp/input_NC15H34_smiles_az_DTA_mi0_mx46_ves_nmr588_lr16_fxz.yaml' -> './input_NC15H34_smiles_az_DTA_mi0_mx46_ves_nmr588_lr16_fxz.yaml'

> shape.py -y input_NC15H34_smiles_az_DTA_mi0_mx46_ves_nmr588_lr16_fxz.yaml > YAML_NC15H34_smiles_az_DTA_mi0_mx46_ves_nmr588_lr16_fxz.log
renamed 'input-dump.yaml' -> 'dumpY_NC15H34_smiles_az_DTA_mi0_mx46_ves_nmr588_lr16_fxz.yaml'

TEST PASSED
removed 'CLI_NC15H34_smiles_az_DTA_mi0_mx46_ves_nmr588_lr16_fxz.gro'
removed 'CLI_NC15H34_smiles_az_DTA_mi0_mx46_ves_nmr588_lr16_fxz.log'
removed 'dumpC_NC15H34_smiles_az_DTA_mi0_mx46_ves_nmr588_lr16_fxz.yaml'
removed 'dumpY_NC15H34_smiles_az_DTA_mi0_mx46_ves_nmr588_lr16_fxz.yaml'
removed 'input_NC15H34_smiles_az_DTA_mi0_mx46_ves_nmr588_lr16_fxz.yaml'
removed 'YAML_NC15H34_smiles_az_DTA_mi0_mx46_ves_nmr588_lr16_fxz.gro'
removed 'YAML_NC15H34_smiles_az_DTA_mi0_mx46_ves_nmr588_lr16_fxz.log'
removed 'CLI_YAML.diff'
7.13user 9.63system 0:05.08elapsed 329%CPU (0avgtext+0avgdata 45980maxresident)k
5184inputs+5320outputs (2major+22557minor)pagefaults 0swaps
77.14user 243.11system 0:25.44elapsed 1258%CPU (0avgtext+0avgdata 46064maxresident)k
20032inputs+25472outputs (163major+409146minor)pagefaults 0swaps
