# This file was created Fri May  5 11:18:11 2023
# Created by:
#                       :-) GROMACS - gmx gyrate, 2023 (-:
# 
# Executable:   /usr/local/gromacs/bin/gmx
# Data prefix:  /usr/local/gromacs
# Working dir:  /home/andrey/PycharmProjects/shapespyer/examples/CTAB/CTAB16/equil05/eq5
# Command line:
#   gmx gyrate -f CTA178-BRA178-wTIP3-eq5-CC-PBC.gro -s CTA178-BRA178-wTIP3-eq5.tpr -n CTA178-BRA178-wTIP3-eq5.ndx -o CTA178-BRA178-wTIP3-eq5-CC-PBC-gro_GyrRXYZ.xvg
# gmx gyrate is part of G R O M A C S:
#
# Good gRace! Old Maple Actually Chews Slate
#
@    title "Radius of gyration (total and around axes)"
@    xaxis  label "Time (ps)"
@    yaxis  label "Rg (nm)"
@TYPE xy
@ view 0.15, 0.15, 0.75, 0.85
@ legend on
@ legend box on
@ legend loctype view
@ legend 0.78, 0.8
@ legend length 2
@ s0 legend "Rg"
@ s1 legend "Rg\sX\N"
@ s2 legend "Rg\sY\N"
@ s3 legend "Rg\sZ\N"
         0      2.7311     2.47878     2.46564     1.64137
