# This file was created Thu Apr 13 16:32:45 2023
# Created by:
#                      :-) GROMACS - gmx gyrate, 2021.2 (-:
# 
# Executable:   /usr/local/gromacs/bin/gmx
# Data prefix:  /usr/local/gromacs
# Working dir:  /home/avb7119/PycharmProjects/shapespyer-repo-07Apr2023/examples/CTAB16/equil05-posres1-all/eq5
# Command line:
#   gmx gyrate -f CTA178-BRA178-wTIP3-eq5-CC-PBC.xtc -s CTA178-BRA178-wTIP3-eq5.tpr -n CTA178-BRA178-wTIP3-eq5.ndx -o CTA178-BRA178-wTIP3-eq5-GyrRXYZ.xvg -acf CTA178-BRA178-wTIP3-eq5-GyrRXYZ-ACF.xvg
# gmx gyrate is part of G R O M A C S:
#
# GROwing Monsters And Cloning Shrimps
#
@    title "Moment of inertia vector ACF"
@    xaxis  label "Time (ps)"
@    yaxis  label "C(t)"
@TYPE xy
     0.000     1.00000
     9.901     0.99971
    19.802     0.99944
    29.703     0.99914
    39.604     0.99882
    49.505     0.99861
    59.406     0.99844
    69.307     0.99826
    79.208     0.99810
    89.109     0.99794
    99.010     0.99779
   108.911     0.99763
   118.812     0.99748
   128.713     0.99731
   138.614     0.99723
   148.515     0.99712
   158.416     0.99702
   168.317     0.99700
   178.218     0.99695
   188.119     0.99693
   198.020     0.99689
   207.921     0.99682
   217.822     0.99673
   227.723     0.99661
   237.624     0.99655
   247.525     0.99644
   257.426     0.99634
   267.327     0.99623
   277.228     0.99614
   287.129     0.99599
   297.030     0.99587
   306.931     0.99574
   316.832     0.99553
   326.733     0.99530
   336.634     0.99511
   346.535     0.99483
   356.436     0.99455
   366.337     0.99426
   376.238     0.99394
   386.139     0.99361
   396.040     0.99327
   405.941     0.99288
   415.842     0.99264
   425.743     0.99245
   435.644     0.99237
   445.545     0.99245
   455.446     0.99251
   465.347     0.99249
   475.248     0.99250
   485.149     0.99241
   495.050     0.99228
&
     0.000     1.00000
     9.901     0.99428
    19.802     0.99054
    29.703     0.98654
    39.604     0.98331
    49.505     0.98089
    59.406     0.97891
    69.307     0.97563
    79.208     0.97109
    89.109     0.96653
    99.010     0.96064
   108.911     0.95374
   118.812     0.94633
   128.713     0.94060
   138.614     0.93434
   148.515     0.92941
   158.416     0.92518
   168.317     0.91898
   178.218     0.91353
   188.119     0.90805
   198.020     0.90509
   207.921     0.90323
   217.822     0.89869
   227.723     0.89743
   237.624     0.89438
   247.525     0.89335
   257.426     0.89275
   267.327     0.89289
   277.228     0.89246
   287.129     0.89220
   297.030     0.89359
   306.931     0.89504
   316.832     0.89512
   326.733     0.89599
   336.634     0.89774
   346.535     0.89791
   356.436     0.89964
   366.337     0.90105
   376.238     0.90100
   386.139     0.90189
   396.040     0.90351
   405.941     0.90545
   415.842     0.90609
   425.743     0.90879
   435.644     0.91199
   445.545     0.91329
   455.446     0.91632
   465.347     0.91859
   475.248     0.91915
   485.149     0.92100
   495.050     0.92295
&
     0.000     1.00000
     9.901     0.73691
    19.802     0.69173
    29.703     0.68425
    39.604     0.59674
    49.505     0.55318
    59.406     0.56689
    69.307     0.54063
    79.208     0.47128
    89.109     0.46516
    99.010     0.39608
   108.911     0.34920
   118.812     0.34022
   128.713     0.24599
   138.614     0.22793
   148.515     0.17597
   158.416     0.08086
   168.317     0.07589
   178.218     0.07510
   188.119     0.02669
   198.020     0.02474
   207.921     0.05925
   217.822     0.03095
   227.723     0.01903
   237.624     0.01071
   247.525     0.04553
   257.426     0.04222
   267.327     0.03606
   277.228     0.02950
   287.129     0.02089
   297.030     0.00079
   306.931     0.03936
   316.832    -0.03513
   326.733    -0.06021
   336.634    -0.02195
   346.535    -0.03757
   356.436    -0.06324
   366.337     0.00065
   376.238    -0.01803
   386.139     0.02942
   396.040     0.09970
   405.941     0.05000
   415.842     0.06139
   425.743     0.12084
   435.644     0.07467
   445.545     0.09392
   455.446     0.18464
   465.347     0.23869
   475.248     0.29361
   485.149     0.35288
   495.050     0.33736
&
