# This file was created Thu Apr 13 16:32:45 2023
# Created by:
#                      :-) GROMACS - gmx gyrate, 2021.2 (-:
# 
# Executable:   /usr/local/gromacs/bin/gmx
# Data prefix:  /usr/local/gromacs
# Working dir:  /home/avb7119/PycharmProjects/shapespyer-repo-07Apr2023/examples/CTAB16/equil05-posres1-all/eq5
# Command line:
#   gmx gyrate -f CTA178-BRA178-wTIP3-eq5-CC-PBC.xtc -s CTA178-BRA178-wTIP3-eq5.tpr -n CTA178-BRA178-wTIP3-eq5.ndx -o CTA178-BRA178-wTIP3-eq5-GyrRXYZ.xvg -acf CTA178-BRA178-wTIP3-eq5-GyrRXYZ-ACF.xvg
# gmx gyrate is part of G R O M A C S:
#
# GROwing Monsters And Cloning Shrimps
#
@    title "Radius of gyration (total and around axes)"
@    xaxis  label "Time (ps)"
@    yaxis  label "Rg (nm)"
@TYPE xy
@ subtitle "Axes are principal component axes"
@ view 0.15, 0.15, 0.75, 0.85
@ legend on
@ legend box on
@ legend loctype view
@ legend 0.78, 0.8
@ legend length 2
@ s0 legend "Rg"
@ s1 legend "Rg\sX\N"
@ s2 legend "Rg\sY\N"
@ s3 legend "Rg\sZ\N"
         0     2.67068     1.53522      2.4283     2.45184
        10     2.70247     1.55002     2.45844     2.48198
        20     2.72174     1.53392     2.48381     2.50869
        30     2.71219     1.55437     2.45531     2.50347
        40     2.70804     1.55996      2.4511     2.49511
        50     2.72288     1.56562     2.46424      2.5109
        60     2.72843     1.55074     2.46436     2.53196
        70     2.71509     1.55365     2.45925     2.50632
        80     2.74349     1.56286     2.49056     2.53141
        90     2.73573      1.5629     2.47602     2.52886
       100     2.74956     1.56382     2.48315     2.55119
       110     2.72407     1.56219     2.45993      2.5198
       120     2.72107     1.56439     2.45806     2.51379
       130     2.73235     1.57003     2.46671     2.52623
       140     2.72224     1.56845     2.44564     2.52588
       150     2.74296     1.57277     2.47498      2.5394
       160     2.72825     1.57308     2.45367     2.52817
       170     2.72808     1.58229     2.45301     2.52269
       180     2.70561     1.57902     2.42437     2.50396
       190     2.71025     1.59309     2.42078     2.50854
       200     2.69278     1.59458     2.39721     2.49256
       210     2.69154      1.5814     2.40268     2.49302
       220     2.71409     1.57494     2.43839     2.51126
       230     2.72332     1.57879     2.44324     2.52406
       240     2.72172     1.58187     2.43965     2.52215
       250     2.72098     1.58662     2.43793     2.51926
       260      2.7113     1.57604     2.42828     2.51433
       270     2.72267     1.57944     2.43812     2.52722
       280     2.72431      1.5871     2.44098     2.52319
       290     2.72092     1.57509     2.43835     2.52595
       300     2.70607     1.56588     2.42547     2.51212
       310     2.71037     1.57731     2.41934     2.52014
       320      2.7056      1.5813     2.42126     2.50551
       330     2.71669      1.5721     2.44271     2.51445
       340     2.72612     1.57648     2.45718     2.51802
       350     2.75074     1.57049     2.48405     2.54877
       360     2.74088     1.57797     2.47782     2.52889
       370     2.73549     1.55933     2.47414     2.53237
       380     2.73181     1.56242     2.47722     2.51949
       390     2.73563     1.55318     2.48458     2.52623
       400     2.71395     1.56887     2.45295     2.50054
       410      2.7213     1.56242     2.46075     2.51286
       420     2.72039      1.5728     2.46153     2.50364
       430     2.72608     1.57077     2.45966     2.51908
       440     2.71571     1.58239     2.44628     2.50239
       450     2.71303     1.58496     2.43782     2.50319
       460      2.7081     1.57901     2.43701     2.49706
       470     2.70877     1.59016     2.43879     2.48968
       480     2.70234     1.58949     2.42918     2.48554
       490     2.70179     1.58926     2.42754      2.4861
       500     2.70385     1.59382     2.43053     2.48473
       510     2.71958     1.59687     2.44189     2.50589
       520     2.73833     1.59188     2.46696     2.52526
       530     2.70452     1.60269     2.43149     2.47954
       540     2.69799     1.58892       2.422     2.48345
       550     2.71244     1.59649     2.43776     2.49464
       560     2.71061     1.60921     2.42653     2.49344
       570     2.71217     1.59664     2.43901     2.49273
       580     2.71979     1.60704     2.43527     2.50628
       590     2.70429     1.61044     2.42002     2.48524
       600     2.71507     1.60233     2.43445     2.49985
       610     2.70204     1.59957     2.41559     2.49167
       620     2.71123     1.59358     2.43951     2.49215
       630     2.70564     1.59044     2.43608     2.48535
       640     2.71385     1.58913       2.447     2.49335
       650     2.70792     1.58859     2.44073     2.48695
       660      2.7445     1.58197     2.47855     2.53352
       670     2.72934     1.57173     2.47155      2.5139
       680     2.73593     1.57513     2.48025     2.51752
       690      2.7486     1.59021     2.49884     2.51726
       700     2.74348     1.59315     2.48552     2.51744
       710      2.7506     1.58858     2.50131     2.52021
       720     2.74076     1.59635     2.49079     2.50423
       730     2.72807     1.59133     2.47375     2.49658
       740     2.71121     1.58429     2.45899     2.47887
       750     2.69435     1.59761     2.43051     2.46157
       760     2.70575     1.60031     2.44028     2.47512
       770     2.69167     1.58687     2.44069     2.45255
       780     2.68801     1.59121     2.43014     2.45219
       790     2.70316     1.59723     2.44103     2.47072
       800      2.7121      1.5934      2.4542     2.47972
       810     2.73143     1.59754      2.4661     2.50752
       820     2.71909     1.59498     2.45393     2.49423
       830     2.71661      1.6074     2.43482     2.49957
       840     2.71922      1.5998     2.43239     2.51245
       850     2.69328     1.61489     2.40681     2.47123
       860     2.69703     1.59596     2.41866     2.48011
       870     2.70198     1.59289      2.4259     2.48578
       880     2.71678     1.60317     2.43304     2.50438
       890     2.68843     1.61571     2.39926     2.46746
       900     2.70669     1.59025     2.42699     2.49663
       910     2.71397     1.57918     2.43799     2.50873
       920     2.68261     1.60061     2.39212     2.47157
       930     2.70465     1.59326     2.41073     2.50603
       940     2.69946     1.60905     2.40087     2.49419
       950     2.69943     1.62037     2.38395     2.50301
       960     2.69587     1.62802     2.38831     2.48615
       970     2.71253     1.64798     2.39322     2.50446
       980     2.71198     1.63963     2.40151     2.50081
       990     2.72793     1.63099     2.42734     2.51617
      1000      2.7311     1.61499     2.44569      2.5156
