
##################################################
#                                                #
#  Shapespyer - soft matter structure generator  #
#                                                #
#  Author: Dr Andrey Brukhno (c) 2020 - 2024     #
#          Daresbury Laboratory, SCD, STFC/UKRI  #
#                                                #
##################################################


shape.py::main(): Parsing input parameters (from CLI or YAML) ...
InputParser.readYaml(): 'yaml' has been successfully imported - proceeding ...

InputParser.readYaml(0): argd = {'angle': {'alpha': 0.0, 'theta': 0.0}, 'density': {'names': ['NONE']}, 'flags': {'alignz': False, 'fxz': False, 'inpbox': False, 'pin': False, 'random': False, 'rev': False, 'smiles': True, 'wav': False}, 'input': {'base': None, 'box': None, 'ext': None, 'file': 'SDS-DTA.sml', 'isbase': False, 'path': 'inp'}, 'membrane': {'nside': 10, 'zsep': 0}, 'molecule': {'fracs': [], 'mext': [], 'mint': [], 'molid': 1, 'molids': [1], 'names': ['SDS', 'DTA'], 'npick': 2, 'resnm': 'SDS-DTA'}, 'other': {'ldpd': 0.1, 'minDist': 0.5, 'nlatt': 0, 'nlatx': 0, 'nlaty': 0, 'nlatz': 0, 'slvBuff': 1.0}, 'output': {'base': 'YAML_SDS-DTA_SDS-DTA_smiles', 'ext': '.gro', 'file': 'YAML_SDS-DTA_SDS-DTA_smiles.gro', 'isbase': True, 'path': '.'}, 'shape': {'fill': 'rings0', 'layers': 1, 'lring': 1, 'nmols': 0, 'nstep': 0, 'offset': [], 'origin': 'cog', 'radius': 0.5, 'turns': 0, 'type': 'smiles'}}

InputParser.readYaml(1): options = {'input': {'path': 'inp', 'file': 'SDS-DTA.sml', 'base': None, 'ext': None, 'box': None, 'isbase': False}, 'output': {'path': '.', 'file': 'YAML_SDS-DTA_SDS-DTA_smiles.gro', 'base': 'YAML_SDS-DTA_SDS-DTA_smiles', 'ext': '.gro', 'isbase': True}, 'molecule': {'resnm': 'SDS-DTA', 'names': ['SDS', 'DTA'], 'mint': [], 'mext': [], 'fracs': [], 'molids': [1], 'molid': 1, 'npick': 2}, 'shape': {'type': 'smiles', 'radius': 0.5, 'lring': 1, 'turns': 0, 'nmols': 0, 'layers': 1, 'nstep': 0, 'fill': 'rings0', 'origin': 'cog', 'offset': []}, 'angle': {'alpha': 0.0, 'theta': 0.0}, 'membrane': {'nside': 10, 'zsep': 0}, 'other': {'minDist': 0.5, 'slvBuff': 1.0, 'nlatt': 0, 'nlatx': 0, 'nlaty': 0, 'nlatz': 0, 'ldpd': 0.1}, 'flags': {'fxz': False, 'rev': False, 'pin': False, 'wav': False, 'alignz': False, 'smiles': True, 'inpbox': False, 'random': False}, 'density': {'names': ['NONE']}}

InputParser.readYaml(2): options = {'input': {'path': 'inp', 'file': 'SDS-DTA.sml', 'base': None, 'ext': None, 'box': None, 'isbase': False}, 'output': {'path': '.', 'file': 'YAML_SDS-DTA_SDS-DTA_smiles.gro', 'base': 'YAML_SDS-DTA_SDS-DTA_smiles', 'ext': '.gro', 'isbase': True}, 'molecule': {'resnm': 'SDS-DTA', 'names': ['SDS', 'DTA'], 'mint': [], 'mext': [], 'fracs': [], 'molids': [1], 'molid': 1, 'npick': 2}, 'shape': {'type': 'smiles', 'radius': 0.5, 'lring': 1, 'turns': 0, 'nmols': 0, 'layers': 1, 'nstep': 0, 'fill': 'rings0', 'origin': 'cog', 'offset': []}, 'angle': {'alpha': 0.0, 'theta': 0.0}, 'membrane': {'nside': 10, 'zsep': 0}, 'other': {'minDist': 0.5, 'slvBuff': 1.0, 'nlatt': 0, 'nlatx': 0, 'nlaty': 0, 'nlatz': 0, 'ldpd': 0.1}, 'flags': {'fxz': False, 'rev': False, 'pin': False, 'wav': False, 'alignz': False, 'smiles': True, 'inpbox': False, 'random': False}, 'density': {'names': ['NONE']}}

shape.py::main(): Parsing input parameters - DONE

shape.py::main(): Check globals & defaults:
Pi = 3.141592653589793, 2*pi = 6.283185307179586, TINY = 1e-12, HUGE = 1e+100
BUFF = 1.0, DMIN = 0.5, RMIN = 0.5,

shape.py::main(): Input file extension: '.sml'

shape.py::main(): Requested molecule names and ids: ['SDS', 'DTA'] -> SDS & [1] -> 1 (2)

shape.py::main(): Requested molecule 'bone' indices: [] ... [] & (2)

shape.py::main(): Number of requested unique molecules (2) =/= number of given molecule names (2) or number of given molecule indices (1) - setting it to 2
shape.py::main(): Species' fractions from input = []
shape.py::main(): Number of layers to generate msurf = 1 0 -> [] ...

shape.py::main(): names suffix = 'SDS-DTA' =?= 'SDS-DTA' (rnames) ...
shape.py::main(): Created [] - empty input list of species
shape.py::main(): Created [] - empty (output) list of species

shape.py::main(): Initial user-provided output name = YAML_SDS-DTA_SDS-DTA_smiles.gro
shape.py::main(): User-provided output file name 'YAML_SDS-DTA_SDS-DTA_smiles.gro' => extension '.gro'

shape.py::main(): Using Nmol = 1
shape.py::main(): Using Nlay = 1
shape.py::main(): Using Dmin = 0.5 for min separation between heavy atoms
shape.py::main(): Using Rmin = 0.5 for target internal radius (if applicable)
shape.py::main(): Using Rbuf = 1.0 for solvation buffer

InputParser.dumpYaml(): 'yaml' found in sys.modules - proceeding ...
shape.py::main(): Doing: input 'SDS-DTA.sml' => output 'YAML_SDS-DTA_SDS-DTA_smiles.gro'

smlFile.readInSmiles(): Reading Smiles file 'inp/SDS-DTA.sml' from line # 0 (file is_open = True)...
smlFile.readInSmiles(): reading in 2 SMILES strings ...

smlFile.readInSmiles(): Read-in Mmols = 2, Msmiles = 2, MolNames = ['C12SO4', 'SO4C12']
smlFile.readInSmiles(): File 'inp/SDS-DTA.sml' successfully read: lines = 11 & Mmols = 2

shape.py::main(): Will generate molecules from scratch with SMILES: [[('CCCCCCCCCCCCOS(=O)(=O)[O-]', 'SDS', 'C12SO4')], [('S([O-])(=O)(=O)OCCCCCCCCCCCC', 'SDS', 'SO4C12')]] without double bond 'kinks'

shape.py::main(): Added MoleculeSet => { index: 0, name: 'SDS', type: 'output', mass: 0.0, charge: 0.0, nitems: 0;
 rvec: None;
 rcog: None } to the output list of species

shape.py::main(): Calling  Smiles().getMolecule('CCCCCCCCCCCCOS(=O)(=O)[O-]', 'SDS') ...

Smiles.getTopology(): Elements = [('[O-]', [22, 25])] ... 1 in total

Smiles.getTopology(): Atoms = 
(0, ['C', {'bonds': [], 'branch': [], 'rings': [], 'runits': []}, 0])
(1, ['C', {'bonds': [], 'branch': [], 'rings': [], 'runits': []}, 1])
(2, ['C', {'bonds': [], 'branch': [], 'rings': [], 'runits': []}, 2])
(3, ['C', {'bonds': [], 'branch': [], 'rings': [], 'runits': []}, 3])
(4, ['C', {'bonds': [], 'branch': [], 'rings': [], 'runits': []}, 4])
(5, ['C', {'bonds': [], 'branch': [], 'rings': [], 'runits': []}, 5])
(6, ['C', {'bonds': [], 'branch': [], 'rings': [], 'runits': []}, 6])
(7, ['C', {'bonds': [], 'branch': [], 'rings': [], 'runits': []}, 7])
(8, ['C', {'bonds': [], 'branch': [], 'rings': [], 'runits': []}, 8])
(9, ['C', {'bonds': [], 'branch': [], 'rings': [], 'runits': []}, 9])
(10, ['C', {'bonds': [], 'branch': [], 'rings': [], 'runits': []}, 10])
(11, ['C', {'bonds': [], 'branch': [], 'rings': [], 'runits': []}, 11])
(12, ['O', {'bonds': [], 'branch': [], 'rings': [], 'runits': []}, 12])
(13, ['S', {'bonds': [], 'branch': [], 'rings': [], 'runits': []}, 13])
(14, ['O', {'bonds': [], 'branch': [], 'rings': [], 'runits': []}, 16])
(15, ['O', {'bonds': [], 'branch': [], 'rings': [], 'runits': []}, 20])
(16, ['O-', {'bonds': [], 'branch': [], 'rings': [], 'runits': []}, 23])
17 in total

Smiles.parseBranches(): Added branch # 0 =  [14, [14], (14, 17, '(=O)')]
Smiles.parseBranches(): Added branch # 1 =  [14, [15], (18, 21, '(=O)')]
Smiles.getTopology(): Branches = 
[14, [14], (14, 17, '(=O)')]
[14, [15], (18, 21, '(=O)')]
2 in total


Smiles.listNumbers(): Positions of numbers in 'CCCCCCCCCCCCOS(=O)(=O)[O-]' =
 [] 

Smiles.parseBonds(): On branch [14, [14], (14, 17, '(=O)')]
Smiles.parseBonds(): Setting consecutive bonds ibeg = 0 ... iend = 13 
Smiles.parseBonds(): Setting outmost(?) bonds iac = 13 ... iab = 14 ... ibegN = 15
Smiles.parseBonds(): Setting consecutive bonds ib = 14 ... ie = 14 
Smiles.parseBonds(): On branch [14, [15], (18, 21, '(=O)')]
Smiles.parseBonds(): Setting consecutive bonds ibeg = 15 ... iend = 13 
Smiles.parseBonds(): Setting outmost(?) bonds iac = 13 ... iab = 15 ... ibegN = 16
Smiles.parseBonds(): Setting consecutive bonds ib = 15 ... ie = 15 
Smiles.parseBonds(): Setting consecutive bonds ibeg = 16 ... iend = 16 off branch
Smiles.getTopology(): Bonds = 
[1.0, (0, 1), 1.54, 'CsC']
[1.0, (1, 2), 1.54, 'CsC']
[1.0, (2, 3), 1.54, 'CsC']
[1.0, (3, 4), 1.54, 'CsC']
[1.0, (4, 5), 1.54, 'CsC']
[1.0, (5, 6), 1.54, 'CsC']
[1.0, (6, 7), 1.54, 'CsC']
[1.0, (7, 8), 1.54, 'CsC']
[1.0, (8, 9), 1.54, 'CsC']
[1.0, (9, 10), 1.54, 'CsC']
[1.0, (10, 11), 1.54, 'CsC']
[1.0, (11, 12), 1.43, 'CsO']
[1.0, (12, 13), 1.55, 'OsS']
[2.0, (13, 14), 1.45, 'SdO']
[2.0, (13, 15), 1.45, 'SdO']
[1.0, (13, 16), 1.55, 'SsO']
16 in total

Smiles.getTopology(): Updated atoms = 
(0, ['C', {'bonds': [(1, 1.0, 1.54)], 'branch': [], 'rings': [], 'runits': []}, 0])
(1, ['C', {'bonds': [(2, 1.0, 1.54)], 'branch': [], 'rings': [], 'runits': []}, 1])
(2, ['C', {'bonds': [(3, 1.0, 1.54)], 'branch': [], 'rings': [], 'runits': []}, 2])
(3, ['C', {'bonds': [(4, 1.0, 1.54)], 'branch': [], 'rings': [], 'runits': []}, 3])
(4, ['C', {'bonds': [(5, 1.0, 1.54)], 'branch': [], 'rings': [], 'runits': []}, 4])
(5, ['C', {'bonds': [(6, 1.0, 1.54)], 'branch': [], 'rings': [], 'runits': []}, 5])
(6, ['C', {'bonds': [(7, 1.0, 1.54)], 'branch': [], 'rings': [], 'runits': []}, 6])
(7, ['C', {'bonds': [(8, 1.0, 1.54)], 'branch': [], 'rings': [], 'runits': []}, 7])
(8, ['C', {'bonds': [(9, 1.0, 1.54)], 'branch': [], 'rings': [], 'runits': []}, 8])
(9, ['C', {'bonds': [(10, 1.0, 1.54)], 'branch': [], 'rings': [], 'runits': []}, 9])
(10, ['C', {'bonds': [(11, 1.0, 1.54)], 'branch': [], 'rings': [], 'runits': []}, 10])
(11, ['C', {'bonds': [(12, 1.0, 1.43)], 'branch': [], 'rings': [], 'runits': []}, 11])
(12, ['O', {'bonds': [(13, 1.0, 1.55)], 'branch': [], 'rings': [], 'runits': []}, 12])
(13, ['S', {'bonds': [(14, 2.0, 1.45), (15, 2.0, 1.45), (16, 1.0, 1.55)], 'branch': [1, 2], 'rings': [], 'runits': []}, 13])
(14, ['O', {'bonds': [], 'branch': [], 'rings': [], 'runits': []}, 16])
(15, ['O', {'bonds': [], 'branch': [], 'rings': [], 'runits': []}, 20])
(16, ['O-', {'bonds': [], 'branch': [], 'rings': [], 'runits': []}, 23])
17 in total

Smiles.getTopology(): D-bonds = [15, 19], 2 in total


Smiles.getTopology(): Initial list of bonds for SMILES 'CCCCCCCCCCCCOS(=O)(=O)[O-]' = 
[1.0, (0, 1), 1.54, 'CsC']
[1.0, (1, 2), 1.54, 'CsC']
[1.0, (2, 3), 1.54, 'CsC']
[1.0, (3, 4), 1.54, 'CsC']
[1.0, (4, 5), 1.54, 'CsC']
[1.0, (5, 6), 1.54, 'CsC']
[1.0, (6, 7), 1.54, 'CsC']
[1.0, (7, 8), 1.54, 'CsC']
[1.0, (8, 9), 1.54, 'CsC']
[1.0, (9, 10), 1.54, 'CsC']
[1.0, (10, 11), 1.54, 'CsC']
[1.0, (11, 12), 1.43, 'CsO']
[1.0, (12, 13), 1.55, 'OsS']
[2.0, (13, 14), 1.45, 'SdO']
[2.0, (13, 15), 1.45, 'SdO']
[1.0, (13, 16), 1.55, 'SsO']
with counts = [(1.0, 14), (2.0, 2)], 16 in total

Smiles.getTopology(): Check out number of bonds for atom 'C' (0) : cbonds + hatoms = 1 + 3 =?= 4 (its valency) ...
Smiles.getTopology(): Tetrahedral bonding for atom 'C' (0), mbonds / cbonds / hatoms = 4 / 1 / 3 ...
Smiles.getTopology(): Check out number of bonds for atom 'C' (1) : cbonds + hatoms = 2 + 2 =?= 4 (its valency) ...
Smiles.getTopology(): Tetrahedral bonding for atom 'C' (1), mbonds / cbonds / hatoms = 4 / 2 / 2 ...
Smiles.getTopology(): Check out number of bonds for atom 'C' (2) : cbonds + hatoms = 2 + 2 =?= 4 (its valency) ...
Smiles.getTopology(): Tetrahedral bonding for atom 'C' (2), mbonds / cbonds / hatoms = 4 / 2 / 2 ...
Smiles.getTopology(): Check out number of bonds for atom 'C' (3) : cbonds + hatoms = 2 + 2 =?= 4 (its valency) ...
Smiles.getTopology(): Tetrahedral bonding for atom 'C' (3), mbonds / cbonds / hatoms = 4 / 2 / 2 ...
Smiles.getTopology(): Check out number of bonds for atom 'C' (4) : cbonds + hatoms = 2 + 2 =?= 4 (its valency) ...
Smiles.getTopology(): Tetrahedral bonding for atom 'C' (4), mbonds / cbonds / hatoms = 4 / 2 / 2 ...
Smiles.getTopology(): Check out number of bonds for atom 'C' (5) : cbonds + hatoms = 2 + 2 =?= 4 (its valency) ...
Smiles.getTopology(): Tetrahedral bonding for atom 'C' (5), mbonds / cbonds / hatoms = 4 / 2 / 2 ...
Smiles.getTopology(): Check out number of bonds for atom 'C' (6) : cbonds + hatoms = 2 + 2 =?= 4 (its valency) ...
Smiles.getTopology(): Tetrahedral bonding for atom 'C' (6), mbonds / cbonds / hatoms = 4 / 2 / 2 ...
Smiles.getTopology(): Check out number of bonds for atom 'C' (7) : cbonds + hatoms = 2 + 2 =?= 4 (its valency) ...
Smiles.getTopology(): Tetrahedral bonding for atom 'C' (7), mbonds / cbonds / hatoms = 4 / 2 / 2 ...
Smiles.getTopology(): Check out number of bonds for atom 'C' (8) : cbonds + hatoms = 2 + 2 =?= 4 (its valency) ...
Smiles.getTopology(): Tetrahedral bonding for atom 'C' (8), mbonds / cbonds / hatoms = 4 / 2 / 2 ...
Smiles.getTopology(): Check out number of bonds for atom 'C' (9) : cbonds + hatoms = 2 + 2 =?= 4 (its valency) ...
Smiles.getTopology(): Tetrahedral bonding for atom 'C' (9), mbonds / cbonds / hatoms = 4 / 2 / 2 ...
Smiles.getTopology(): Check out number of bonds for atom 'C' (10) : cbonds + hatoms = 2 + 2 =?= 4 (its valency) ...
Smiles.getTopology(): Tetrahedral bonding for atom 'C' (10), mbonds / cbonds / hatoms = 4 / 2 / 2 ...
Smiles.getTopology(): Check out number of bonds for atom 'C' (11) : cbonds + hatoms = 2 + 2 =?= 4 (its valency) ...
Smiles.getTopology(): Tetrahedral bonding for atom 'C' (11), mbonds / cbonds / hatoms = 4 / 2 / 2 ...
Smiles.getTopology(): Check out number of bonds for atom 'O' (12) : cbonds + hatoms = 2 + 0 =?= 2 (its valency) ...
Smiles.getTopology(): Tetrahedral bonding for atom 'O' (12), mbonds / cbonds / hatoms = 2 / 2 / 0 ...
Smiles.getTopology(): Check out number of bonds for atom 'S' (13) : cbonds + hatoms = 6 + 0 =?= 6 (its valency) ...
Smiles.getTopology(): Tetrahedral bonding for atom 'S' (13), mbonds / cbonds / hatoms = 4 / 4 / 0 ...
Smiles.getTopology(): Check out number of bonds for atom 'O' (14) : cbonds + hatoms = 2 + 0 =?= 2 (its valency) ...
Smiles.getTopology(): Terminal bonding for atom 'O' (14), mbonds / cbonds / hatoms = 1 / 1 / 0 ...
Smiles.getTopology(): Check out number of bonds for atom 'O' (15) : cbonds + hatoms = 2 + 0 =?= 2 (its valency) ...
Smiles.getTopology(): Terminal bonding for atom 'O' (15), mbonds / cbonds / hatoms = 1 / 1 / 0 ...
Smiles.getTopology(): Check out number of bonds for atom 'O' (16) : cbonds + hatoms = 1 + 0 =?= 1 (its valency) ...
Smiles.getTopology(): Terminal bonding for atom 'O' (16), mbonds / cbonds / hatoms = 1 / 1 / 0 ...

Smiles.getTopology(): List of bone bonds for SMILES 'CCCCCCCCCCCCOS(=O)(=O)[O-]' = 
[1.0, (0, 1), 1.54, 'CsC']
[1.0, (1, 2), 1.54, 'CsC']
[1.0, (2, 3), 1.54, 'CsC']
[1.0, (3, 4), 1.54, 'CsC']
[1.0, (4, 5), 1.54, 'CsC']
[1.0, (5, 6), 1.54, 'CsC']
[1.0, (6, 7), 1.54, 'CsC']
[1.0, (7, 8), 1.54, 'CsC']
[1.0, (8, 9), 1.54, 'CsC']
[1.0, (9, 10), 1.54, 'CsC']
[1.0, (10, 11), 1.54, 'CsC']
[1.0, (11, 12), 1.43, 'CsO']
[1.0, (12, 13), 1.55, 'OsS']
[2.0, (13, 14), 1.45, 'SdO']
[2.0, (13, 15), 1.45, 'SdO']
[1.0, (13, 16), 1.55, 'SsO']
with counts = [(1.0, 14), (2.0, 2)], 16 in total

Smiles.getTopology(): Partial topology for SMILES 'CCCCCCCCCCCCOS(=O)(=O)[O-]' =
['C', {'valency': 4, 'charge': 0.0, 'hatoms': 3, 'cbonds': 1, 'geometry': 4, 'isaroma': False, 'bonds': [(1, 1.0, 1.54)], 'angles': [], 'branch': [], 'rings': [], 'runits': []}]
['C', {'valency': 4, 'charge': 0.0, 'hatoms': 2, 'cbonds': 2, 'geometry': 4, 'isaroma': False, 'bonds': [(2, 1.0, 1.54)], 'angles': [], 'branch': [], 'rings': [], 'runits': []}]
['C', {'valency': 4, 'charge': 0.0, 'hatoms': 2, 'cbonds': 2, 'geometry': 4, 'isaroma': False, 'bonds': [(3, 1.0, 1.54)], 'angles': [], 'branch': [], 'rings': [], 'runits': []}]
['C', {'valency': 4, 'charge': 0.0, 'hatoms': 2, 'cbonds': 2, 'geometry': 4, 'isaroma': False, 'bonds': [(4, 1.0, 1.54)], 'angles': [], 'branch': [], 'rings': [], 'runits': []}]
['C', {'valency': 4, 'charge': 0.0, 'hatoms': 2, 'cbonds': 2, 'geometry': 4, 'isaroma': False, 'bonds': [(5, 1.0, 1.54)], 'angles': [], 'branch': [], 'rings': [], 'runits': []}]
['C', {'valency': 4, 'charge': 0.0, 'hatoms': 2, 'cbonds': 2, 'geometry': 4, 'isaroma': False, 'bonds': [(6, 1.0, 1.54)], 'angles': [], 'branch': [], 'rings': [], 'runits': []}]
['C', {'valency': 4, 'charge': 0.0, 'hatoms': 2, 'cbonds': 2, 'geometry': 4, 'isaroma': False, 'bonds': [(7, 1.0, 1.54)], 'angles': [], 'branch': [], 'rings': [], 'runits': []}]
['C', {'valency': 4, 'charge': 0.0, 'hatoms': 2, 'cbonds': 2, 'geometry': 4, 'isaroma': False, 'bonds': [(8, 1.0, 1.54)], 'angles': [], 'branch': [], 'rings': [], 'runits': []}]
['C', {'valency': 4, 'charge': 0.0, 'hatoms': 2, 'cbonds': 2, 'geometry': 4, 'isaroma': False, 'bonds': [(9, 1.0, 1.54)], 'angles': [], 'branch': [], 'rings': [], 'runits': []}]
['C', {'valency': 4, 'charge': 0.0, 'hatoms': 2, 'cbonds': 2, 'geometry': 4, 'isaroma': False, 'bonds': [(10, 1.0, 1.54)], 'angles': [], 'branch': [], 'rings': [], 'runits': []}]
['C', {'valency': 4, 'charge': 0.0, 'hatoms': 2, 'cbonds': 2, 'geometry': 4, 'isaroma': False, 'bonds': [(11, 1.0, 1.54)], 'angles': [], 'branch': [], 'rings': [], 'runits': []}]
['C', {'valency': 4, 'charge': 0.0, 'hatoms': 2, 'cbonds': 2, 'geometry': 4, 'isaroma': False, 'bonds': [(12, 1.0, 1.43)], 'angles': [], 'branch': [], 'rings': [], 'runits': []}]
['O', {'valency': -2, 'charge': 0.0, 'hatoms': 0, 'cbonds': 2, 'geometry': 2, 'isaroma': False, 'bonds': [(13, 1.0, 1.55)], 'angles': [], 'branch': [], 'rings': [], 'runits': []}]
['S', {'valency': -6, 'charge': 0.0, 'hatoms': 0, 'cbonds': 4, 'geometry': 4, 'isaroma': False, 'bonds': [(14, 2.0, 1.45), (15, 2.0, 1.45), (16, 1.0, 1.55)], 'angles': [], 'branch': [1, 2], 'rings': [], 'runits': []}]
['O', {'valency': -2, 'charge': 0.0, 'hatoms': 0, 'cbonds': 1, 'geometry': 1, 'isaroma': False, 'bonds': [], 'angles': [], 'branch': [], 'rings': [], 'runits': []}]
['O', {'valency': -2, 'charge': 0.0, 'hatoms': 0, 'cbonds': 1, 'geometry': 1, 'isaroma': False, 'bonds': [], 'angles': [], 'branch': [], 'rings': [], 'runits': []}]
['O', {'valency': -2, 'charge': -1.0, 'hatoms': 0, 'cbonds': 1, 'geometry': 1, 'isaroma': False, 'bonds': [], 'angles': [], 'branch': [], 'rings': [], 'runits': []}]
with counts = [('O', 4), ('S', 1), ('C', 12)], 17 in total
and H-atoms = [(0, 5), (2, 11), (3, 1)], 25 in total

Smiles.getMolecule(): Number of atoms to generate is matoms = 42 ...
Looking at bond between atoms 0 & 1 ...

Smiles.getBondFeatures(): Found forward bonded atom pair '[C,C'] (0,1) as CsC with rank = 1.0 & dist = 1.54

Smiles.genBranch(): Setting coords for off-ring atom # 1 [mi] : name = C1, type = C, ibond = 0 rvecO = Vec3[0.0, 0.0, 0.0]

Smiles.genBranch(): Initial  rvecsT = [Vec3[-0.33333333, 0.0, 0.94280904], Vec3[-0.33333333, 0.81649658, -0.47140452], Vec3[-0.33333333, -0.81649658, -0.47140452], Vec3[1.0, 0.0, 0.0]]

Smiles.genBranch(): Final rvecsT = [Vec3[-0.33333333, 0.0, 0.94280904], Vec3[-0.33333333, 0.81649658, -0.47140452], Vec3[-0.33333333, -0.81649658, -0.47140452], Vec3[1.0, 0.0, 0.0]]

Smiles.genBranch(): Found bonded atom pair 'C, H' as H-C ... dist = 1.09

Smiles.genBranch(): Setting coords for atom # 2, name = H11, type = H, rvec = Vec3[-0.36333333, 0.0, 1.02766186]

Smiles.genBranch(): Distance for atom pair (2, 1) 'C, H' = 1.09

Smiles.genBranch(): Found bonded atom pair 'C, H' as H-C ... dist = 1.09

Smiles.genBranch(): Setting coords for atom # 3, name = H12, type = H, rvec = Vec3[-0.36333333, 0.88998127, -0.51383093]

Smiles.genBranch(): Distance for atom pair (3, 1) 'C, H' = 1.09

Smiles.genBranch(): Found bonded atom pair 'C, H' as H-C ... dist = 1.09

Smiles.genBranch(): Setting coords for atom # 4, name = H13, type = H, rvec = Vec3[-0.36333333, -0.88998127, -0.51383093]

Smiles.genBranch(): Distance for atom pair (4, 1) 'C, H' = 1.09

Smiles.genBranch(): Current branches = [[14, [14], (14, 17, '(=O)')], [14, [15], (18, 21, '(=O)')]] -  1 in [14, 14] ?.. False; 3 < 4 ?..
Looking at bond between atoms 1 & 2 ...

Smiles.getBondFeatures(): Found forward bonded atom pair '[C,C'] (1,2) as CsC with rank = 1.0 & dist = 1.54

Smiles.genBranch(): Setting coords for off-ring atom # 5 [mi] : name = C2, type = C, ibond = 0 rvecO = Vec3[1.54, 0.0, 0.0]

Smiles.genBranch(): Initial  rvecsT = [Vec3[-0.33333333, 0.0, -0.94280904], Vec3[-0.33333333, -0.81649658, 0.47140452], Vec3[-0.33333333, 0.81649658, 0.47140452], Vec3[1.0, 0.0, 0.0]]

Smiles.genBranch(): Final rvecsT = [Vec3[-1.0, 0.0, -0.0], Vec3[0.33333333, -0.81649658, 0.47140452], Vec3[0.33333333, 0.81649658, 0.47140452], Vec3[0.33333333, 0.0, -0.94280904]]

Smiles.genBranch(): Found bonded atom pair 'C, H' as H-C ... dist = 1.09

Smiles.genBranch(): Setting coords for atom # 6, name = H21, type = H, rvec = Vec3[1.90333333, -0.88998127, 0.51383093]

Smiles.genBranch(): Distance for atom pair (6, 5) 'C, H' = 1.09

Smiles.genBranch(): Distance for atom pair '(C, H)' = 0.0 for irc = 1 < 3 (4 - 1) 

Smiles.genBranch(): Found bonded atom pair 'C, H' as H-C ... dist = 1.09

Smiles.genBranch(): Setting coords for atom # 7, name = H22, type = H, rvec = Vec3[1.90333333, 0.88998127, 0.51383093]

Smiles.genBranch(): Distance for atom pair (7, 5) 'C, H' = 1.09

Smiles.genBranch(): Distance for atom pair '(C, H)' = 0.0 for irc = 2 < 3 (4 - 1) 

Smiles.genBranch(): Current branches = [[14, [14], (14, 17, '(=O)')], [14, [15], (18, 21, '(=O)')]] -  2 in [14, 14] ?.. False; 2 < 3 ?..

Smiles.genBranch(): No valid branch found for atom # 1 (7), plus irc = 3 > 2 (hatoms = 2 + nbonds = 1 - ic = 1) - bond search done!..
Looking at bond between atoms 2 & 3 ...

Smiles.getBondFeatures(): Found forward bonded atom pair '[C,C'] (2,3) as CsC with rank = 1.0 & dist = 1.54

Smiles.genBranch(): Setting coords for off-ring atom # 8 [mi] : name = C3, type = C, ibond = 0 rvecO = Vec3[2.05333333, 0.0, -1.45192592]

Smiles.genBranch(): Initial  rvecsT = [Vec3[-0.33333333, 0.0, 0.94280904], Vec3[-0.33333333, 0.81649658, -0.47140452], Vec3[-0.33333333, -0.81649658, -0.47140452], Vec3[1.0, 0.0, 0.0]]

Smiles.genBranch(): Final rvecsT = [Vec3[-0.33333333, 0.0, 0.94280904], Vec3[-0.33333333, 0.81649658, -0.47140452], Vec3[-0.33333333, -0.81649658, -0.47140452], Vec3[1.0, 0.0, 0.0]]

Smiles.genBranch(): Found bonded atom pair 'C, H' as H-C ... dist = 1.09

Smiles.genBranch(): Setting coords for atom # 9, name = H31, type = H, rvec = Vec3[1.69, 0.88998127, -1.96575685]

Smiles.genBranch(): Distance for atom pair (9, 8) 'C, H' = 1.09

Smiles.genBranch(): Distance for atom pair '(C, H)' = 0.0 for irc = 1 < 3 (4 - 1) 

Smiles.genBranch(): Found bonded atom pair 'C, H' as H-C ... dist = 1.09

Smiles.genBranch(): Setting coords for atom # 10, name = H32, type = H, rvec = Vec3[1.69, -0.88998127, -1.96575685]

Smiles.genBranch(): Distance for atom pair (10, 8) 'C, H' = 1.09

Smiles.genBranch(): Distance for atom pair '(C, H)' = 0.0 for irc = 2 < 3 (4 - 1) 

Smiles.genBranch(): Current branches = [[14, [14], (14, 17, '(=O)')], [14, [15], (18, 21, '(=O)')]] -  3 in [14, 14] ?.. False; 2 < 3 ?..

Smiles.genBranch(): No valid branch found for atom # 2 (10), plus irc = 3 > 2 (hatoms = 2 + nbonds = 1 - ic = 1) - bond search done!..
Looking at bond between atoms 3 & 4 ...

Smiles.getBondFeatures(): Found forward bonded atom pair '[C,C'] (3,4) as CsC with rank = 1.0 & dist = 1.54

Smiles.genBranch(): Setting coords for off-ring atom # 11 [mi] : name = C4, type = C, ibond = 0 rvecO = Vec3[3.59333333, 0.0, -1.45192592]

Smiles.genBranch(): Initial  rvecsT = [Vec3[-0.33333333, 0.0, -0.94280904], Vec3[-0.33333333, -0.81649658, 0.47140452], Vec3[-0.33333333, 0.81649658, 0.47140452], Vec3[1.0, 0.0, 0.0]]

Smiles.genBranch(): Final rvecsT = [Vec3[-1.0, 0.0, -0.0], Vec3[0.33333333, -0.81649658, 0.47140452], Vec3[0.33333333, 0.81649658, 0.47140452], Vec3[0.33333333, 0.0, -0.94280904]]

Smiles.genBranch(): Found bonded atom pair 'C, H' as H-C ... dist = 1.09

Smiles.genBranch(): Setting coords for atom # 12, name = H41, type = H, rvec = Vec3[3.95666667, -0.88998127, -0.938095]

Smiles.genBranch(): Distance for atom pair (12, 11) 'C, H' = 1.09

Smiles.genBranch(): Distance for atom pair '(C, H)' = 0.0 for irc = 1 < 3 (4 - 1) 

Smiles.genBranch(): Found bonded atom pair 'C, H' as H-C ... dist = 1.09

Smiles.genBranch(): Setting coords for atom # 13, name = H42, type = H, rvec = Vec3[3.95666667, 0.88998127, -0.938095]

Smiles.genBranch(): Distance for atom pair (13, 11) 'C, H' = 1.09

Smiles.genBranch(): Distance for atom pair '(C, H)' = 0.0 for irc = 2 < 3 (4 - 1) 

Smiles.genBranch(): Current branches = [[14, [14], (14, 17, '(=O)')], [14, [15], (18, 21, '(=O)')]] -  4 in [14, 14] ?.. False; 2 < 3 ?..

Smiles.genBranch(): No valid branch found for atom # 3 (13), plus irc = 3 > 2 (hatoms = 2 + nbonds = 1 - ic = 1) - bond search done!..
Looking at bond between atoms 4 & 5 ...

Smiles.getBondFeatures(): Found forward bonded atom pair '[C,C'] (4,5) as CsC with rank = 1.0 & dist = 1.54

Smiles.genBranch(): Setting coords for off-ring atom # 14 [mi] : name = C5, type = C, ibond = 0 rvecO = Vec3[4.10666667, 0.0, -2.90385185]

Smiles.genBranch(): Initial  rvecsT = [Vec3[-0.33333333, 0.0, 0.94280904], Vec3[-0.33333333, 0.81649658, -0.47140452], Vec3[-0.33333333, -0.81649658, -0.47140452], Vec3[1.0, 0.0, 0.0]]

Smiles.genBranch(): Final rvecsT = [Vec3[-0.33333333, 0.0, 0.94280904], Vec3[-0.33333333, 0.81649658, -0.47140452], Vec3[-0.33333333, -0.81649658, -0.47140452], Vec3[1.0, 0.0, 0.0]]

Smiles.genBranch(): Found bonded atom pair 'C, H' as H-C ... dist = 1.09

Smiles.genBranch(): Setting coords for atom # 15, name = H51, type = H, rvec = Vec3[3.74333333, 0.88998127, -3.41768278]

Smiles.genBranch(): Distance for atom pair (15, 14) 'C, H' = 1.09

Smiles.genBranch(): Distance for atom pair '(C, H)' = 0.0 for irc = 1 < 3 (4 - 1) 

Smiles.genBranch(): Found bonded atom pair 'C, H' as H-C ... dist = 1.09

Smiles.genBranch(): Setting coords for atom # 16, name = H52, type = H, rvec = Vec3[3.74333333, -0.88998127, -3.41768278]

Smiles.genBranch(): Distance for atom pair (16, 14) 'C, H' = 1.09

Smiles.genBranch(): Distance for atom pair '(C, H)' = 0.0 for irc = 2 < 3 (4 - 1) 

Smiles.genBranch(): Current branches = [[14, [14], (14, 17, '(=O)')], [14, [15], (18, 21, '(=O)')]] -  5 in [14, 14] ?.. False; 2 < 3 ?..

Smiles.genBranch(): No valid branch found for atom # 4 (16), plus irc = 3 > 2 (hatoms = 2 + nbonds = 1 - ic = 1) - bond search done!..
Looking at bond between atoms 5 & 6 ...

Smiles.getBondFeatures(): Found forward bonded atom pair '[C,C'] (5,6) as CsC with rank = 1.0 & dist = 1.54

Smiles.genBranch(): Setting coords for off-ring atom # 17 [mi] : name = C6, type = C, ibond = 0 rvecO = Vec3[5.64666667, 0.0, -2.90385185]

Smiles.genBranch(): Initial  rvecsT = [Vec3[-0.33333333, 0.0, -0.94280904], Vec3[-0.33333333, -0.81649658, 0.47140452], Vec3[-0.33333333, 0.81649658, 0.47140452], Vec3[1.0, 0.0, 0.0]]

Smiles.genBranch(): Final rvecsT = [Vec3[-1.0, 0.0, -0.0], Vec3[0.33333333, -0.81649658, 0.47140452], Vec3[0.33333333, 0.81649658, 0.47140452], Vec3[0.33333333, 0.0, -0.94280904]]

Smiles.genBranch(): Found bonded atom pair 'C, H' as H-C ... dist = 1.09

Smiles.genBranch(): Setting coords for atom # 18, name = H61, type = H, rvec = Vec3[6.01, -0.88998127, -2.39002092]

Smiles.genBranch(): Distance for atom pair (18, 17) 'C, H' = 1.09

Smiles.genBranch(): Distance for atom pair '(C, H)' = 0.0 for irc = 1 < 3 (4 - 1) 

Smiles.genBranch(): Found bonded atom pair 'C, H' as H-C ... dist = 1.09

Smiles.genBranch(): Setting coords for atom # 19, name = H62, type = H, rvec = Vec3[6.01, 0.88998127, -2.39002092]

Smiles.genBranch(): Distance for atom pair (19, 17) 'C, H' = 1.09

Smiles.genBranch(): Distance for atom pair '(C, H)' = 0.0 for irc = 2 < 3 (4 - 1) 

Smiles.genBranch(): Current branches = [[14, [14], (14, 17, '(=O)')], [14, [15], (18, 21, '(=O)')]] -  6 in [14, 14] ?.. False; 2 < 3 ?..

Smiles.genBranch(): No valid branch found for atom # 5 (19), plus irc = 3 > 2 (hatoms = 2 + nbonds = 1 - ic = 1) - bond search done!..
Looking at bond between atoms 6 & 7 ...

Smiles.getBondFeatures(): Found forward bonded atom pair '[C,C'] (6,7) as CsC with rank = 1.0 & dist = 1.54

Smiles.genBranch(): Setting coords for off-ring atom # 20 [mi] : name = C7, type = C, ibond = 0 rvecO = Vec3[6.16, 0.0, -4.35577777]

Smiles.genBranch(): Initial  rvecsT = [Vec3[-0.33333333, 0.0, 0.94280904], Vec3[-0.33333333, 0.81649658, -0.47140452], Vec3[-0.33333333, -0.81649658, -0.47140452], Vec3[1.0, 0.0, 0.0]]

Smiles.genBranch(): Final rvecsT = [Vec3[-0.33333333, 0.0, 0.94280904], Vec3[-0.33333333, 0.81649658, -0.47140452], Vec3[-0.33333333, -0.81649658, -0.47140452], Vec3[1.0, 0.0, 0.0]]

Smiles.genBranch(): Found bonded atom pair 'C, H' as H-C ... dist = 1.09

Smiles.genBranch(): Setting coords for atom # 21, name = H71, type = H, rvec = Vec3[5.79666667, 0.88998127, -4.8696087]

Smiles.genBranch(): Distance for atom pair (21, 20) 'C, H' = 1.09

Smiles.genBranch(): Distance for atom pair '(C, H)' = 0.0 for irc = 1 < 3 (4 - 1) 

Smiles.genBranch(): Found bonded atom pair 'C, H' as H-C ... dist = 1.09

Smiles.genBranch(): Setting coords for atom # 22, name = H72, type = H, rvec = Vec3[5.79666667, -0.88998127, -4.8696087]

Smiles.genBranch(): Distance for atom pair (22, 20) 'C, H' = 1.09

Smiles.genBranch(): Distance for atom pair '(C, H)' = 0.0 for irc = 2 < 3 (4 - 1) 

Smiles.genBranch(): Current branches = [[14, [14], (14, 17, '(=O)')], [14, [15], (18, 21, '(=O)')]] -  7 in [14, 14] ?.. False; 2 < 3 ?..

Smiles.genBranch(): No valid branch found for atom # 6 (22), plus irc = 3 > 2 (hatoms = 2 + nbonds = 1 - ic = 1) - bond search done!..
Looking at bond between atoms 7 & 8 ...

Smiles.getBondFeatures(): Found forward bonded atom pair '[C,C'] (7,8) as CsC with rank = 1.0 & dist = 1.54

Smiles.genBranch(): Setting coords for off-ring atom # 23 [mi] : name = C8, type = C, ibond = 0 rvecO = Vec3[7.7, 0.0, -4.35577777]

Smiles.genBranch(): Initial  rvecsT = [Vec3[-0.33333333, 0.0, -0.94280904], Vec3[-0.33333333, -0.81649658, 0.47140452], Vec3[-0.33333333, 0.81649658, 0.47140452], Vec3[1.0, 0.0, 0.0]]

Smiles.genBranch(): Final rvecsT = [Vec3[-1.0, 0.0, -0.0], Vec3[0.33333333, -0.81649658, 0.47140452], Vec3[0.33333333, 0.81649658, 0.47140452], Vec3[0.33333333, 0.0, -0.94280904]]

Smiles.genBranch(): Found bonded atom pair 'C, H' as H-C ... dist = 1.09

Smiles.genBranch(): Setting coords for atom # 24, name = H81, type = H, rvec = Vec3[8.06333333, -0.88998127, -3.84194684]

Smiles.genBranch(): Distance for atom pair (24, 23) 'C, H' = 1.0900000000000005

Smiles.genBranch(): Distance for atom pair '(C, H)' = 0.0 for irc = 1 < 3 (4 - 1) 

Smiles.genBranch(): Found bonded atom pair 'C, H' as H-C ... dist = 1.09

Smiles.genBranch(): Setting coords for atom # 25, name = H82, type = H, rvec = Vec3[8.06333333, 0.88998127, -3.84194684]

Smiles.genBranch(): Distance for atom pair (25, 23) 'C, H' = 1.0900000000000005

Smiles.genBranch(): Distance for atom pair '(C, H)' = 0.0 for irc = 2 < 3 (4 - 1) 

Smiles.genBranch(): Current branches = [[14, [14], (14, 17, '(=O)')], [14, [15], (18, 21, '(=O)')]] -  8 in [14, 14] ?.. False; 2 < 3 ?..

Smiles.genBranch(): No valid branch found for atom # 7 (25), plus irc = 3 > 2 (hatoms = 2 + nbonds = 1 - ic = 1) - bond search done!..
Looking at bond between atoms 8 & 9 ...

Smiles.getBondFeatures(): Found forward bonded atom pair '[C,C'] (8,9) as CsC with rank = 1.0 & dist = 1.54

Smiles.genBranch(): Setting coords for off-ring atom # 26 [mi] : name = C9, type = C, ibond = 0 rvecO = Vec3[8.21333333, 0.0, -5.8077037]

Smiles.genBranch(): Initial  rvecsT = [Vec3[-0.33333333, 0.0, 0.94280904], Vec3[-0.33333333, 0.81649658, -0.47140452], Vec3[-0.33333333, -0.81649658, -0.47140452], Vec3[1.0, 0.0, 0.0]]

Smiles.genBranch(): Final rvecsT = [Vec3[-0.33333333, 0.0, 0.94280904], Vec3[-0.33333333, 0.81649658, -0.47140452], Vec3[-0.33333333, -0.81649658, -0.47140452], Vec3[1.0, 0.0, 0.0]]

Smiles.genBranch(): Found bonded atom pair 'C, H' as H-C ... dist = 1.09

Smiles.genBranch(): Setting coords for atom # 27, name = H91, type = H, rvec = Vec3[7.85, 0.88998127, -6.32153462]

Smiles.genBranch(): Distance for atom pair (27, 26) 'C, H' = 1.09

Smiles.genBranch(): Distance for atom pair '(C, H)' = 0.0 for irc = 1 < 3 (4 - 1) 

Smiles.genBranch(): Found bonded atom pair 'C, H' as H-C ... dist = 1.09

Smiles.genBranch(): Setting coords for atom # 28, name = H92, type = H, rvec = Vec3[7.85, -0.88998127, -6.32153462]

Smiles.genBranch(): Distance for atom pair (28, 26) 'C, H' = 1.09

Smiles.genBranch(): Distance for atom pair '(C, H)' = 0.0 for irc = 2 < 3 (4 - 1) 

Smiles.genBranch(): Current branches = [[14, [14], (14, 17, '(=O)')], [14, [15], (18, 21, '(=O)')]] -  9 in [14, 14] ?.. False; 2 < 3 ?..

Smiles.genBranch(): No valid branch found for atom # 8 (28), plus irc = 3 > 2 (hatoms = 2 + nbonds = 1 - ic = 1) - bond search done!..
Looking at bond between atoms 9 & 10 ...

Smiles.getBondFeatures(): Found forward bonded atom pair '[C,C'] (9,10) as CsC with rank = 1.0 & dist = 1.54

Smiles.genBranch(): Setting coords for off-ring atom # 29 [mi] : name = C10, type = C, ibond = 0 rvecO = Vec3[9.75333333, 0.0, -5.8077037]

Smiles.genBranch(): Initial  rvecsT = [Vec3[-0.33333333, 0.0, -0.94280904], Vec3[-0.33333333, -0.81649658, 0.47140452], Vec3[-0.33333333, 0.81649658, 0.47140452], Vec3[1.0, 0.0, 0.0]]

Smiles.genBranch(): Final rvecsT = [Vec3[-1.0, 0.0, -0.0], Vec3[0.33333333, -0.81649658, 0.47140452], Vec3[0.33333333, 0.81649658, 0.47140452], Vec3[0.33333333, 0.0, -0.94280904]]

Smiles.genBranch(): Found bonded atom pair 'C, H' as H-C ... dist = 1.09

Smiles.genBranch(): Setting coords for atom # 30, name = H101, type = H, rvec = Vec3[10.11666667, -0.88998127, -5.29387277]

Smiles.genBranch(): Distance for atom pair (30, 29) 'C, H' = 1.09

Smiles.genBranch(): Distance for atom pair '(C, H)' = 0.0 for irc = 1 < 3 (4 - 1) 

Smiles.genBranch(): Found bonded atom pair 'C, H' as H-C ... dist = 1.09

Smiles.genBranch(): Setting coords for atom # 31, name = H102, type = H, rvec = Vec3[10.11666667, 0.88998127, -5.29387277]

Smiles.genBranch(): Distance for atom pair (31, 29) 'C, H' = 1.09

Smiles.genBranch(): Distance for atom pair '(C, H)' = 0.0 for irc = 2 < 3 (4 - 1) 

Smiles.genBranch(): Current branches = [[14, [14], (14, 17, '(=O)')], [14, [15], (18, 21, '(=O)')]] -  10 in [14, 14] ?.. False; 2 < 3 ?..

Smiles.genBranch(): No valid branch found for atom # 9 (31), plus irc = 3 > 2 (hatoms = 2 + nbonds = 1 - ic = 1) - bond search done!..
Looking at bond between atoms 10 & 11 ...

Smiles.getBondFeatures(): Found forward bonded atom pair '[C,C'] (10,11) as CsC with rank = 1.0 & dist = 1.54

Smiles.genBranch(): Setting coords for off-ring atom # 32 [mi] : name = C11, type = C, ibond = 0 rvecO = Vec3[10.26666667, 0.0, -7.25962962]

Smiles.genBranch(): Initial  rvecsT = [Vec3[-0.33333333, 0.0, 0.94280904], Vec3[-0.33333333, 0.81649658, -0.47140452], Vec3[-0.33333333, -0.81649658, -0.47140452], Vec3[1.0, 0.0, 0.0]]

Smiles.genBranch(): Final rvecsT = [Vec3[-0.33333333, 0.0, 0.94280904], Vec3[-0.33333333, 0.81649658, -0.47140452], Vec3[-0.33333333, -0.81649658, -0.47140452], Vec3[1.0, 0.0, 0.0]]

Smiles.genBranch(): Found bonded atom pair 'C, H' as H-C ... dist = 1.09

Smiles.genBranch(): Setting coords for atom # 33, name = H111, type = H, rvec = Vec3[9.90333333, 0.88998127, -7.77346055]

Smiles.genBranch(): Distance for atom pair (33, 32) 'C, H' = 1.09

Smiles.genBranch(): Distance for atom pair '(C, H)' = 0.0 for irc = 1 < 3 (4 - 1) 

Smiles.genBranch(): Found bonded atom pair 'C, H' as H-C ... dist = 1.09

Smiles.genBranch(): Setting coords for atom # 34, name = H112, type = H, rvec = Vec3[9.90333333, -0.88998127, -7.77346055]

Smiles.genBranch(): Distance for atom pair (34, 32) 'C, H' = 1.09

Smiles.genBranch(): Distance for atom pair '(C, H)' = 0.0 for irc = 2 < 3 (4 - 1) 

Smiles.genBranch(): Current branches = [[14, [14], (14, 17, '(=O)')], [14, [15], (18, 21, '(=O)')]] -  11 in [14, 14] ?.. False; 2 < 3 ?..

Smiles.genBranch(): No valid branch found for atom # 10 (34), plus irc = 3 > 2 (hatoms = 2 + nbonds = 1 - ic = 1) - bond search done!..
Looking at bond between atoms 11 & 12 ...

Smiles.getBondFeatures(): Found forward bonded atom pair '[C,O'] (11,12) as CsO with rank = 1.0 & dist = 1.43

Smiles.genBranch(): Setting coords for off-ring atom # 35 [mi] : name = C12, type = C, ibond = 0 rvecO = Vec3[11.80666667, 0.0, -7.25962962]

Smiles.genBranch(): Initial  rvecsT = [Vec3[-0.33333333, 0.0, -0.94280904], Vec3[-0.33333333, -0.81649658, 0.47140452], Vec3[-0.33333333, 0.81649658, 0.47140452], Vec3[1.0, 0.0, 0.0]]

Smiles.genBranch(): Final rvecsT = [Vec3[-1.0, 0.0, -0.0], Vec3[0.33333333, -0.81649658, 0.47140452], Vec3[0.33333333, 0.81649658, 0.47140452], Vec3[0.33333333, 0.0, -0.94280904]]

Smiles.genBranch(): Found bonded atom pair 'C, H' as H-C ... dist = 1.09

Smiles.genBranch(): Setting coords for atom # 36, name = H121, type = H, rvec = Vec3[12.17, -0.88998127, -6.74579869]

Smiles.genBranch(): Distance for atom pair (36, 35) 'C, H' = 1.09

Smiles.genBranch(): Distance for atom pair '(C, H)' = 0.0 for irc = 1 < 3 (4 - 1) 

Smiles.genBranch(): Found bonded atom pair 'C, H' as H-C ... dist = 1.09

Smiles.genBranch(): Setting coords for atom # 37, name = H122, type = H, rvec = Vec3[12.17, 0.88998127, -6.74579869]

Smiles.genBranch(): Distance for atom pair (37, 35) 'C, H' = 1.09

Smiles.genBranch(): Distance for atom pair '(C, H)' = 0.0 for irc = 2 < 3 (4 - 1) 

Smiles.genBranch(): Current branches = [[14, [14], (14, 17, '(=O)')], [14, [15], (18, 21, '(=O)')]] -  12 in [14, 14] ?.. False; 2 < 3 ?..

Smiles.genBranch(): No valid branch found for atom # 11 (37), plus irc = 3 > 2 (hatoms = 2 + nbonds = 1 - ic = 1) - bond search done!..
Looking at bond between atoms 12 & 13 ...

Smiles.getBondFeatures(): Found forward bonded atom pair '[O,S'] (12,13) as OsS with rank = 1.0 & dist = 1.55

Smiles.genBranch(): Setting coords for off-ring atom # 38 [mi] : name = O13, type = O, ibond = 0 rvecO = Vec3[12.28333333, 0.0, -8.60784655]

Smiles.genBranch(): Initial  rvecsT = [Vec3[-0.33333333, 0.0, 0.94280904], Vec3[1.0, 0.0, 0.0]]

Smiles.genBranch(): Final rvecsT = [Vec3[-0.33333333, 0.0, 0.94280904], Vec3[1.0, 0.0, 0.0]]

Smiles.genBranch(): Current branches = [[14, [14], (14, 17, '(=O)')], [14, [15], (18, 21, '(=O)')]] -  13 in [14, 14] ?.. False; 0 < 1 ?..

Smiles.genBranch(): No valid branch found for atom # 12 (38), plus irc = 1 > 0 (hatoms = 0 + nbonds = 1 - ic = 1) - bond search done!..
Looking at bond between atoms 13 & 14 ...

Smiles.getBondFeatures(): Found forward bonded atom pair '[S,O'] (13,14) as SdO with rank = 2.0 & dist = 1.45

Smiles.genBranch(): Setting coords for off-ring atom # 39 [mi] : name = S14, type = S, ibond = 0 rvecO = Vec3[13.83333333, 0.0, -8.60784655]

Smiles.genBranch(): Initial  rvecsT = [Vec3[-0.33333333, 0.0, -0.94280904], Vec3[-0.33333333, -0.81649658, 0.47140452], Vec3[-0.33333333, 0.81649658, 0.47140452], Vec3[1.0, 0.0, 0.0]]

Smiles.genBranch(): Final rvecsT = [Vec3[-1.0, 0.0, -0.0], Vec3[0.33333333, -0.81649658, 0.47140452], Vec3[0.33333333, 0.81649658, 0.47140452], Vec3[0.33333333, 0.0, -0.94280904]]

Smiles.genBranch(): Current branches = [[14, [14], (14, 17, '(=O)')], [14, [15], (18, 21, '(=O)')]] -  14 in [14, 14] ?.. True; 0 < 3 ?..

Smiles.genBranch(): Getting onto branch # 0 -  between (14, 14), then 15 -> 

Smiles.genBranch(): Setting coords for off-ring atom # 40 [mi] : name = O15, type = O, ibond = 0 rvecO = Vec3[14.31666667, -1.18392004, -7.92430999]

Smiles.genBranch(): Initial  rvecsT = [Vec3[-1.0, 0.0, 0.0]]

Smiles.genBranch(): Final rvecsT = [Vec3[-0.33333333, 0.81649658, -0.47140452]]

Smiles.genBranch(): Got back from branch # 0 - rooted on atom 13 -> next 15 (natoms = 40)

Smiles.genBranch(): Updated branches = [[-14, [14], (14, 17, '(=O)')], [14, [15], (18, 21, '(=O)')]] (0) ->  14 in [-14, 14] ?.. True; 0 < 3 ?..

Smiles.genBranch(): Got back from branch # 0 -  connecting atoms 13 -> 15 (natoms = 40)

Smiles.genBranch(): Distance for atom pair '(S, O)' = 1.4499999999999997 for irc = 1 < 3 (4 - 1) 

Smiles.genBranch(): Current branches = [[-14, [14], (14, 17, '(=O)')], [14, [15], (18, 21, '(=O)')]] -  14 in [-14, 14] ?.. True; 1 < 3 ?..

Smiles.genBranch(): Getting onto branch # 1 -  between (15, 15), then 16 -> 

Smiles.genBranch(): Setting coords for off-ring atom # 41 [mi] : name = O16, type = O, ibond = 0 rvecO = Vec3[14.31666667, 1.18392004, -7.92430999]

Smiles.genBranch(): Initial  rvecsT = [Vec3[-1.0, 0.0, 0.0]]

Smiles.genBranch(): Final rvecsT = [Vec3[-0.33333333, -0.81649658, -0.47140452]]

Smiles.genBranch(): Got back from branch # 1 - rooted on atom 13 -> next 16 (natoms = 41)

Smiles.genBranch(): Updated branches = [[-14, [14], (14, 17, '(=O)')], [-14, [15], (18, 21, '(=O)')]] (1) ->  14 in [-14, -14] ?.. False; 1 < 3 ?..

Smiles.genBranch(): Got back from branch # 1 -  connecting atoms 13 -> 16 (natoms = 41)

Smiles.genBranch(): Distance for atom pair '(S, O)' = 1.4499999999999997 for irc = 2 < 3 (4 - 1) 

Smiles.genBranch(): Current branches = [[-14, [14], (14, 17, '(=O)')], [-14, [15], (18, 21, '(=O)')]] -  14 in [-14, -14] ?.. False; 2 < 3 ?..

Smiles.genBranch(): No valid branch found for atom # 13 (41), plus irc = 3 > 2 (hatoms = 0 + nbonds = 3 - ic = 1) - bond search done!..

Smiles.genBranch(): Setting coords for off-ring atom # 42 [mi] : name = O17, type = O, ibond = 0 rvecO = Vec3[14.35, 0.0, -10.06920056]

Smiles.genBranch(): Initial  rvecsT = [Vec3[-1.0, 0.0, 0.0]]

Smiles.genBranch(): Final rvecsT = [Vec3[-0.33333333, 0.0, 0.94280904]]

Smiles.getMolecule(): Obtained molecule 'SDS' coords ...

shape.py::main(): Added new molecule 0 based on SMILES 'CCCCCCCCCCCCOS(=O)(=O)[O-]' 
 Molecule => { index: 0, name: 'SDS', type: 'smiles', mass: 265.38800000000003, charge: 0.0, nitems: 42;
 rvec: Vec3[8.74589435, 0.0, -5.41968211];
 rcog: Vec3[6.6965873, 0.0, -4.11379012] }', chemf = 'C12SO4', natoms = 42 ...

shape.py::main(): Added MoleculeSet => { index: 1, name: 'SDS', type: 'output', mass: 0.0, charge: 0.0, nitems: 0;
 rvec: None;
 rcog: None } to the output list of species

shape.py::main(): Calling  Smiles().getMolecule('S([O-])(=O)(=O)OCCCCCCCCCCCC', 'SDS') ...

Smiles.getTopology(): Elements = [('[O-]', [2, 5])] ... 1 in total

Smiles.getTopology(): Atoms = 
(0, ['S', {'bonds': [], 'branch': [], 'rings': [], 'runits': []}, 0])
(1, ['O-', {'bonds': [], 'branch': [], 'rings': [], 'runits': []}, 3])
(2, ['O', {'bonds': [], 'branch': [], 'rings': [], 'runits': []}, 9])
(3, ['O', {'bonds': [], 'branch': [], 'rings': [], 'runits': []}, 13])
(4, ['O', {'bonds': [], 'branch': [], 'rings': [], 'runits': []}, 15])
(5, ['C', {'bonds': [], 'branch': [], 'rings': [], 'runits': []}, 16])
(6, ['C', {'bonds': [], 'branch': [], 'rings': [], 'runits': []}, 17])
(7, ['C', {'bonds': [], 'branch': [], 'rings': [], 'runits': []}, 18])
(8, ['C', {'bonds': [], 'branch': [], 'rings': [], 'runits': []}, 19])
(9, ['C', {'bonds': [], 'branch': [], 'rings': [], 'runits': []}, 20])
(10, ['C', {'bonds': [], 'branch': [], 'rings': [], 'runits': []}, 21])
(11, ['C', {'bonds': [], 'branch': [], 'rings': [], 'runits': []}, 22])
(12, ['C', {'bonds': [], 'branch': [], 'rings': [], 'runits': []}, 23])
(13, ['C', {'bonds': [], 'branch': [], 'rings': [], 'runits': []}, 24])
(14, ['C', {'bonds': [], 'branch': [], 'rings': [], 'runits': []}, 25])
(15, ['C', {'bonds': [], 'branch': [], 'rings': [], 'runits': []}, 26])
(16, ['C', {'bonds': [], 'branch': [], 'rings': [], 'runits': []}, 27])
17 in total

Smiles.parseBranches(): Added branch # 0 =  [1, [1], (1, 6, '([O-])')]
Smiles.parseBranches(): Added branch # 1 =  [1, [2], (7, 10, '(=O)')]
Smiles.parseBranches(): Added branch # 2 =  [1, [3], (11, 14, '(=O)')]
Smiles.getTopology(): Branches = 
[1, [1], (1, 6, '([O-])')]
[1, [2], (7, 10, '(=O)')]
[1, [3], (11, 14, '(=O)')]
3 in total


Smiles.listNumbers(): Positions of numbers in 'S([O-])(=O)(=O)OCCCCCCCCCCCC' =
 [] 

Smiles.parseBonds(): On branch [1, [1], (1, 6, '([O-])')]
Smiles.parseBonds(): Setting consecutive bonds ibeg = 0 ... iend = 0 
Smiles.parseBonds(): Setting outmost(?) bonds iac = 0 ... iab = 1 ... ibegN = 2
Smiles.parseBonds(): Setting consecutive bonds ib = 1 ... ie = 1 
Smiles.parseBonds(): On branch [1, [2], (7, 10, '(=O)')]
Smiles.parseBonds(): Setting consecutive bonds ibeg = 2 ... iend = 0 
Smiles.parseBonds(): Setting outmost(?) bonds iac = 0 ... iab = 2 ... ibegN = 3
Smiles.parseBonds(): Setting consecutive bonds ib = 2 ... ie = 2 
Smiles.parseBonds(): On branch [1, [3], (11, 14, '(=O)')]
Smiles.parseBonds(): Setting consecutive bonds ibeg = 3 ... iend = 0 
Smiles.parseBonds(): Setting outmost(?) bonds iac = 0 ... iab = 3 ... ibegN = 4
Smiles.parseBonds(): Setting consecutive bonds ib = 3 ... ie = 3 
Smiles.parseBonds(): Setting consecutive bonds ibeg = 4 ... iend = 16 off branch
Smiles.getTopology(): Bonds = 
[1.0, (0, 1), 1.55, 'SsO']
[2.0, (0, 2), 1.45, 'SdO']
[2.0, (0, 3), 1.45, 'SdO']
[1.0, (0, 4), 1.55, 'SsO']
[1.0, (4, 5), 1.43, 'OsC']
[1.0, (5, 6), 1.54, 'CsC']
[1.0, (6, 7), 1.54, 'CsC']
[1.0, (7, 8), 1.54, 'CsC']
[1.0, (8, 9), 1.54, 'CsC']
[1.0, (9, 10), 1.54, 'CsC']
[1.0, (10, 11), 1.54, 'CsC']
[1.0, (11, 12), 1.54, 'CsC']
[1.0, (12, 13), 1.54, 'CsC']
[1.0, (13, 14), 1.54, 'CsC']
[1.0, (14, 15), 1.54, 'CsC']
[1.0, (15, 16), 1.54, 'CsC']
16 in total

Smiles.getTopology(): Updated atoms = 
(0, ['S', {'bonds': [(1, 1.0, 1.55), (2, 2.0, 1.45), (3, 2.0, 1.45), (4, 1.0, 1.55)], 'branch': [1, 2, 3], 'rings': [], 'runits': []}, 0])
(1, ['O-', {'bonds': [], 'branch': [], 'rings': [], 'runits': []}, 3])
(2, ['O', {'bonds': [], 'branch': [], 'rings': [], 'runits': []}, 9])
(3, ['O', {'bonds': [], 'branch': [], 'rings': [], 'runits': []}, 13])
(4, ['O', {'bonds': [(5, 1.0, 1.43)], 'branch': [], 'rings': [], 'runits': []}, 15])
(5, ['C', {'bonds': [(6, 1.0, 1.54)], 'branch': [], 'rings': [], 'runits': []}, 16])
(6, ['C', {'bonds': [(7, 1.0, 1.54)], 'branch': [], 'rings': [], 'runits': []}, 17])
(7, ['C', {'bonds': [(8, 1.0, 1.54)], 'branch': [], 'rings': [], 'runits': []}, 18])
(8, ['C', {'bonds': [(9, 1.0, 1.54)], 'branch': [], 'rings': [], 'runits': []}, 19])
(9, ['C', {'bonds': [(10, 1.0, 1.54)], 'branch': [], 'rings': [], 'runits': []}, 20])
(10, ['C', {'bonds': [(11, 1.0, 1.54)], 'branch': [], 'rings': [], 'runits': []}, 21])
(11, ['C', {'bonds': [(12, 1.0, 1.54)], 'branch': [], 'rings': [], 'runits': []}, 22])
(12, ['C', {'bonds': [(13, 1.0, 1.54)], 'branch': [], 'rings': [], 'runits': []}, 23])
(13, ['C', {'bonds': [(14, 1.0, 1.54)], 'branch': [], 'rings': [], 'runits': []}, 24])
(14, ['C', {'bonds': [(15, 1.0, 1.54)], 'branch': [], 'rings': [], 'runits': []}, 25])
(15, ['C', {'bonds': [(16, 1.0, 1.54)], 'branch': [], 'rings': [], 'runits': []}, 26])
(16, ['C', {'bonds': [], 'branch': [], 'rings': [], 'runits': []}, 27])
17 in total

Smiles.getTopology(): D-bonds = [8, 12], 2 in total


Smiles.getTopology(): Initial list of bonds for SMILES 'S([O-])(=O)(=O)OCCCCCCCCCCCC' = 
[1.0, (0, 1), 1.55, 'SsO']
[2.0, (0, 2), 1.45, 'SdO']
[2.0, (0, 3), 1.45, 'SdO']
[1.0, (0, 4), 1.55, 'SsO']
[1.0, (4, 5), 1.43, 'OsC']
[1.0, (5, 6), 1.54, 'CsC']
[1.0, (6, 7), 1.54, 'CsC']
[1.0, (7, 8), 1.54, 'CsC']
[1.0, (8, 9), 1.54, 'CsC']
[1.0, (9, 10), 1.54, 'CsC']
[1.0, (10, 11), 1.54, 'CsC']
[1.0, (11, 12), 1.54, 'CsC']
[1.0, (12, 13), 1.54, 'CsC']
[1.0, (13, 14), 1.54, 'CsC']
[1.0, (14, 15), 1.54, 'CsC']
[1.0, (15, 16), 1.54, 'CsC']
with counts = [(1.0, 14), (2.0, 2)], 16 in total

Smiles.getTopology(): Check out number of bonds for atom 'S' (0) : cbonds + hatoms = 6 + 0 =?= 6 (its valency) ...
Smiles.getTopology(): Tetrahedral bonding for atom 'S' (0), mbonds / cbonds / hatoms = 4 / 4 / 0 ...
Smiles.getTopology(): Check out number of bonds for atom 'O' (1) : cbonds + hatoms = 1 + 0 =?= 1 (its valency) ...
Smiles.getTopology(): Terminal bonding for atom 'O' (1), mbonds / cbonds / hatoms = 1 / 1 / 0 ...
Smiles.getTopology(): Check out number of bonds for atom 'O' (2) : cbonds + hatoms = 2 + 0 =?= 2 (its valency) ...
Smiles.getTopology(): Terminal bonding for atom 'O' (2), mbonds / cbonds / hatoms = 1 / 1 / 0 ...
Smiles.getTopology(): Check out number of bonds for atom 'O' (3) : cbonds + hatoms = 2 + 0 =?= 2 (its valency) ...
Smiles.getTopology(): Terminal bonding for atom 'O' (3), mbonds / cbonds / hatoms = 1 / 1 / 0 ...
Smiles.getTopology(): Check out number of bonds for atom 'O' (4) : cbonds + hatoms = 2 + 0 =?= 2 (its valency) ...
Smiles.getTopology(): Tetrahedral bonding for atom 'O' (4), mbonds / cbonds / hatoms = 2 / 2 / 0 ...
Smiles.getTopology(): Check out number of bonds for atom 'C' (5) : cbonds + hatoms = 2 + 2 =?= 4 (its valency) ...
Smiles.getTopology(): Tetrahedral bonding for atom 'C' (5), mbonds / cbonds / hatoms = 4 / 2 / 2 ...
Smiles.getTopology(): Check out number of bonds for atom 'C' (6) : cbonds + hatoms = 2 + 2 =?= 4 (its valency) ...
Smiles.getTopology(): Tetrahedral bonding for atom 'C' (6), mbonds / cbonds / hatoms = 4 / 2 / 2 ...
Smiles.getTopology(): Check out number of bonds for atom 'C' (7) : cbonds + hatoms = 2 + 2 =?= 4 (its valency) ...
Smiles.getTopology(): Tetrahedral bonding for atom 'C' (7), mbonds / cbonds / hatoms = 4 / 2 / 2 ...
Smiles.getTopology(): Check out number of bonds for atom 'C' (8) : cbonds + hatoms = 2 + 2 =?= 4 (its valency) ...
Smiles.getTopology(): Tetrahedral bonding for atom 'C' (8), mbonds / cbonds / hatoms = 4 / 2 / 2 ...
Smiles.getTopology(): Check out number of bonds for atom 'C' (9) : cbonds + hatoms = 2 + 2 =?= 4 (its valency) ...
Smiles.getTopology(): Tetrahedral bonding for atom 'C' (9), mbonds / cbonds / hatoms = 4 / 2 / 2 ...
Smiles.getTopology(): Check out number of bonds for atom 'C' (10) : cbonds + hatoms = 2 + 2 =?= 4 (its valency) ...
Smiles.getTopology(): Tetrahedral bonding for atom 'C' (10), mbonds / cbonds / hatoms = 4 / 2 / 2 ...
Smiles.getTopology(): Check out number of bonds for atom 'C' (11) : cbonds + hatoms = 2 + 2 =?= 4 (its valency) ...
Smiles.getTopology(): Tetrahedral bonding for atom 'C' (11), mbonds / cbonds / hatoms = 4 / 2 / 2 ...
Smiles.getTopology(): Check out number of bonds for atom 'C' (12) : cbonds + hatoms = 2 + 2 =?= 4 (its valency) ...
Smiles.getTopology(): Tetrahedral bonding for atom 'C' (12), mbonds / cbonds / hatoms = 4 / 2 / 2 ...
Smiles.getTopology(): Check out number of bonds for atom 'C' (13) : cbonds + hatoms = 2 + 2 =?= 4 (its valency) ...
Smiles.getTopology(): Tetrahedral bonding for atom 'C' (13), mbonds / cbonds / hatoms = 4 / 2 / 2 ...
Smiles.getTopology(): Check out number of bonds for atom 'C' (14) : cbonds + hatoms = 2 + 2 =?= 4 (its valency) ...
Smiles.getTopology(): Tetrahedral bonding for atom 'C' (14), mbonds / cbonds / hatoms = 4 / 2 / 2 ...
Smiles.getTopology(): Check out number of bonds for atom 'C' (15) : cbonds + hatoms = 2 + 2 =?= 4 (its valency) ...
Smiles.getTopology(): Tetrahedral bonding for atom 'C' (15), mbonds / cbonds / hatoms = 4 / 2 / 2 ...
Smiles.getTopology(): Check out number of bonds for atom 'C' (16) : cbonds + hatoms = 1 + 3 =?= 4 (its valency) ...
Smiles.getTopology(): Tetrahedral bonding for atom 'C' (16), mbonds / cbonds / hatoms = 4 / 1 / 3 ...

Smiles.getTopology(): List of bone bonds for SMILES 'S([O-])(=O)(=O)OCCCCCCCCCCCC' = 
[1.0, (0, 1), 1.55, 'SsO']
[2.0, (0, 2), 1.45, 'SdO']
[2.0, (0, 3), 1.45, 'SdO']
[1.0, (0, 4), 1.55, 'SsO']
[1.0, (4, 5), 1.43, 'OsC']
[1.0, (5, 6), 1.54, 'CsC']
[1.0, (6, 7), 1.54, 'CsC']
[1.0, (7, 8), 1.54, 'CsC']
[1.0, (8, 9), 1.54, 'CsC']
[1.0, (9, 10), 1.54, 'CsC']
[1.0, (10, 11), 1.54, 'CsC']
[1.0, (11, 12), 1.54, 'CsC']
[1.0, (12, 13), 1.54, 'CsC']
[1.0, (13, 14), 1.54, 'CsC']
[1.0, (14, 15), 1.54, 'CsC']
[1.0, (15, 16), 1.54, 'CsC']
with counts = [(1.0, 14), (2.0, 2)], 16 in total

Smiles.getTopology(): Partial topology for SMILES 'S([O-])(=O)(=O)OCCCCCCCCCCCC' =
['S', {'valency': -6, 'charge': 0.0, 'hatoms': 0, 'cbonds': 4, 'geometry': 4, 'isaroma': False, 'bonds': [(1, 1.0, 1.55), (2, 2.0, 1.45), (3, 2.0, 1.45), (4, 1.0, 1.55)], 'angles': [], 'branch': [1, 2, 3], 'rings': [], 'runits': []}]
['O', {'valency': -2, 'charge': -1.0, 'hatoms': 0, 'cbonds': 1, 'geometry': 1, 'isaroma': False, 'bonds': [], 'angles': [], 'branch': [], 'rings': [], 'runits': []}]
['O', {'valency': -2, 'charge': 0.0, 'hatoms': 0, 'cbonds': 1, 'geometry': 1, 'isaroma': False, 'bonds': [], 'angles': [], 'branch': [], 'rings': [], 'runits': []}]
['O', {'valency': -2, 'charge': 0.0, 'hatoms': 0, 'cbonds': 1, 'geometry': 1, 'isaroma': False, 'bonds': [], 'angles': [], 'branch': [], 'rings': [], 'runits': []}]
['O', {'valency': -2, 'charge': 0.0, 'hatoms': 0, 'cbonds': 2, 'geometry': 2, 'isaroma': False, 'bonds': [(5, 1.0, 1.43)], 'angles': [], 'branch': [], 'rings': [], 'runits': []}]
['C', {'valency': 4, 'charge': 0.0, 'hatoms': 2, 'cbonds': 2, 'geometry': 4, 'isaroma': False, 'bonds': [(6, 1.0, 1.54)], 'angles': [], 'branch': [], 'rings': [], 'runits': []}]
['C', {'valency': 4, 'charge': 0.0, 'hatoms': 2, 'cbonds': 2, 'geometry': 4, 'isaroma': False, 'bonds': [(7, 1.0, 1.54)], 'angles': [], 'branch': [], 'rings': [], 'runits': []}]
['C', {'valency': 4, 'charge': 0.0, 'hatoms': 2, 'cbonds': 2, 'geometry': 4, 'isaroma': False, 'bonds': [(8, 1.0, 1.54)], 'angles': [], 'branch': [], 'rings': [], 'runits': []}]
['C', {'valency': 4, 'charge': 0.0, 'hatoms': 2, 'cbonds': 2, 'geometry': 4, 'isaroma': False, 'bonds': [(9, 1.0, 1.54)], 'angles': [], 'branch': [], 'rings': [], 'runits': []}]
['C', {'valency': 4, 'charge': 0.0, 'hatoms': 2, 'cbonds': 2, 'geometry': 4, 'isaroma': False, 'bonds': [(10, 1.0, 1.54)], 'angles': [], 'branch': [], 'rings': [], 'runits': []}]
['C', {'valency': 4, 'charge': 0.0, 'hatoms': 2, 'cbonds': 2, 'geometry': 4, 'isaroma': False, 'bonds': [(11, 1.0, 1.54)], 'angles': [], 'branch': [], 'rings': [], 'runits': []}]
['C', {'valency': 4, 'charge': 0.0, 'hatoms': 2, 'cbonds': 2, 'geometry': 4, 'isaroma': False, 'bonds': [(12, 1.0, 1.54)], 'angles': [], 'branch': [], 'rings': [], 'runits': []}]
['C', {'valency': 4, 'charge': 0.0, 'hatoms': 2, 'cbonds': 2, 'geometry': 4, 'isaroma': False, 'bonds': [(13, 1.0, 1.54)], 'angles': [], 'branch': [], 'rings': [], 'runits': []}]
['C', {'valency': 4, 'charge': 0.0, 'hatoms': 2, 'cbonds': 2, 'geometry': 4, 'isaroma': False, 'bonds': [(14, 1.0, 1.54)], 'angles': [], 'branch': [], 'rings': [], 'runits': []}]
['C', {'valency': 4, 'charge': 0.0, 'hatoms': 2, 'cbonds': 2, 'geometry': 4, 'isaroma': False, 'bonds': [(15, 1.0, 1.54)], 'angles': [], 'branch': [], 'rings': [], 'runits': []}]
['C', {'valency': 4, 'charge': 0.0, 'hatoms': 2, 'cbonds': 2, 'geometry': 4, 'isaroma': False, 'bonds': [(16, 1.0, 1.54)], 'angles': [], 'branch': [], 'rings': [], 'runits': []}]
['C', {'valency': 4, 'charge': 0.0, 'hatoms': 3, 'cbonds': 1, 'geometry': 4, 'isaroma': False, 'bonds': [], 'angles': [], 'branch': [], 'rings': [], 'runits': []}]
with counts = [('O', 4), ('S', 1), ('C', 12)], 17 in total
and H-atoms = [(0, 5), (2, 11), (3, 1)], 25 in total

Smiles.getMolecule(): Number of atoms to generate is matoms = 42 ...
Looking at bond between atoms 0 & 1 ...

Smiles.getBondFeatures(): Found forward bonded atom pair '[S,O'] (0,1) as SsO with rank = 1.0 & dist = 1.55

Smiles.genBranch(): Setting coords for off-ring atom # 1 [mi] : name = S1, type = S, ibond = 0 rvecO = Vec3[0.0, 0.0, 0.0]

Smiles.genBranch(): Initial  rvecsT = [Vec3[-0.33333333, 0.0, 0.94280904], Vec3[-0.33333333, 0.81649658, -0.47140452], Vec3[-0.33333333, -0.81649658, -0.47140452], Vec3[1.0, 0.0, 0.0]]

Smiles.genBranch(): Final rvecsT = [Vec3[-0.33333333, 0.0, 0.94280904], Vec3[-0.33333333, 0.81649658, -0.47140452], Vec3[-0.33333333, -0.81649658, -0.47140452], Vec3[1.0, 0.0, 0.0]]

Smiles.genBranch(): Current branches = [[1, [1], (1, 6, '([O-])')], [1, [2], (7, 10, '(=O)')], [1, [3], (11, 14, '(=O)')]] -  1 in [1, 1, 1] ?.. True; 0 < 4 ?..

Smiles.genBranch(): Getting onto branch # 0 -  between (1, 1), then 2 -> 

Smiles.genBranch(): Setting coords for off-ring atom # 2 [mi] : name = O2, type = O, ibond = 0 rvecO = Vec3[-0.51666667, 0.0, 1.46135401]

Smiles.genBranch(): Initial  rvecsT = [Vec3[-1.0, 0.0, 0.0]]

Smiles.genBranch(): Final rvecsT = [Vec3[0.33333333, 0.0, -0.94280904]]

Smiles.genBranch(): Got back from branch # 0 - rooted on atom 0 -> next 2 (natoms = 2)

Smiles.genBranch(): Updated branches = [[-1, [1], (1, 6, '([O-])')], [1, [2], (7, 10, '(=O)')], [1, [3], (11, 14, '(=O)')]] (0) ->  1 in [-1, 1, 1] ?.. True; 0 < 4 ?..

Smiles.genBranch(): Got back from branch # 0 -  connecting atoms 0 -> 2 (natoms = 2)

Smiles.genBranch(): Current branches = [[-1, [1], (1, 6, '([O-])')], [1, [2], (7, 10, '(=O)')], [1, [3], (11, 14, '(=O)')]] -  1 in [-1, 1, 1] ?.. True; 1 < 4 ?..

Smiles.genBranch(): Getting onto branch # 1 -  between (2, 2), then 3 -> 

Smiles.genBranch(): Setting coords for off-ring atom # 3 [mi] : name = O3, type = O, ibond = 0 rvecO = Vec3[-0.48333333, 1.18392004, -0.68353656]

Smiles.genBranch(): Initial  rvecsT = [Vec3[-1.0, 0.0, 0.0]]

Smiles.genBranch(): Final rvecsT = [Vec3[0.33333333, -0.81649658, 0.47140452]]

Smiles.genBranch(): Got back from branch # 1 - rooted on atom 0 -> next 3 (natoms = 3)

Smiles.genBranch(): Updated branches = [[-1, [1], (1, 6, '([O-])')], [-1, [2], (7, 10, '(=O)')], [1, [3], (11, 14, '(=O)')]] (1) ->  1 in [-1, -1, 1] ?.. True; 1 < 4 ?..

Smiles.genBranch(): Got back from branch # 1 -  connecting atoms 0 -> 3 (natoms = 3)

Smiles.genBranch(): Current branches = [[-1, [1], (1, 6, '([O-])')], [-1, [2], (7, 10, '(=O)')], [1, [3], (11, 14, '(=O)')]] -  1 in [-1, -1, 1] ?.. True; 2 < 4 ?..

Smiles.genBranch(): Getting onto branch # 2 -  between (3, 3), then 4 -> 

Smiles.genBranch(): Setting coords for off-ring atom # 4 [mi] : name = O4, type = O, ibond = 0 rvecO = Vec3[-0.48333333, -1.18392004, -0.68353656]

Smiles.genBranch(): Initial  rvecsT = [Vec3[-1.0, 0.0, 0.0]]

Smiles.genBranch(): Final rvecsT = [Vec3[0.33333333, 0.81649658, 0.47140452]]

Smiles.genBranch(): Got back from branch # 2 - rooted on atom 0 -> next 4 (natoms = 4)

Smiles.genBranch(): Updated branches = [[-1, [1], (1, 6, '([O-])')], [-1, [2], (7, 10, '(=O)')], [-1, [3], (11, 14, '(=O)')]] (2) ->  1 in [-1, -1, -1] ?.. False; 2 < 4 ?..

Smiles.genBranch(): Got back from branch # 2 -  connecting atoms 0 -> 4 (natoms = 4)

Smiles.genBranch(): Current branches = [[-1, [1], (1, 6, '([O-])')], [-1, [2], (7, 10, '(=O)')], [-1, [3], (11, 14, '(=O)')]] -  1 in [-1, -1, -1] ?.. False; 3 < 4 ?..
Looking at bond between atoms 4 & 5 ...

Smiles.getBondFeatures(): Found forward bonded atom pair '[O,C'] (4,5) as OsC with rank = 1.0 & dist = 1.43

Smiles.genBranch(): Setting coords for off-ring atom # 5 [mi] : name = O5, type = O, ibond = 0 rvecO = Vec3[1.55, 0.0, 0.0]

Smiles.genBranch(): Initial  rvecsT = [Vec3[-0.33333333, 0.0, -0.94280904], Vec3[1.0, 0.0, 0.0]]

Smiles.genBranch(): Final rvecsT = [Vec3[-1.0, 0.0, 0.0], Vec3[0.33333333, 0.0, -0.94280904]]

Smiles.genBranch(): Current branches = [[-1, [1], (1, 6, '([O-])')], [-1, [2], (7, 10, '(=O)')], [-1, [3], (11, 14, '(=O)')]] -  5 in [-1, -1, -1] ?.. False; 0 < 1 ?..

Smiles.genBranch(): No valid branch found for atom # 4 (5), plus irc = 1 > 0 (hatoms = 0 + nbonds = 1 - ic = 1) - bond search done!..
Looking at bond between atoms 5 & 6 ...

Smiles.getBondFeatures(): Found forward bonded atom pair '[C,C'] (5,6) as CsC with rank = 1.0 & dist = 1.54

Smiles.genBranch(): Setting coords for off-ring atom # 6 [mi] : name = C6, type = C, ibond = 0 rvecO = Vec3[2.02666667, 0.0, -1.34821693]

Smiles.genBranch(): Initial  rvecsT = [Vec3[-0.33333333, 0.0, 0.94280904], Vec3[-0.33333333, 0.81649658, -0.47140452], Vec3[-0.33333333, -0.81649658, -0.47140452], Vec3[1.0, 0.0, 0.0]]

Smiles.genBranch(): Final rvecsT = [Vec3[-0.33333333, 0.0, 0.94280904], Vec3[-0.33333333, 0.81649658, -0.47140452], Vec3[-0.33333333, -0.81649658, -0.47140452], Vec3[1.0, 0.0, 0.0]]

Smiles.genBranch(): Found bonded atom pair 'C, H' as H-C ... dist = 1.09

Smiles.genBranch(): Setting coords for atom # 7, name = H61, type = H, rvec = Vec3[1.66333333, 0.88998127, -1.86204786]

Smiles.genBranch(): Distance for atom pair (7, 6) 'C, H' = 1.09

Smiles.genBranch(): Distance for atom pair '(C, H)' = 0.0 for irc = 1 < 3 (4 - 1) 

Smiles.genBranch(): Found bonded atom pair 'C, H' as H-C ... dist = 1.09

Smiles.genBranch(): Setting coords for atom # 8, name = H62, type = H, rvec = Vec3[1.66333333, -0.88998127, -1.86204786]

Smiles.genBranch(): Distance for atom pair (8, 6) 'C, H' = 1.09

Smiles.genBranch(): Distance for atom pair '(C, H)' = 0.0 for irc = 2 < 3 (4 - 1) 

Smiles.genBranch(): Current branches = [[-1, [1], (1, 6, '([O-])')], [-1, [2], (7, 10, '(=O)')], [-1, [3], (11, 14, '(=O)')]] -  6 in [-1, -1, -1] ?.. False; 2 < 3 ?..

Smiles.genBranch(): No valid branch found for atom # 5 (8), plus irc = 3 > 2 (hatoms = 2 + nbonds = 1 - ic = 1) - bond search done!..
Looking at bond between atoms 6 & 7 ...

Smiles.getBondFeatures(): Found forward bonded atom pair '[C,C'] (6,7) as CsC with rank = 1.0 & dist = 1.54

Smiles.genBranch(): Setting coords for off-ring atom # 9 [mi] : name = C7, type = C, ibond = 0 rvecO = Vec3[3.56666667, 0.0, -1.34821693]

Smiles.genBranch(): Initial  rvecsT = [Vec3[-0.33333333, 0.0, -0.94280904], Vec3[-0.33333333, -0.81649658, 0.47140452], Vec3[-0.33333333, 0.81649658, 0.47140452], Vec3[1.0, 0.0, 0.0]]

Smiles.genBranch(): Final rvecsT = [Vec3[-1.0, 0.0, -0.0], Vec3[0.33333333, -0.81649658, 0.47140452], Vec3[0.33333333, 0.81649658, 0.47140452], Vec3[0.33333333, 0.0, -0.94280904]]

Smiles.genBranch(): Found bonded atom pair 'C, H' as H-C ... dist = 1.09

Smiles.genBranch(): Setting coords for atom # 10, name = H71, type = H, rvec = Vec3[3.93, -0.88998127, -0.834386]

Smiles.genBranch(): Distance for atom pair (10, 9) 'C, H' = 1.09

Smiles.genBranch(): Distance for atom pair '(C, H)' = 0.0 for irc = 1 < 3 (4 - 1) 

Smiles.genBranch(): Found bonded atom pair 'C, H' as H-C ... dist = 1.09

Smiles.genBranch(): Setting coords for atom # 11, name = H72, type = H, rvec = Vec3[3.93, 0.88998127, -0.834386]

Smiles.genBranch(): Distance for atom pair (11, 9) 'C, H' = 1.09

Smiles.genBranch(): Distance for atom pair '(C, H)' = 0.0 for irc = 2 < 3 (4 - 1) 

Smiles.genBranch(): Current branches = [[-1, [1], (1, 6, '([O-])')], [-1, [2], (7, 10, '(=O)')], [-1, [3], (11, 14, '(=O)')]] -  7 in [-1, -1, -1] ?.. False; 2 < 3 ?..

Smiles.genBranch(): No valid branch found for atom # 6 (11), plus irc = 3 > 2 (hatoms = 2 + nbonds = 1 - ic = 1) - bond search done!..
Looking at bond between atoms 7 & 8 ...

Smiles.getBondFeatures(): Found forward bonded atom pair '[C,C'] (7,8) as CsC with rank = 1.0 & dist = 1.54

Smiles.genBranch(): Setting coords for off-ring atom # 12 [mi] : name = C8, type = C, ibond = 0 rvecO = Vec3[4.08, 0.0, -2.80014285]

Smiles.genBranch(): Initial  rvecsT = [Vec3[-0.33333333, 0.0, 0.94280904], Vec3[-0.33333333, 0.81649658, -0.47140452], Vec3[-0.33333333, -0.81649658, -0.47140452], Vec3[1.0, 0.0, 0.0]]

Smiles.genBranch(): Final rvecsT = [Vec3[-0.33333333, 0.0, 0.94280904], Vec3[-0.33333333, 0.81649658, -0.47140452], Vec3[-0.33333333, -0.81649658, -0.47140452], Vec3[1.0, 0.0, 0.0]]

Smiles.genBranch(): Found bonded atom pair 'C, H' as H-C ... dist = 1.09

Smiles.genBranch(): Setting coords for atom # 13, name = H81, type = H, rvec = Vec3[3.71666667, 0.88998127, -3.31397378]

Smiles.genBranch(): Distance for atom pair (13, 12) 'C, H' = 1.09

Smiles.genBranch(): Distance for atom pair '(C, H)' = 0.0 for irc = 1 < 3 (4 - 1) 

Smiles.genBranch(): Found bonded atom pair 'C, H' as H-C ... dist = 1.09

Smiles.genBranch(): Setting coords for atom # 14, name = H82, type = H, rvec = Vec3[3.71666667, -0.88998127, -3.31397378]

Smiles.genBranch(): Distance for atom pair (14, 12) 'C, H' = 1.09

Smiles.genBranch(): Distance for atom pair '(C, H)' = 0.0 for irc = 2 < 3 (4 - 1) 

Smiles.genBranch(): Current branches = [[-1, [1], (1, 6, '([O-])')], [-1, [2], (7, 10, '(=O)')], [-1, [3], (11, 14, '(=O)')]] -  8 in [-1, -1, -1] ?.. False; 2 < 3 ?..

Smiles.genBranch(): No valid branch found for atom # 7 (14), plus irc = 3 > 2 (hatoms = 2 + nbonds = 1 - ic = 1) - bond search done!..
Looking at bond between atoms 8 & 9 ...

Smiles.getBondFeatures(): Found forward bonded atom pair '[C,C'] (8,9) as CsC with rank = 1.0 & dist = 1.54

Smiles.genBranch(): Setting coords for off-ring atom # 15 [mi] : name = C9, type = C, ibond = 0 rvecO = Vec3[5.62, 0.0, -2.80014285]

Smiles.genBranch(): Initial  rvecsT = [Vec3[-0.33333333, 0.0, -0.94280904], Vec3[-0.33333333, -0.81649658, 0.47140452], Vec3[-0.33333333, 0.81649658, 0.47140452], Vec3[1.0, 0.0, 0.0]]

Smiles.genBranch(): Final rvecsT = [Vec3[-1.0, 0.0, -0.0], Vec3[0.33333333, -0.81649658, 0.47140452], Vec3[0.33333333, 0.81649658, 0.47140452], Vec3[0.33333333, 0.0, -0.94280904]]

Smiles.genBranch(): Found bonded atom pair 'C, H' as H-C ... dist = 1.09

Smiles.genBranch(): Setting coords for atom # 16, name = H91, type = H, rvec = Vec3[5.98333333, -0.88998127, -2.28631193]

Smiles.genBranch(): Distance for atom pair (16, 15) 'C, H' = 1.09

Smiles.genBranch(): Distance for atom pair '(C, H)' = 0.0 for irc = 1 < 3 (4 - 1) 

Smiles.genBranch(): Found bonded atom pair 'C, H' as H-C ... dist = 1.09

Smiles.genBranch(): Setting coords for atom # 17, name = H92, type = H, rvec = Vec3[5.98333333, 0.88998127, -2.28631193]

Smiles.genBranch(): Distance for atom pair (17, 15) 'C, H' = 1.09

Smiles.genBranch(): Distance for atom pair '(C, H)' = 0.0 for irc = 2 < 3 (4 - 1) 

Smiles.genBranch(): Current branches = [[-1, [1], (1, 6, '([O-])')], [-1, [2], (7, 10, '(=O)')], [-1, [3], (11, 14, '(=O)')]] -  9 in [-1, -1, -1] ?.. False; 2 < 3 ?..

Smiles.genBranch(): No valid branch found for atom # 8 (17), plus irc = 3 > 2 (hatoms = 2 + nbonds = 1 - ic = 1) - bond search done!..
Looking at bond between atoms 9 & 10 ...

Smiles.getBondFeatures(): Found forward bonded atom pair '[C,C'] (9,10) as CsC with rank = 1.0 & dist = 1.54

Smiles.genBranch(): Setting coords for off-ring atom # 18 [mi] : name = C10, type = C, ibond = 0 rvecO = Vec3[6.13333333, 0.0, -4.25206878]

Smiles.genBranch(): Initial  rvecsT = [Vec3[-0.33333333, 0.0, 0.94280904], Vec3[-0.33333333, 0.81649658, -0.47140452], Vec3[-0.33333333, -0.81649658, -0.47140452], Vec3[1.0, 0.0, 0.0]]

Smiles.genBranch(): Final rvecsT = [Vec3[-0.33333333, 0.0, 0.94280904], Vec3[-0.33333333, 0.81649658, -0.47140452], Vec3[-0.33333333, -0.81649658, -0.47140452], Vec3[1.0, 0.0, 0.0]]

Smiles.genBranch(): Found bonded atom pair 'C, H' as H-C ... dist = 1.09

Smiles.genBranch(): Setting coords for atom # 19, name = H101, type = H, rvec = Vec3[5.77, 0.88998127, -4.76589971]

Smiles.genBranch(): Distance for atom pair (19, 18) 'C, H' = 1.09

Smiles.genBranch(): Distance for atom pair '(C, H)' = 0.0 for irc = 1 < 3 (4 - 1) 

Smiles.genBranch(): Found bonded atom pair 'C, H' as H-C ... dist = 1.09

Smiles.genBranch(): Setting coords for atom # 20, name = H102, type = H, rvec = Vec3[5.77, -0.88998127, -4.76589971]

Smiles.genBranch(): Distance for atom pair (20, 18) 'C, H' = 1.09

Smiles.genBranch(): Distance for atom pair '(C, H)' = 0.0 for irc = 2 < 3 (4 - 1) 

Smiles.genBranch(): Current branches = [[-1, [1], (1, 6, '([O-])')], [-1, [2], (7, 10, '(=O)')], [-1, [3], (11, 14, '(=O)')]] -  10 in [-1, -1, -1] ?.. False; 2 < 3 ?..

Smiles.genBranch(): No valid branch found for atom # 9 (20), plus irc = 3 > 2 (hatoms = 2 + nbonds = 1 - ic = 1) - bond search done!..
Looking at bond between atoms 10 & 11 ...

Smiles.getBondFeatures(): Found forward bonded atom pair '[C,C'] (10,11) as CsC with rank = 1.0 & dist = 1.54

Smiles.genBranch(): Setting coords for off-ring atom # 21 [mi] : name = C11, type = C, ibond = 0 rvecO = Vec3[7.67333333, 0.0, -4.25206878]

Smiles.genBranch(): Initial  rvecsT = [Vec3[-0.33333333, 0.0, -0.94280904], Vec3[-0.33333333, -0.81649658, 0.47140452], Vec3[-0.33333333, 0.81649658, 0.47140452], Vec3[1.0, 0.0, 0.0]]

Smiles.genBranch(): Final rvecsT = [Vec3[-1.0, 0.0, -0.0], Vec3[0.33333333, -0.81649658, 0.47140452], Vec3[0.33333333, 0.81649658, 0.47140452], Vec3[0.33333333, 0.0, -0.94280904]]

Smiles.genBranch(): Found bonded atom pair 'C, H' as H-C ... dist = 1.09

Smiles.genBranch(): Setting coords for atom # 22, name = H111, type = H, rvec = Vec3[8.03666667, -0.88998127, -3.73823785]

Smiles.genBranch(): Distance for atom pair (22, 21) 'C, H' = 1.09

Smiles.genBranch(): Distance for atom pair '(C, H)' = 0.0 for irc = 1 < 3 (4 - 1) 

Smiles.genBranch(): Found bonded atom pair 'C, H' as H-C ... dist = 1.09

Smiles.genBranch(): Setting coords for atom # 23, name = H112, type = H, rvec = Vec3[8.03666667, 0.88998127, -3.73823785]

Smiles.genBranch(): Distance for atom pair (23, 21) 'C, H' = 1.09

Smiles.genBranch(): Distance for atom pair '(C, H)' = 0.0 for irc = 2 < 3 (4 - 1) 

Smiles.genBranch(): Current branches = [[-1, [1], (1, 6, '([O-])')], [-1, [2], (7, 10, '(=O)')], [-1, [3], (11, 14, '(=O)')]] -  11 in [-1, -1, -1] ?.. False; 2 < 3 ?..

Smiles.genBranch(): No valid branch found for atom # 10 (23), plus irc = 3 > 2 (hatoms = 2 + nbonds = 1 - ic = 1) - bond search done!..
Looking at bond between atoms 11 & 12 ...

Smiles.getBondFeatures(): Found forward bonded atom pair '[C,C'] (11,12) as CsC with rank = 1.0 & dist = 1.54

Smiles.genBranch(): Setting coords for off-ring atom # 24 [mi] : name = C12, type = C, ibond = 0 rvecO = Vec3[8.18666667, 0.0, -5.7039947]

Smiles.genBranch(): Initial  rvecsT = [Vec3[-0.33333333, 0.0, 0.94280904], Vec3[-0.33333333, 0.81649658, -0.47140452], Vec3[-0.33333333, -0.81649658, -0.47140452], Vec3[1.0, 0.0, 0.0]]

Smiles.genBranch(): Final rvecsT = [Vec3[-0.33333333, 0.0, 0.94280904], Vec3[-0.33333333, 0.81649658, -0.47140452], Vec3[-0.33333333, -0.81649658, -0.47140452], Vec3[1.0, 0.0, 0.0]]

Smiles.genBranch(): Found bonded atom pair 'C, H' as H-C ... dist = 1.09

Smiles.genBranch(): Setting coords for atom # 25, name = H121, type = H, rvec = Vec3[7.82333333, 0.88998127, -6.21782563]

Smiles.genBranch(): Distance for atom pair (25, 24) 'C, H' = 1.09

Smiles.genBranch(): Distance for atom pair '(C, H)' = 0.0 for irc = 1 < 3 (4 - 1) 

Smiles.genBranch(): Found bonded atom pair 'C, H' as H-C ... dist = 1.09

Smiles.genBranch(): Setting coords for atom # 26, name = H122, type = H, rvec = Vec3[7.82333333, -0.88998127, -6.21782563]

Smiles.genBranch(): Distance for atom pair (26, 24) 'C, H' = 1.09

Smiles.genBranch(): Distance for atom pair '(C, H)' = 0.0 for irc = 2 < 3 (4 - 1) 

Smiles.genBranch(): Current branches = [[-1, [1], (1, 6, '([O-])')], [-1, [2], (7, 10, '(=O)')], [-1, [3], (11, 14, '(=O)')]] -  12 in [-1, -1, -1] ?.. False; 2 < 3 ?..

Smiles.genBranch(): No valid branch found for atom # 11 (26), plus irc = 3 > 2 (hatoms = 2 + nbonds = 1 - ic = 1) - bond search done!..
Looking at bond between atoms 12 & 13 ...

Smiles.getBondFeatures(): Found forward bonded atom pair '[C,C'] (12,13) as CsC with rank = 1.0 & dist = 1.54

Smiles.genBranch(): Setting coords for off-ring atom # 27 [mi] : name = C13, type = C, ibond = 0 rvecO = Vec3[9.72666667, 0.0, -5.7039947]

Smiles.genBranch(): Initial  rvecsT = [Vec3[-0.33333333, 0.0, -0.94280904], Vec3[-0.33333333, -0.81649658, 0.47140452], Vec3[-0.33333333, 0.81649658, 0.47140452], Vec3[1.0, 0.0, 0.0]]

Smiles.genBranch(): Final rvecsT = [Vec3[-1.0, 0.0, -0.0], Vec3[0.33333333, -0.81649658, 0.47140452], Vec3[0.33333333, 0.81649658, 0.47140452], Vec3[0.33333333, 0.0, -0.94280904]]

Smiles.genBranch(): Found bonded atom pair 'C, H' as H-C ... dist = 1.09

Smiles.genBranch(): Setting coords for atom # 28, name = H131, type = H, rvec = Vec3[10.09, -0.88998127, -5.19016377]

Smiles.genBranch(): Distance for atom pair (28, 27) 'C, H' = 1.09

Smiles.genBranch(): Distance for atom pair '(C, H)' = 0.0 for irc = 1 < 3 (4 - 1) 

Smiles.genBranch(): Found bonded atom pair 'C, H' as H-C ... dist = 1.09

Smiles.genBranch(): Setting coords for atom # 29, name = H132, type = H, rvec = Vec3[10.09, 0.88998127, -5.19016377]

Smiles.genBranch(): Distance for atom pair (29, 27) 'C, H' = 1.09

Smiles.genBranch(): Distance for atom pair '(C, H)' = 0.0 for irc = 2 < 3 (4 - 1) 

Smiles.genBranch(): Current branches = [[-1, [1], (1, 6, '([O-])')], [-1, [2], (7, 10, '(=O)')], [-1, [3], (11, 14, '(=O)')]] -  13 in [-1, -1, -1] ?.. False; 2 < 3 ?..

Smiles.genBranch(): No valid branch found for atom # 12 (29), plus irc = 3 > 2 (hatoms = 2 + nbonds = 1 - ic = 1) - bond search done!..
Looking at bond between atoms 13 & 14 ...

Smiles.getBondFeatures(): Found forward bonded atom pair '[C,C'] (13,14) as CsC with rank = 1.0 & dist = 1.54

Smiles.genBranch(): Setting coords for off-ring atom # 30 [mi] : name = C14, type = C, ibond = 0 rvecO = Vec3[10.24, 0.0, -7.15592063]

Smiles.genBranch(): Initial  rvecsT = [Vec3[-0.33333333, 0.0, 0.94280904], Vec3[-0.33333333, 0.81649658, -0.47140452], Vec3[-0.33333333, -0.81649658, -0.47140452], Vec3[1.0, 0.0, 0.0]]

Smiles.genBranch(): Final rvecsT = [Vec3[-0.33333333, 0.0, 0.94280904], Vec3[-0.33333333, 0.81649658, -0.47140452], Vec3[-0.33333333, -0.81649658, -0.47140452], Vec3[1.0, 0.0, 0.0]]

Smiles.genBranch(): Found bonded atom pair 'C, H' as H-C ... dist = 1.09

Smiles.genBranch(): Setting coords for atom # 31, name = H141, type = H, rvec = Vec3[9.87666667, 0.88998127, -7.66975155]

Smiles.genBranch(): Distance for atom pair (31, 30) 'C, H' = 1.09

Smiles.genBranch(): Distance for atom pair '(C, H)' = 0.0 for irc = 1 < 3 (4 - 1) 

Smiles.genBranch(): Found bonded atom pair 'C, H' as H-C ... dist = 1.09

Smiles.genBranch(): Setting coords for atom # 32, name = H142, type = H, rvec = Vec3[9.87666667, -0.88998127, -7.66975155]

Smiles.genBranch(): Distance for atom pair (32, 30) 'C, H' = 1.09

Smiles.genBranch(): Distance for atom pair '(C, H)' = 0.0 for irc = 2 < 3 (4 - 1) 

Smiles.genBranch(): Current branches = [[-1, [1], (1, 6, '([O-])')], [-1, [2], (7, 10, '(=O)')], [-1, [3], (11, 14, '(=O)')]] -  14 in [-1, -1, -1] ?.. False; 2 < 3 ?..

Smiles.genBranch(): No valid branch found for atom # 13 (32), plus irc = 3 > 2 (hatoms = 2 + nbonds = 1 - ic = 1) - bond search done!..
Looking at bond between atoms 14 & 15 ...

Smiles.getBondFeatures(): Found forward bonded atom pair '[C,C'] (14,15) as CsC with rank = 1.0 & dist = 1.54

Smiles.genBranch(): Setting coords for off-ring atom # 33 [mi] : name = C15, type = C, ibond = 0 rvecO = Vec3[11.78, 0.0, -7.15592063]

Smiles.genBranch(): Initial  rvecsT = [Vec3[-0.33333333, 0.0, -0.94280904], Vec3[-0.33333333, -0.81649658, 0.47140452], Vec3[-0.33333333, 0.81649658, 0.47140452], Vec3[1.0, 0.0, 0.0]]

Smiles.genBranch(): Final rvecsT = [Vec3[-1.0, 0.0, -0.0], Vec3[0.33333333, -0.81649658, 0.47140452], Vec3[0.33333333, 0.81649658, 0.47140452], Vec3[0.33333333, 0.0, -0.94280904]]

Smiles.genBranch(): Found bonded atom pair 'C, H' as H-C ... dist = 1.09

Smiles.genBranch(): Setting coords for atom # 34, name = H151, type = H, rvec = Vec3[12.14333333, -0.88998127, -6.6420897]

Smiles.genBranch(): Distance for atom pair (34, 33) 'C, H' = 1.09

Smiles.genBranch(): Distance for atom pair '(C, H)' = 0.0 for irc = 1 < 3 (4 - 1) 

Smiles.genBranch(): Found bonded atom pair 'C, H' as H-C ... dist = 1.09

Smiles.genBranch(): Setting coords for atom # 35, name = H152, type = H, rvec = Vec3[12.14333333, 0.88998127, -6.6420897]

Smiles.genBranch(): Distance for atom pair (35, 33) 'C, H' = 1.09

Smiles.genBranch(): Distance for atom pair '(C, H)' = 0.0 for irc = 2 < 3 (4 - 1) 

Smiles.genBranch(): Current branches = [[-1, [1], (1, 6, '([O-])')], [-1, [2], (7, 10, '(=O)')], [-1, [3], (11, 14, '(=O)')]] -  15 in [-1, -1, -1] ?.. False; 2 < 3 ?..

Smiles.genBranch(): No valid branch found for atom # 14 (35), plus irc = 3 > 2 (hatoms = 2 + nbonds = 1 - ic = 1) - bond search done!..
Looking at bond between atoms 15 & 16 ...

Smiles.getBondFeatures(): Found forward bonded atom pair '[C,C'] (15,16) as CsC with rank = 1.0 & dist = 1.54

Smiles.genBranch(): Setting coords for off-ring atom # 36 [mi] : name = C16, type = C, ibond = 0 rvecO = Vec3[12.29333333, 0.0, -8.60784655]

Smiles.genBranch(): Initial  rvecsT = [Vec3[-0.33333333, 0.0, 0.94280904], Vec3[-0.33333333, 0.81649658, -0.47140452], Vec3[-0.33333333, -0.81649658, -0.47140452], Vec3[1.0, 0.0, 0.0]]

Smiles.genBranch(): Final rvecsT = [Vec3[-0.33333333, 0.0, 0.94280904], Vec3[-0.33333333, 0.81649658, -0.47140452], Vec3[-0.33333333, -0.81649658, -0.47140452], Vec3[1.0, 0.0, 0.0]]

Smiles.genBranch(): Found bonded atom pair 'C, H' as H-C ... dist = 1.09

Smiles.genBranch(): Setting coords for atom # 37, name = H161, type = H, rvec = Vec3[11.93, 0.88998127, -9.12167748]

Smiles.genBranch(): Distance for atom pair (37, 36) 'C, H' = 1.09

Smiles.genBranch(): Distance for atom pair '(C, H)' = 0.0 for irc = 1 < 3 (4 - 1) 

Smiles.genBranch(): Found bonded atom pair 'C, H' as H-C ... dist = 1.09

Smiles.genBranch(): Setting coords for atom # 38, name = H162, type = H, rvec = Vec3[11.93, -0.88998127, -9.12167748]

Smiles.genBranch(): Distance for atom pair (38, 36) 'C, H' = 1.09

Smiles.genBranch(): Distance for atom pair '(C, H)' = 0.0 for irc = 2 < 3 (4 - 1) 

Smiles.genBranch(): Current branches = [[-1, [1], (1, 6, '([O-])')], [-1, [2], (7, 10, '(=O)')], [-1, [3], (11, 14, '(=O)')]] -  16 in [-1, -1, -1] ?.. False; 2 < 3 ?..

Smiles.genBranch(): No valid branch found for atom # 15 (38), plus irc = 3 > 2 (hatoms = 2 + nbonds = 1 - ic = 1) - bond search done!..

Smiles.genBranch(): Setting coords for off-ring atom # 39 [mi] : name = C17, type = C, ibond = 0 rvecO = Vec3[13.83333333, 0.0, -8.60784655]

Smiles.genBranch(): Initial  rvecsT = [Vec3[-0.33333333, 0.0, -0.94280904], Vec3[-0.33333333, -0.81649658, 0.47140452], Vec3[-0.33333333, 0.81649658, 0.47140452], Vec3[1.0, 0.0, 0.0]]

Smiles.genBranch(): Final rvecsT = [Vec3[-1.0, 0.0, -0.0], Vec3[0.33333333, -0.81649658, 0.47140452], Vec3[0.33333333, 0.81649658, 0.47140452], Vec3[0.33333333, 0.0, -0.94280904]]

Smiles.genBranch(): Found bonded atom pair 'C, H' as H-C ... dist = 1.09

Smiles.genBranch(): Setting coords for atom # 40, name = H171, type = H, rvec = Vec3[14.19666667, -0.88998127, -8.09401562]

Smiles.genBranch(): Distance for atom pair (40, 39) 'C, H' = 1.09

Smiles.genBranch(): Distance for atom pair '(C, H)' = 0.0 for irc = 1 < 3 (4 - 1) 

Smiles.genBranch(): Found bonded atom pair 'C, H' as H-C ... dist = 1.09

Smiles.genBranch(): Setting coords for atom # 41, name = H172, type = H, rvec = Vec3[14.19666667, 0.88998127, -8.09401562]

Smiles.genBranch(): Distance for atom pair (41, 39) 'C, H' = 1.09

Smiles.genBranch(): Distance for atom pair '(C, H)' = 0.0 for irc = 2 < 3 (4 - 1) 

Smiles.genBranch(): Found bonded atom pair 'C, H' as H-C ... dist = 1.09

Smiles.genBranch(): Setting coords for atom # 42, name = H173, type = H, rvec = Vec3[14.19666667, 0.0, -9.6355084]

Smiles.genBranch(): Distance for atom pair (42, 39) 'C, H' = 1.0900000000000005

Smiles.genBranch(): Distance for atom pair '(C, H)' = 0.0 for irc = 3 < 3 (4 - 1) 

Smiles.getMolecule(): Obtained molecule 'SDS' coords ...

shape.py::main(): Added new molecule 1 based on SMILES 'S([O-])(=O)(=O)OCCCCCCCCCCCC' 
 Molecule => { index: 0, name: 'SDS', type: 'smiles', mass: 265.388, charge: 0.0, nitems: 42;
 rvec: Vec3[5.08743898, 0.0, -3.18816444];
 rcog: Vec3[7.13674603, -0.0, -4.49405643] }', chemf = 'SO4C12', natoms = 42 ...


shape.py::main(): MolSys resetting mass (a.u.) of all 530 atoms -> 530.7760000000001 (isMassElems = True)

shape.py::main(): MolSys initial Rcom = Vec3[0.69166667, 0.0, -0.43039233]
shape.py::main(): MolSys initial Rcog = Vec3[0.69166667, 0.0, -0.43039233]

MolecularSystem.getDims(): min_xyz, min_ids = [-0.051666666666666666, -0.11839200423452029, -1.0069200564096437] @ (43, 39, 41)
MolecularSystem.getDims(): min_xyz, min_ids = [1.4350000000000003, 0.11839200423452029, 0.14613540144521983] @ (41, 40, 43)

shape.py::main(): MolSys rcob = [0.6916666666666668, 0.0, -0.4303923274822119]
shape.py::main(): MolSys bbox = [1.48666667 0.23678401 1.15305546]
shape.py::main(): MolSys sbox = [2.48666667 1.23678401 2.15305546] -> [2.48666667 1.23678401 2.15305546]
shape.py::main(): MolSys hbox = [1.24333333 0.618392   1.07652773]
shape.py::main(): MolSys orig = [1.24333333 0.618392   1.07652773] + [0.0, 0.0, 0.0]

shape.py::main(): MolSys placing structure COG at [1.24333333 0.618392   1.07652773] ...

shape.py::main(): MolSys final Rcob = Vec3[1.24333333, 0.618392, 1.07652773]
shape.py::main(): MolSys final Rcom = Vec3[1.24333333, 0.618392, 1.07652773]
shape.py::main(): MolSys final Rcog = Vec3[1.24333333, 0.618392, 1.07652773]

groFile.writeOutMols(): Ready for writing GRO file './YAML_SDS-DTA_SDS-DTA_smiles.gro' ...
groFile.writeOutMols(): Writing GRO file './YAML_SDS-DTA_SDS-DTA_smiles.gro' from line # 0 ...
groFile.writeOutMols(): Writing molecule '1SDS' into GRO file './YAML_SDS-DTA_SDS-DTA_smiles.gro' ...
groFile.writeOutMols(): Appending molecule '2SDS' to file './YAML_SDS-DTA_SDS-DTA_smiles.gro' ...
groFile.writeOutMols(): File './YAML_SDS-DTA_SDS-DTA_smiles.gro' successfully written: lines = 87 : n_mols = 2 & n_atms = 84 / 84

