
##################################################
#                                                #
#  Shapespyer - soft matter structure generator  #
#                                                #
#  Author: Dr Andrey Brukhno (c) 2020 - 2024     #
#          Daresbury Laboratory, SCD, STFC/UKRI  #
#                                                #
##################################################


shape.py::main(): Parsing input parameters (from CLI or YAML) ...
InputParser.readYaml(): 'yaml' has been successfully imported - proceeding ...

InputParser.readYaml(0): argd = {'angle': {'alpha': 0.0, 'theta': 0.0}, 'density': {'names': ['NONE']}, 'flags': {'alignz': False, 'fxz': False, 'inpbox': False, 'pin': False, 'random': False, 'rev': True, 'smiles': False, 'wav': False}, 'input': {'base': None, 'box': None, 'ext': None, 'file': 'FIELD_CTA_DTA', 'isbase': False, 'path': 'inp'}, 'membrane': {'nside': 10, 'zsep': 0}, 'molecule': {'fracs': [], 'mext': [], 'mint': [], 'molid': 1, 'molids': [1], 'names': ['DTA'], 'npick': 1, 'resnm': 'DTA'}, 'other': {'ldpd': 0.564622, 'minDist': 0.5, 'nlatt': 0, 'nlatx': 0, 'nlaty': 0, 'nlatz': 0, 'slvBuff': 1.0}, 'output': {'base': 'CONFIG_YAML_FIELD_CTA_DTA_DTA_ball_lr15_rev', 'ext': '.dlm', 'file': 'CONFIG_YAML_FIELD_CTA_DTA_DTA_ball_lr15_rev', 'isbase': True, 'path': '.'}, 'shape': {'fill': 'rings0', 'layers': [1, 1.0, 1.0], 'lring': 15, 'nmols': 0, 'nstep': 0, 'offset': [], 'origin': 'cog', 'radius': 1.1936620731892151, 'turns': 0, 'type': 'ball'}}

InputParser.readYaml(1): options = {'input': {'path': 'inp', 'file': 'FIELD_CTA_DTA', 'base': None, 'ext': None, 'box': None, 'isbase': False}, 'output': {'path': '.', 'file': 'CONFIG_YAML_FIELD_CTA_DTA_DTA_ball_lr15_rev', 'base': 'CONFIG_YAML_FIELD_CTA_DTA_DTA_ball_lr15_rev', 'ext': '.dlm', 'isbase': True}, 'molecule': {'resnm': 'DTA', 'names': ['DTA'], 'mint': [], 'mext': [], 'fracs': [], 'molids': [1], 'molid': 1, 'npick': 1}, 'shape': {'type': 'ball', 'radius': 1.1936620731892151, 'lring': 15, 'turns': 0, 'nmols': 0, 'layers': [1, 1, 1, 1, 1.0, 1.0], 'nstep': 0, 'fill': 'rings0', 'origin': 'cog', 'offset': []}, 'angle': {'alpha': 0.0, 'theta': 0.0}, 'membrane': {'nside': 10, 'zsep': 0}, 'other': {'minDist': 0.5, 'slvBuff': 1.0, 'nlatt': 0, 'nlatx': 0, 'nlaty': 0, 'nlatz': 0, 'ldpd': 0.564622}, 'flags': {'fxz': False, 'rev': True, 'pin': False, 'wav': False, 'alignz': False, 'smiles': False, 'inpbox': False, 'random': False}, 'density': {'names': ['NONE']}}

InputParser.readYaml(2): options = {'input': {'path': 'inp', 'file': 'FIELD_CTA_DTA', 'base': None, 'ext': None, 'box': None, 'isbase': False}, 'output': {'path': '.', 'file': 'CONFIG_YAML_FIELD_CTA_DTA_DTA_ball_lr15_rev', 'base': 'CONFIG_YAML_FIELD_CTA_DTA_DTA_ball_lr15_rev', 'ext': '.dlm', 'isbase': True}, 'molecule': {'resnm': 'DTA', 'names': ['DTA'], 'mint': [], 'mext': [], 'fracs': [], 'molids': [1], 'molid': 1, 'npick': 1}, 'shape': {'type': 'ball', 'radius': 1.1936620731892151, 'lring': 15, 'turns': 0, 'nmols': 0, 'layers': [1, 1, 1, 1, 1.0, 1.0], 'nstep': 0, 'fill': 'rings0', 'origin': 'cog', 'offset': []}, 'angle': {'alpha': 0.0, 'theta': 0.0}, 'membrane': {'nside': 10, 'zsep': 0}, 'other': {'minDist': 0.5, 'slvBuff': 1.0, 'nlatt': 0, 'nlatx': 0, 'nlaty': 0, 'nlatz': 0, 'ldpd': 0.564622}, 'flags': {'fxz': False, 'rev': True, 'pin': False, 'wav': False, 'alignz': False, 'smiles': False, 'inpbox': False, 'random': False}, 'density': {'names': ['NONE']}}

shape.py::main(): Parsing input parameters - DONE

shape.py::main(): Check globals & defaults:
Pi = 3.141592653589793, 2*pi = 6.283185307179586, TINY = 1e-12, HUGE = 1e+100
BUFF = 1.0, DMIN = 0.5, RMIN = 1.1936620731892151,

shape.py::main(): Requested molecule names and ids: ['DTA'] -> DTA & [1] -> 1 (1)

shape.py::main(): Requested molecule 'bone' indices: [] ... [] & (1)

shape.py::main(): Species' fractions from input = []
shape.py::main(): Number of layers to generate msurf = 1 0 -> [] ...

shape.py::main(): names suffix = 'DTA' =?= 'DTA' (rnames)  based on unique names '['DTA']' ...
shape.py::main(): Created [] - empty input list of species
shape.py::main(): Created [] - empty (output) list of species

shape.py::main(): Added MoleculeSet => { index: 0, name: 'DTA', type: 'output', mass: 0.0, charge: 0.0, nitems: 0;
 rvec: None;
 rcog: None } to the output list of species

shape.py::main(): Initial user-provided output name = CONFIG_YAML_FIELD_CTA_DTA_DTA_ball_lr15_rev
shape.py::main(): User-provided output file name 'CONFIG_YAML_FIELD_CTA_DTA_DTA_ball_lr15_rev' => DL_POLY/DL_MESO format
shape.py::main(): Using Nmol = 15
shape.py::main(): Using Nlay = 1
shape.py::main(): Using Dmin = 0.5 for min separation between heavy atoms
shape.py::main(): Using Rmin = 1.1936620731892151 for target internal radius (if applicable)
shape.py::main(): Using Rbuf = 1.0 for solvation buffer

InputParser.dumpYaml(): 'yaml' found in sys.modules - proceeding ...
shape.py::main(): Doing: input 'FIELD_CTA_DTA' => output 'CONFIG_YAML_FIELD_CTA_DTA_DTA_ball_lr15_rev'

FIELDFile.readInMols(): Ready for reading FIELD file 'inp/FIELD_CTA_DTA' ...
FIELDFile.readInMols(): Reading FIELD file 'inp/FIELD_CTA_DTA' from line # 0 (file is_open = True)...
FIELDFile.readInMols(): FIELD title: 'Mixture of CTAC and DTAC (molecules defined without Cl ions)
'

FIELDFile.readInMols(): FIELD file formatted for DL_MESO - using molecular coordinates supplied
FIELDFile.readInMols(): Adding new molecular species - 0, mspec = 0
FIELDFile.readInMols(): Atom => { index: 1, name: 'NC3CH2', type: 'DTA', mass: 1.0, charge: 1.0;
 rvec: Vec3[0.00116957, -0.03208666, 0.76390372] }
FIELDFile.readInMols(): Atom => { index: 2, name: 'CH2CH2', type: 'DTA', mass: 1.0, charge: 0.0;
 rvec: Vec3[0.02897156, 0.06151637, 0.48609841] }
FIELDFile.readInMols(): Atom => { index: 3, name: 'CH2CH2', type: 'DTA', mass: 1.0, charge: 0.0;
 rvec: Vec3[0.02097087, 0.01951414, 0.23909887] }
FIELDFile.readInMols(): Atom => { index: 4, name: 'CH2CH2', type: 'DTA', mass: 1.0, charge: 0.0;
 rvec: Vec3[0.01197079, 0.00751593, -0.01240071] }
FIELDFile.readInMols(): Atom => { index: 5, name: 'CH2CH2', type: 'DTA', mass: 1.0, charge: 0.0;
 rvec: Vec3[0.00197134, -0.00598419, -0.26290091] }
FIELDFile.readInMols(): Atom => { index: 6, name: 'CH2CH2', type: 'DTA', mass: 1.0, charge: 0.0;
 rvec: Vec3[-0.00702874, -0.01898743, -0.51389797] }
FIELDFile.readInMols(): Atom => { index: 7, name: 'CH3', type: 'DTA', mass: 1.0, charge: 0.0;
 rvec: Vec3[-0.0580254, -0.03148816, -0.6999014] }
FIELDFile.readInMols(): Molecule type 'DTA' with 7 particle(s) found ... 
FIELDFile.readInMols(): File 'inp/FIELD_CTA_DTA' successfully read: lines = 74 & mspec = 1

shape.py::main(): Read-in [MoleculeSet => { index: 0, name: 'DTA', type: 'input', mass: 0.0, charge: 0.0, nitems: 1;
 rvec: None;
 rcog: None }]
shape.py::main(): Ordered [MoleculeSet => { index: 0, name: 'DTA', type: 'input', mass: 0.0, charge: 0.0, nitems: 1;
 rvec: None;
 rcog: None }]
shape.py::main(): Read-in M_mols = 1, Mol_Names = ['DTA'], N_mols = [1], N_atms = [7], M_atms = 7

shape.py::main(): WARNING! number of mint indices 0 < 1 (number of species read in) - resetting ...
shape.py::main(): WARNING! number of mext indices 0 < 1 (number of species read in) - resetting ...
shape.py::main(): Setting molecule 'bone' indices: [6] ... [0] ->  [0] ... [6] & (1 / 0)

Ball.makeNew(info): Number of molecules on 'equator':  lring = 15 <-> Rmin = 1.1936620731892151
Ball.makeNew(info): Number of rings (turns) in a ball: turns = 8
Ball.makeNew(info): Number of (mono-)layers in a ball: layers = 0 / 1

Ball.makeNew(info): Estimated molecule number = 64
Ball.makeNew(info): Placing 0-th ring of 1 mols at zorg = -1.1936620731892151, theta = -90.0, rmin = 7.30907218597383e-17
Ball.makeNew(info): Placing 1-th ring of 6 mols at zorg = -1.0754523667393416, theta = -64.28571428571428, rmin = 0.5179105635581532
Ball.makeNew(info): Placing 2-th ring of 11 mols at zorg = -0.7442361294990286, theta = -38.57142857142856, rmin = 0.933242588247386
Ball.makeNew(info): Placing 3-th ring of 14 mols at zorg = -0.26561479935429444, theta = -12.857142857142847, rmin = 1.1637344728649885
Ball.makeNew(info): Placing 4-th ring of 14 mols at zorg = 0.2656147993542949, theta = 12.857142857142868, rmin = 1.1637344728649885
Ball.makeNew(info): Placing 5-th ring of 11 mols at zorg = 0.7442361294990291, theta = 38.571428571428584, rmin = 0.9332425882473858
Ball.makeNew(info): Placing 6-th ring of 6 mols at zorg = 1.0754523667393419, theta = 64.2857142857143, rmin = 0.5179105635581526
Ball.makeNew(info): Placing 7-th ring of 1 mols at zorg = 1.1936620731892151, theta = 90.00000000000003, rmin = -4.570017250508478e-16

shape.py::main(): Replacing '_ball' -> '_ball_nmr64' in the output file name ...

shape.py::main(): Total number of molecules = 64
shape.py::main(): Molecule distribution = [64]


shape.py::main(): MolSys resetting mass (a.u.) of all 448 atoms -> 5508.6720000000005 (isMassElems = True)

shape.py::main(): MolSys initial Rcom = Vec3[-0.0, 0.00171784, 0.03990237]
shape.py::main(): MolSys initial Rcog = Vec3[-0.0, 0.00175862, 0.04084966]

MolecularSystem.getDims(): min_xyz, min_ids = [-4.590691598832464, -4.475593375920372, -4.7087497870060995] @ (181, 202, 6)
MolecularSystem.getDims(): min_xyz, min_ids = [4.590691598832464, 4.475593375920372, 4.7087497870060995] @ (132, 153, 447)

shape.py::main(): MolSys rcob = [0.0, 0.0, 0.0]
shape.py::main(): MolSys bbox = [9.1813832  8.95118675 9.41749957]
shape.py::main(): MolSys sbox = [10.95247961 10.72228317 11.18859599] -> [10.95247961 10.72228317 11.18859599]
shape.py::main(): MolSys hbox = [5.47623981 5.36114158 5.59429799]
shape.py::main(): MolSys orig = [0. 0. 0.] + [0.0, 0.0, 0.0]

Applying PBC to molecules in set 'DTA': box = [10.95247961 10.72228317 11.18859599] & isMolPBC = True
Molecule.updateRvecs(): Molecule 0 has been restored w.r.t. PBC ...
Molecule.updateRvecs(): Molecule 1 has been restored w.r.t. PBC ...
Molecule.updateRvecs(): Molecule 2 has been restored w.r.t. PBC ...
Molecule.updateRvecs(): Molecule 3 has been restored w.r.t. PBC ...
Molecule.updateRvecs(): Molecule 4 has been restored w.r.t. PBC ...
Molecule.updateRvecs(): Molecule 5 has been restored w.r.t. PBC ...

shape.py::main(): MolSys *PBC* Rcom = Vec3[-0.0, 0.00171784, 0.03990237]
shape.py::main(): MolSys *PBC* Rcog = Vec3[-0.0, 0.00175862, 0.04084966]

shape.py::main(): MolSys placing structure COG at [0. 0. 0.] ...

Applying PBC to molecules in set 'DTA': box = [10.95247961 10.72228317 11.18859599] & isMolPBC = True
Molecule.updateRvecs(): Molecule 0 has been restored w.r.t. PBC ...
Molecule.updateRvecs(): Molecule 1 has been restored w.r.t. PBC ...
Molecule.updateRvecs(): Molecule 2 has been restored w.r.t. PBC ...
Molecule.updateRvecs(): Molecule 3 has been restored w.r.t. PBC ...
Molecule.updateRvecs(): Molecule 4 has been restored w.r.t. PBC ...
Molecule.updateRvecs(): Molecule 5 has been restored w.r.t. PBC ...

shape.py::main(): MolSys *PBC* Rcom = Vec3[0.0, -4.078e-05, -0.00094729]
shape.py::main(): MolSys *PBC* Rcog = Vec3[-0.0, 0.0, 0.0]

shape.py::main(): MolSys final Rcob = Vec3[0.0, -0.00175862, -0.04084966]
shape.py::main(): MolSys final Rcom = Vec3[0.0, -4.078e-05, -0.00094729]
shape.py::main(): MolSys final Rcog = Vec3[-0.0, 0.0, 0.0]

CONFIGFile.writeOutMols(): Ready for writing CONFIG file './CONFIG_YAML_FIELD_CTA_DTA_DTA_ball_nmr64_lr15_rev' ...
CONFIGFile.writeOutMols(): Writing CONFIG file './CONFIG_YAML_FIELD_CTA_DTA_DTA_ball_nmr64_lr15_rev' ...
CONFIGFile.writeOutMols(): Writing molecule 1 ('DTA') into CONFIG file './CONFIG_YAML_FIELD_CTA_DTA_DTA_ball_nmr64_lr15_rev' ...
CONFIGFile.writeOutMols(): Appending molecule 2 ('DTA') to file './CONFIG_YAML_FIELD_CTA_DTA_DTA_ball_nmr64_lr15_rev' ...
CONFIGFile.writeOutMols(): Appending molecule 3 ('DTA') to file './CONFIG_YAML_FIELD_CTA_DTA_DTA_ball_nmr64_lr15_rev' ...
CONFIGFile.writeOutMols(): Appending molecule 4 ('DTA') to file './CONFIG_YAML_FIELD_CTA_DTA_DTA_ball_nmr64_lr15_rev' ...
CONFIGFile.writeOutMols(): Appending molecule 5 ('DTA') to file './CONFIG_YAML_FIELD_CTA_DTA_DTA_ball_nmr64_lr15_rev' ...
CONFIGFile.writeOutMols(): Appending molecule 6 ('DTA') to file './CONFIG_YAML_FIELD_CTA_DTA_DTA_ball_nmr64_lr15_rev' ...
CONFIGFile.writeOutMols(): Appending molecule 7 ('DTA') to file './CONFIG_YAML_FIELD_CTA_DTA_DTA_ball_nmr64_lr15_rev' ...
CONFIGFile.writeOutMols(): Appending molecule 8 ('DTA') to file './CONFIG_YAML_FIELD_CTA_DTA_DTA_ball_nmr64_lr15_rev' ...
CONFIGFile.writeOutMols(): Appending molecule 9 ('DTA') to file './CONFIG_YAML_FIELD_CTA_DTA_DTA_ball_nmr64_lr15_rev' ...
CONFIGFile.writeOutMols(): Appending molecule 10 ('DTA') to file './CONFIG_YAML_FIELD_CTA_DTA_DTA_ball_nmr64_lr15_rev' ...
CONFIGFile.writeOutMols(): Appending molecule 20 ('DTA') to file './CONFIG_YAML_FIELD_CTA_DTA_DTA_ball_nmr64_lr15_rev' ...
CONFIGFile.writeOutMols(): Appending molecule 30 ('DTA') to file './CONFIG_YAML_FIELD_CTA_DTA_DTA_ball_nmr64_lr15_rev' ...
CONFIGFile.writeOutMols(): Appending molecule 40 ('DTA') to file './CONFIG_YAML_FIELD_CTA_DTA_DTA_ball_nmr64_lr15_rev' ...
CONFIGFile.writeOutMols(): Appending molecule 50 ('DTA') to file './CONFIG_YAML_FIELD_CTA_DTA_DTA_ball_nmr64_lr15_rev' ...
CONFIGFile.writeOutMols(): Appending molecule 60 ('DTA') to file './CONFIG_YAML_FIELD_CTA_DTA_DTA_ball_nmr64_lr15_rev' ...
CONFIGFile.writeOutMols(): Appending molecule 64 ('DTA') to file './CONFIG_YAML_FIELD_CTA_DTA_DTA_ball_nmr64_lr15_rev' ...
CONFIGFile.writeOutMols(): File './CONFIG_YAML_FIELD_CTA_DTA_DTA_ball_nmr64_lr15_rev' successfully written: lines = 901 : n_mols = 64 & n_atms = 448 / 448

